#FIG 3.2
Landscape
Center
Metric
A4      
100.00
Single
-2
1200 2
6 3450 6000 3825 6525
1 3 0 1 0 7 50 0 -1 0.000 1 0.0000 3645 6390 135 135 3645 6390 3780 6390
4 0 0 50 0 0 14 0.0000 4 195 315 3510 6210 p14\001
-6
6 3900 6825 4275 7350
1 3 0 1 0 7 50 0 -1 0.000 1 0.0000 4095 7155 135 135 4095 7155 4095 7290
4 0 0 50 0 0 14 0.0000 4 195 315 3960 6975 p13\001
-6
6 5175 7275 5550 7800
1 3 0 1 0 7 50 0 -1 0.000 1 0.0000 5355 7605 135 135 5355 7605 5355 7740
4 0 0 50 0 0 14 0.0000 4 195 210 5220 7425 p8\001
-6
6 2475 6300 2850 6825
1 3 0 1 0 7 50 0 -1 0.000 1 0.0000 2610 6660 135 135 2610 6660 2610 6795
4 0 0 50 0 0 14 0.0000 4 195 315 2475 6480 p15\001
-6
6 1200 3000 1575 3525
1 3 0 3 0 7 50 0 -1 0.000 1 0.0000 1395 3330 135 135 1395 3330 1530 3330
4 0 0 50 0 2 14 0.0000 4 195 225 1260 3150 p3\001
-6
6 3525 3075 3900 3600
1 3 0 1 0 7 50 0 -1 0.000 1 0.0000 3690 3420 135 135 3690 3420 3690 3555
4 0 0 50 0 0 14 0.0000 4 195 315 3555 3240 p12\001
-6
6 3375 4200 3750 4725
1 3 0 1 0 7 50 0 -1 0.000 1 0.0000 3555 4590 135 135 3555 4590 3690 4590
4 0 0 50 0 0 14 0.0000 4 195 315 3420 4410 p10\001
-6
6 3525 5025 3825 5550
1 3 0 1 0 7 50 0 -1 0.000 1 0.0000 3690 5400 135 135 3690 5400 3825 5400
4 0 0 50 0 0 14 0.0000 4 195 210 3555 5220 p6\001
-6
6 1050 5250 1425 5775
1 3 0 1 0 7 50 0 -1 0.000 1 0.0000 1230 5580 135 135 1230 5580 1230 5715
4 0 0 50 0 0 14 0.0000 4 195 210 1095 5400 p7\001
-6
6 2100 5250 2475 5775
1 3 0 1 0 7 50 0 -1 0.000 1 0.0000 2235 5625 135 135 2235 5625 2235 5760
4 0 0 50 0 0 14 0.0000 4 195 315 2100 5445 p11\001
-6
6 1710 3915 1980 4410
1 3 0 1 0 7 50 0 -1 0.000 1 0.0000 1845 4260 135 135 1845 4260 1845 4395
4 0 0 50 0 0 14 0.0000 4 195 210 1710 4080 p9\001
-6
6 5040 3285 5400 3825
1 3 0 3 0 7 50 0 -1 0.000 1 0.0000 5220 3645 135 135 5220 3645 5355 3645
4 0 0 50 0 2 14 0.0000 4 195 225 5085 3465 p1\001
-6
6 945 6300 1260 6840
1 3 0 3 0 7 50 0 -1 0.000 1 0.0000 1110 6660 135 135 1110 6660 1245 6660
4 0 0 50 0 2 14 0.0000 4 195 225 975 6480 p2\001
-6
6 2925 7065 3195 7560
1 3 0 1 0 7 50 0 -1 0.000 1 0.0000 3060 7410 135 135 3060 7410 3060 7545
4 0 0 50 0 0 14 0.0000 4 195 210 2925 7230 p5\001
-6
6 5040 5220 5400 5715
1 3 0 3 0 7 50 0 -1 0.000 1 0.0000 5220 5565 135 135 5220 5565 5355 5565
4 0 0 50 0 2 14 0.0000 4 195 225 5085 5385 p4\001
-6
6 7920 4320 12060 6345
6 9075 4350 10950 5175
6 9075 4350 9375 5175
2 1 0 1 0 7 50 0 -1 0.000 0 0 -1 0 0 2
	 9090 4950 9360 4950
2 1 0 1 0 7 50 0 -1 0.000 0 0 -1 0 0 2
	 9090 4770 9360 4770
2 1 0 1 0 7 50 0 -1 0.000 0 0 -1 0 0 2
	 9090 4590 9360 4590
2 3 0 1 0 7 50 0 -1 0.000 0 0 -1 0 0 5
	 9090 5130 9360 5130 9360 4410 9090 4410 9090 5130
2 1 0 1 0 7 50 0 -1 0.000 0 0 -1 0 0 2
	 9225 4410 9225 5130
-6
6 9525 4350 9900 5175
2 1 0 1 0 7 50 0 -1 0.000 0 0 -1 0 0 2
	 9585 4950 9855 4950
2 1 0 1 0 7 50 0 -1 0.000 0 0 -1 0 0 2
	 9585 4770 9855 4770
2 1 0 1 0 7 50 0 -1 0.000 0 0 -1 0 0 2
	 9585 4590 9855 4590
2 3 0 1 0 7 50 0 -1 0.000 0 0 -1 0 0 5
	 9585 5130 9855 5130 9855 4410 9585 4410 9585 5130
2 1 0 1 0 7 50 0 -1 0.000 0 0 -1 0 0 2
	 9720 4410 9720 5130
-6
6 10125 4350 10425 5175
2 1 0 1 0 7 50 0 -1 0.000 0 0 -1 0 0 2
	 10125 4950 10395 4950
2 1 0 1 0 7 50 0 -1 0.000 0 0 -1 0 0 2
	 10125 4770 10395 4770
2 1 0 1 0 7 50 0 -1 0.000 0 0 -1 0 0 2
	 10125 4590 10395 4590
2 3 0 1 0 7 50 0 -1 0.000 0 0 -1 0 0 5
	 10125 5130 10395 5130 10395 4410 10125 4410 10125 5130
2 1 0 1 0 7 50 0 -1 0.000 0 0 -1 0 0 2
	 10260 4410 10260 5130
-6
6 10650 4350 10950 5175
2 1 0 1 0 7 50 0 -1 0.000 0 0 -1 0 0 2
	 10665 4950 10935 4950
2 1 0 1 0 7 50 0 -1 0.000 0 0 -1 0 0 2
	 10665 4770 10935 4770
2 1 0 1 0 7 50 0 -1 0.000 0 0 -1 0 0 2
	 10665 4590 10935 4590
2 3 0 1 0 7 50 0 -1 0.000 0 0 -1 0 0 5
	 10665 5130 10935 5130 10935 4410 10665 4410 10665 5130
2 1 0 1 0 7 50 0 -1 0.000 0 0 -1 0 0 2
	 10800 4410 10800 5130
-6
-6
2 1 0 1 0 7 50 0 -1 0.000 0 0 -1 0 0 2
	 10260 5535 10395 6075
2 1 0 1 0 7 50 0 -1 0.000 0 0 -1 0 0 2
	 9180 5535 8370 6075
2 1 0 1 0 7 50 0 -1 0.000 0 0 -1 0 0 2
	 9675 5580 9495 6075
2 1 0 1 0 7 50 0 -1 0.000 0 0 -1 0 0 2
	 10845 5580 11295 6030
4 0 0 50 0 0 14 0.0000 4 195 210 10710 5490 p4\001
4 0 0 50 0 0 14 0.0000 4 195 210 10170 5490 p3\001
4 0 0 50 0 0 14 0.0000 4 195 210 9630 5490 p2\001
4 0 0 50 0 0 14 0.0000 4 195 210 9135 5490 p1\001
4 0 0 50 0 0 14 0.0000 4 195 675 7920 6300 p10 p12\001
4 0 0 50 0 0 14 0.0000 4 195 1185 8820 6255 p5 p7 p11 p15\001
4 0 0 50 0 0 14 0.0000 4 195 210 10305 6255 p9\001
4 0 0 50 0 0 14 0.0000 4 195 1185 10845 6255 p6 p8 p13 p14\001
-6
2 1 0 1 0 7 50 0 -1 0.000 0 0 -1 0 0 2
	 2745 5130 6030 4410
2 1 0 1 0 7 50 0 -1 0.000 0 0 -1 0 0 2
	 2745 5130 540 5130
2 1 0 1 0 7 50 0 -1 0.000 0 0 -1 0 0 2
	 2655 5130 3330 2655
2 1 0 1 0 7 50 0 -1 0.000 0 0 -1 0 0 2
	 4050 7740 2745 5130
