%!PS-Adobe-2.0 EPSF-2.0
%%Title: gnatconst2.fig
%%Creator: fig2dev Version 3.2 Patchlevel 5
%%CreationDate: Thu Sep  3 15:54:42 2009
%%For: root@hanamichi (root)
%%BoundingBox: 0 0 593 223
%Magnification: 1.0000
%%EndComments
%%BeginProlog
/$F2psDict 200 dict def
$F2psDict begin
$F2psDict /mtrx matrix put
/col-1 {0 setgray} bind def
/col0 {0.000 0.000 0.000 srgb} bind def
/col1 {0.000 0.000 1.000 srgb} bind def
/col2 {0.000 1.000 0.000 srgb} bind def
/col3 {0.000 1.000 1.000 srgb} bind def
/col4 {1.000 0.000 0.000 srgb} bind def
/col5 {1.000 0.000 1.000 srgb} bind def
/col6 {1.000 1.000 0.000 srgb} bind def
/col7 {1.000 1.000 1.000 srgb} bind def
/col8 {0.000 0.000 0.560 srgb} bind def
/col9 {0.000 0.000 0.690 srgb} bind def
/col10 {0.000 0.000 0.820 srgb} bind def
/col11 {0.530 0.810 1.000 srgb} bind def
/col12 {0.000 0.560 0.000 srgb} bind def
/col13 {0.000 0.690 0.000 srgb} bind def
/col14 {0.000 0.820 0.000 srgb} bind def
/col15 {0.000 0.560 0.560 srgb} bind def
/col16 {0.000 0.690 0.690 srgb} bind def
/col17 {0.000 0.820 0.820 srgb} bind def
/col18 {0.560 0.000 0.000 srgb} bind def
/col19 {0.690 0.000 0.000 srgb} bind def
/col20 {0.820 0.000 0.000 srgb} bind def
/col21 {0.560 0.000 0.560 srgb} bind def
/col22 {0.690 0.000 0.690 srgb} bind def
/col23 {0.820 0.000 0.820 srgb} bind def
/col24 {0.500 0.190 0.000 srgb} bind def
/col25 {0.630 0.250 0.000 srgb} bind def
/col26 {0.750 0.380 0.000 srgb} bind def
/col27 {1.000 0.500 0.500 srgb} bind def
/col28 {1.000 0.630 0.630 srgb} bind def
/col29 {1.000 0.750 0.750 srgb} bind def
/col30 {1.000 0.880 0.880 srgb} bind def
/col31 {1.000 0.840 0.000 srgb} bind def

end

/cp {closepath} bind def
/ef {eofill} bind def
/gr {grestore} bind def
/gs {gsave} bind def
/sa {save} bind def
/rs {restore} bind def
/l {lineto} bind def
/m {moveto} bind def
/rm {rmoveto} bind def
/n {newpath} bind def
/s {stroke} bind def
/sh {show} bind def
/slc {setlinecap} bind def
/slj {setlinejoin} bind def
/slw {setlinewidth} bind def
/srgb {setrgbcolor} bind def
/rot {rotate} bind def
/sc {scale} bind def
/sd {setdash} bind def
/ff {findfont} bind def
/sf {setfont} bind def
/scf {scalefont} bind def
/sw {stringwidth} bind def
/tr {translate} bind def
/tnt {dup dup currentrgbcolor
  4 -2 roll dup 1 exch sub 3 -1 roll mul add
  4 -2 roll dup 1 exch sub 3 -1 roll mul add
  4 -2 roll dup 1 exch sub 3 -1 roll mul add srgb}
  bind def
/shd {dup dup currentrgbcolor 4 -2 roll mul 4 -2 roll mul
  4 -2 roll mul srgb} bind def
 /DrawEllipse {
	/endangle exch def
	/startangle exch def
	/yrad exch def
	/xrad exch def
	/y exch def
	/x exch def
	/savematrix mtrx currentmatrix def
	x y tr xrad yrad sc 0 0 1 startangle endangle arc
	closepath
	savematrix setmatrix
	} def

/$F2psBegin {$F2psDict begin /$F2psEnteredState save def} def
/$F2psEnd {$F2psEnteredState restore end} def

/pageheader {
save
newpath 0 223 moveto 0 0 lineto 593 0 lineto 593 223 lineto closepath clip newpath
-24.8 253.2 translate
1 -1 scale
$F2psBegin
10 setmiterlimit
0 slj 0 slc
 0.06299 0.06299 sc
} bind def
/pagefooter {
$F2psEnd
restore
} bind def
%%EndProlog
pageheader
%
% Fig objects follow
%
% 
% here starts figure with depth 50
% Ellipse
15.000 slw
n 2160 3420 135 135 0 360 DrawEllipse gs col0 s gr

% Ellipse
n 3420 3870 135 135 0 360 DrawEllipse gs col0 s gr

% Polyline
0 slj
0 slc
7.500 slw
n 7785 1530 m
 7920 2070 l gs col0 s gr 
% Polyline
n 6705 1530 m
 5895 2070 l gs col0 s gr 
% Polyline
n 7200 1575 m
 7020 2070 l gs col0 s gr 
% Polyline
n 8370 1575 m
 8820 2025 l gs col0 s gr 
% Polyline
n 8685 2295 m
 8685 2700 l gs col0 s gr 
% Ellipse
15.000 slw
n 1755 1665 135 135 0 360 DrawEllipse gs col0 s gr

% Ellipse
n 1710 2655 135 135 0 360 DrawEllipse gs col0 s gr

% Ellipse
7.500 slw
n 3840 2730 135 135 0 360 DrawEllipse gs col0 s gr

% Ellipse
n 840 2940 135 135 0 360 DrawEllipse gs col0 s gr

% Ellipse
n 1290 3690 135 135 0 360 DrawEllipse gs col0 s gr

% Ellipse
n 1530 855 135 135 0 360 DrawEllipse gs col0 s gr

% Polyline
n 810 1395 m
 4095 675 l gs col0 s gr 
% Polyline
n 810 1395 m
 405 1395 l gs col0 s gr 
% Polyline
n 720 1395 m
 945 540 l gs col0 s gr 
% Polyline
n 2115 4005 m
 810 1395 l gs col0 s gr 
% Polyline
n 3461 3870 m 3469 3870 l gs col0 s gr
% Polyline
 [150] 0 sd
n 1710 3150 m
 3195 2160 l gs col0 s gr  [] 0 sd
% Polyline
 [150] 0 sd
n 2655 4005 m
 3285 2160 l gs col0 s gr  [] 0 sd
% Polyline
 [150] 0 sd
n 3285 2160 m
 4230 1530 l gs col0 s gr  [] 0 sd
% Polyline
 [150] 0 sd
n 1215 2160 m
 3195 2160 l gs col0 s gr  [] 0 sd
/Times-Bold ff 222.25 scf sf
2025 3240 m
gs 1 -1 sc (p13) col0 sh gr
/Times-Bold ff 222.25 scf sf
3285 3690 m
gs 1 -1 sc (p8) col0 sh gr
/Times-Roman ff 222.25 scf sf
8235 1485 m
gs 1 -1 sc (p4) col0 sh gr
/Times-Roman ff 222.25 scf sf
7695 1485 m
gs 1 -1 sc (p3) col0 sh gr
/Times-Roman ff 222.25 scf sf
7155 1485 m
gs 1 -1 sc (p2) col0 sh gr
/Times-Roman ff 222.25 scf sf
6660 1485 m
gs 1 -1 sc (p1) col0 sh gr
/Times-Roman ff 222.25 scf sf
5445 2295 m
gs 1 -1 sc (p10 p12) col0 sh gr
/Times-Roman ff 222.25 scf sf
6345 2250 m
gs 1 -1 sc (p5 p7 p11 p15) col0 sh gr
/Times-Roman ff 222.25 scf sf
7830 2250 m
gs 1 -1 sc (p9) col0 sh gr
/Times-Roman ff 222.25 scf sf
8370 2250 m
gs 1 -1 sc (p6 p8 p13 p14) col0 sh gr
/Times-Roman ff 222.25 scf sf
8640 2880 m
gs 1 -1 sc (p16) col0 sh gr
/Times-Bold ff 222.25 scf sf
1620 1485 m
gs 1 -1 sc (p6) col0 sh gr
/Times-Bold ff 222.25 scf sf
1575 2475 m
gs 1 -1 sc (p14) col0 sh gr
/Times-Roman ff 222.25 scf sf
3705 2550 m
gs 1 -1 sc (p16) col0 sh gr
/Times-Roman ff 222.25 scf sf
705 2760 m
gs 1 -1 sc (p15) col0 sh gr
/Times-Roman ff 222.25 scf sf
1155 3510 m
gs 1 -1 sc (p5) col0 sh gr
/Times-Roman ff 222.25 scf sf
1395 675 m
gs 1 -1 sc (p10) col0 sh gr
% here ends figure;
pagefooter
showpage
%%Trailer
%EOF
