#FIG 3.2
Landscape
Center
Metric
A4      
100.00
Single
-2
1200 2
5 1 0 1 0 7 50 0 -1 0.000 0 0 0 0 1139.972 6639.842 2610 4095 3330 4680 4005 5985
5 1 0 1 0 7 50 0 -1 0.000 0 0 0 0 879.132 6751.982 2250 4680 2835 5220 3330 6345
5 1 0 1 0 7 50 0 -1 0.000 0 0 0 0 1079.167 6642.500 1845 5265 2385 5760 2655 6615
5 1 0 1 0 7 50 0 -1 0.000 0 0 0 0 1062.616 6670.598 3600 3690 4680 5175 4815 7785
5 1 0 1 0 7 50 0 -1 0.000 0 0 0 0 1038.936 6683.985 5850 2385 7110 4500 7380 7875
6 5550 4950 5925 5400
1 3 0 3 0 7 50 0 -1 0.000 1 0.0000 5760 5235 135 135 5760 5235 5895 5235
4 0 0 50 0 2 14 0.0000 4 105 105 5625 5055 x\001
-6
6 5700 6750 6825 7125
4 0 0 50 0 0 12 -0.0000 4 135 90 6660 7065 q\001
4 0 0 50 0 0 14 6.1959 4 195 1080 5715 6930 max_d(p,D )\001
-6
6 900 6375 1275 6825
1 3 0 3 0 7 50 0 -1 0.000 1 0.0000 1110 6660 135 135 1110 6660 1245 6660
4 0 0 50 0 2 14 0.0000 4 150 120 975 6480 p\001
-6
6 2295 7065 3375 7695
4 0 0 50 0 0 14 5.9341 4 195 1020 2340 7245 min_d(p,D )\001
4 0 0 50 0 0 12 5.9341 4 135 90 3150 7605 q\001
-6
6 4650 3900 5025 4200
4 0 0 50 0 0 20 0.0000 4 195 210 4680 4095 D\001
4 0 0 50 0 0 14 0.0000 4 105 105 4905 4140 x\001
-6
6 2430 4950 3915 6435
6 3015 5490 3420 5895
6 3015 5580 3285 5895
1 3 0 1 0 7 50 0 -1 0.000 1 0.0000 3150 5730 135 135 3150 5730 3150 5865
-6
4 0 0 50 0 0 14 0.0000 4 150 105 3285 5625 q\001
-6
1 3 0 1 0 7 50 0 -1 0.000 1 0.0000 3165 5700 712 712 3165 5700 3840 5925
-6
1 3 0 1 0 0 50 0 20 0.000 1 0.0000 5175 3735 64 64 5175 3735 5239 3735
1 3 0 1 0 0 50 0 20 0.000 1 0.0000 5805 4005 64 64 5805 4005 5869 4005
1 3 0 1 0 0 50 0 20 0.000 1 0.0000 4455 4635 64 64 4455 4635 4519 4635
1 3 0 1 0 0 50 0 20 0.000 1 0.0000 7380 5985 64 64 7380 5985 7444 5985
1 3 0 1 0 0 50 0 20 0.000 1 0.0000 7200 5040 64 64 7200 5040 7264 5040
1 3 0 1 0 0 50 0 20 0.000 1 0.0000 6390 5940 64 64 6390 5940 6454 5940
1 3 0 1 0 0 50 0 20 0.000 1 0.0000 5175 4500 64 64 5175 4500 5239 4500
1 3 0 1 0 0 50 0 20 0.000 1 0.0000 6480 4545 64 64 6480 4545 6544 4545
1 3 0 1 0 0 50 0 20 0.000 1 0.0000 5130 5490 64 64 5130 5490 5194 5490
1 3 0 1 0 0 50 0 20 0.000 1 0.0000 5265 5715 64 64 5265 5715 5329 5715
1 3 0 1 0 0 50 0 20 0.000 1 0.0000 5625 5940 64 64 5625 5940 5689 5940
1 3 0 1 0 0 50 0 20 0.000 1 0.0000 5265 6525 64 64 5265 6525 5329 6525
1 3 0 1 0 0 50 0 20 0.000 1 0.0000 5130 7335 64 64 5130 7335 5194 7335
1 3 0 1 0 0 50 0 20 0.000 1 0.0000 6120 3510 64 64 6120 3510 6184 3510
1 3 0 1 0 0 50 0 20 0.000 1 0.0000 4365 3960 64 64 4365 3960 4429 3960
2 1 0 1 0 7 50 0 -1 0.000 0 0 -1 1 0 2
	1 1 1.00 60.00 120.00
	 1260 6705 4815 7695
2 1 0 1 0 7 50 0 -1 0.000 0 0 -1 1 0 2
	1 1 1.00 60.00 120.00
	 1260 6660 7470 7200
2 1 0 1 0 7 50 0 -1 0.000 0 0 -1 1 0 2
	1 1 1.00 60.00 120.00
	 1125 6615 3015 5805
2 1 0 1 0 7 50 0 -1 0.000 0 0 -1 1 1 2
	1 1 1.00 60.00 120.00
	1 1 1.00 60.00 120.00
	 2115 5490 3060 4410
4 0 0 50 0 0 14 0.0000 4 105 75 2250 5130 r\001
4 0 0 50 0 0 14 0.0000 4 105 75 2700 4680 r\001
