#FIG 3.2  Produced by xfig version 3.2.5
Landscape
Center
Metric
A4      
100.00
Single
-2
1200 2
5 1 0 1 0 7 50 -1 -1 0.000 0 0 0 0 2673.458 3323.129 2835 2610 3330 3645 1980 3555
5 1 0 1 0 7 50 -1 -1 4.000 0 0 0 0 3459.930 2041.113 2295 1755 4635 1800 3420 3240
1 3 0 1 0 7 50 -1 -1 0.000 1 0.0000 1890 2610 923 923 1890 2610 2520 3285
1 4 0 1 0 0 50 -1 41 0.000 1 0.0000 1867 2610 51 51 1845 2565 1890 2655
1 4 0 1 0 0 50 -1 41 0.000 1 0.0000 2655 3352 51 51 2610 3330 2700 3375
1 4 1 1 0 0 50 -1 41 4.000 1 0.0000 2092 3285 51 51 2070 3240 2115 3330
1 3 0 1 0 7 50 -1 -1 0.000 1 0.0000 1890 2610 923 923 1890 2610 2520 3285
1 3 0 1 0 7 50 -1 -1 0.000 1 0.0000 1890 2610 923 923 1890 2610 2520 3285
1 4 0 1 0 0 50 -1 41 0.000 1 0.0000 3442 1980 51 51 3420 1935 3465 2025
2 1 1 1 0 0 50 -1 41 4.000 0 0 -1 0 0 2
	 1800 2655 1080 3105
2 1 1 1 0 0 50 -1 41 4.000 0 0 -1 0 0 2
	 2700 3375 3240 3825
2 1 1 1 0 0 50 -1 41 4.000 0 0 -1 0 0 2
	 1800 2655 1080 3105
2 1 1 1 0 7 50 -1 -1 4.000 0 0 -1 0 0 2
	 3420 1980 2520 1305
2 1 0 1 0 7 50 -1 -1 4.000 0 0 -1 1 0 2
	0 0 1.00 60.00 120.00
	 5670 2295 5670 2925
2 1 0 1 0 7 50 -1 -1 4.000 0 0 -1 1 0 2
	0 0 1.00 60.00 120.00
	 6120 2025 6750 2025
2 1 0 1 0 7 50 -1 -1 4.000 0 0 -1 1 0 2
	0 0 1.00 60.00 120.00
	 7155 2295 7155 2925
2 1 0 1 0 7 50 -1 -1 4.000 0 0 -1 1 0 2
	0 0 1.00 60.00 120.00
	 8640 2250 8640 2880
2 1 0 1 0 7 50 -1 -1 4.000 0 0 -1 1 0 2
	0 0 1.00 60.00 120.00
	 7605 2025 8235 2025
4 0 0 50 -1 0 12 0.0000 4 135 195 1935 2565 c1\001
4 0 0 50 -1 0 12 0.0000 4 135 195 2745 3285 c2\001
4 0 0 50 -1 0 12 0.0000 4 135 195 3465 1890 c3\001
4 0 0 50 -1 0 12 0.0000 4 135 165 1350 2835 r1\001
4 0 0 50 -1 0 12 0.0000 4 90 105 2025 3195 u\001
4 0 0 50 -1 0 12 0.0000 4 135 165 2925 3825 r2\001
4 0 0 50 -1 0 12 0.0000 4 135 165 2925 1575 r3\001
4 0 0 50 -1 0 12 0.0000 4 165 525 5445 2070 (c1,r1)\001
4 0 0 50 -1 0 12 0.0000 4 165 525 6885 2070 (c2,r2)\001
4 0 0 50 -1 0 12 0.0000 4 165 525 8370 2070 (c3,r3)\001
4 0 0 50 -1 0 12 0.0000 4 135 120 6300 1935 E\001
4 0 0 50 -1 0 12 0.0000 4 135 120 7785 1935 E\001
4 0 0 50 -1 13 12 0.0000 4 105 120 5625 3105 I\001
4 0 0 50 -1 13 12 0.0000 4 105 120 7110 3105 I\001
4 0 0 50 -1 13 12 0.0000 4 105 120 8595 3060 I\001
