%!PS-Adobe-2.0 EPSF-2.0
%%Title: ssstree-paso.fig
%%Creator: fig2dev Version 3.2 Patchlevel 5
%%CreationDate: Fri Oct 23 03:18:31 2009
%%For: root@hanamichi (root)
%%BoundingBox: 0 0 577 223
%Magnification: 1.0000
%%EndComments
%%BeginProlog
/$F2psDict 200 dict def
$F2psDict begin
$F2psDict /mtrx matrix put
/col-1 {0 setgray} bind def
/col0 {0.000 0.000 0.000 srgb} bind def
/col1 {0.000 0.000 1.000 srgb} bind def
/col2 {0.000 1.000 0.000 srgb} bind def
/col3 {0.000 1.000 1.000 srgb} bind def
/col4 {1.000 0.000 0.000 srgb} bind def
/col5 {1.000 0.000 1.000 srgb} bind def
/col6 {1.000 1.000 0.000 srgb} bind def
/col7 {1.000 1.000 1.000 srgb} bind def
/col8 {0.000 0.000 0.560 srgb} bind def
/col9 {0.000 0.000 0.690 srgb} bind def
/col10 {0.000 0.000 0.820 srgb} bind def
/col11 {0.530 0.810 1.000 srgb} bind def
/col12 {0.000 0.560 0.000 srgb} bind def
/col13 {0.000 0.690 0.000 srgb} bind def
/col14 {0.000 0.820 0.000 srgb} bind def
/col15 {0.000 0.560 0.560 srgb} bind def
/col16 {0.000 0.690 0.690 srgb} bind def
/col17 {0.000 0.820 0.820 srgb} bind def
/col18 {0.560 0.000 0.000 srgb} bind def
/col19 {0.690 0.000 0.000 srgb} bind def
/col20 {0.820 0.000 0.000 srgb} bind def
/col21 {0.560 0.000 0.560 srgb} bind def
/col22 {0.690 0.000 0.690 srgb} bind def
/col23 {0.820 0.000 0.820 srgb} bind def
/col24 {0.500 0.190 0.000 srgb} bind def
/col25 {0.630 0.250 0.000 srgb} bind def
/col26 {0.750 0.380 0.000 srgb} bind def
/col27 {1.000 0.500 0.500 srgb} bind def
/col28 {1.000 0.630 0.630 srgb} bind def
/col29 {1.000 0.750 0.750 srgb} bind def
/col30 {1.000 0.880 0.880 srgb} bind def
/col31 {1.000 0.840 0.000 srgb} bind def

end

/cp {closepath} bind def
/ef {eofill} bind def
/gr {grestore} bind def
/gs {gsave} bind def
/sa {save} bind def
/rs {restore} bind def
/l {lineto} bind def
/m {moveto} bind def
/rm {rmoveto} bind def
/n {newpath} bind def
/s {stroke} bind def
/sh {show} bind def
/slc {setlinecap} bind def
/slj {setlinejoin} bind def
/slw {setlinewidth} bind def
/srgb {setrgbcolor} bind def
/rot {rotate} bind def
/sc {scale} bind def
/sd {setdash} bind def
/ff {findfont} bind def
/sf {setfont} bind def
/scf {scalefont} bind def
/sw {stringwidth} bind def
/tr {translate} bind def
/tnt {dup dup currentrgbcolor
  4 -2 roll dup 1 exch sub 3 -1 roll mul add
  4 -2 roll dup 1 exch sub 3 -1 roll mul add
  4 -2 roll dup 1 exch sub 3 -1 roll mul add srgb}
  bind def
/shd {dup dup currentrgbcolor 4 -2 roll mul 4 -2 roll mul
  4 -2 roll mul srgb} bind def
/$F2psBegin {$F2psDict begin /$F2psEnteredState save def} def
/$F2psEnd {$F2psEnteredState restore end} def

/pageheader {
save
newpath 0 223 moveto 0 0 lineto 577 0 lineto 577 223 lineto closepath clip newpath
-240.2 275.7 translate
1 -1 scale
$F2psBegin
10 setmiterlimit
0 slj 0 slc
 0.06299 0.06299 sc
} bind def
/pagefooter {
$F2psEnd
restore
} bind def
%%EndProlog
pageheader
%
% Fig objects follow
%
% 
% here starts figure with depth 50
% Polyline
0 slj
0 slc
7.500 slw
n 6300 1215 m
 8235 1215 l gs col0 s gr 
% Polyline
n 7245 855 m
 7245 1260 l gs col0 s gr 
% Polyline
n 6795 855 m
 6795 1260 l gs col0 s gr 
% Polyline
n 7740 855 m
 7740 1260 l gs col0 s gr 
% Polyline
n 6300 855 m 8235 855 l 8235 1260 l 6300 1260 l
 cp gs col0 s gr 
% Polyline
2 slj
n 6390 2835 m 6391 2834 l 6399 2831 l 6412 2824 l 6429 2817 l 6445 2810 l
 6458 2804 l 6470 2800 l 6480 2798 l 6490 2795 l 6501 2794 l
 6513 2792 l 6524 2792 l 6535 2792 l 6545 2794 l 6554 2795 l
 6563 2798 l 6572 2802 l 6582 2807 l 6590 2814 l 6598 2821 l
 6603 2828 l 6608 2835 l 6610 2842 l 6613 2850 l 6615 2859 l
 6617 2868 l 6620 2878 l 6623 2888 l 6625 2896 l 6629 2905 l
 6633 2914 l 6639 2924 l 6644 2933 l 6649 2942 l 6655 2949 l
 6660 2955 l 6667 2961 l 6675 2966 l 6683 2970 l 6690 2974 l
 6698 2979 l 6705 2985 l 6710 2991 l 6716 2998 l 6721 3006 l
 6728 3015 l 6734 3024 l 6739 3032 l 6745 3039 l 6750 3045 l
 6757 3051 l 6765 3056 l 6773 3060 l 6780 3064 l 6788 3069 l
 6795 3075 l 6800 3081 l 6806 3088 l 6811 3096 l 6818 3105 l
 6824 3114 l 6829 3122 l 6835 3129 l 6840 3135 l 6847 3141 l
 6854 3146 l 6861 3150 l 6868 3154 l 6873 3159 l 6878 3165 l
 6880 3171 l 6881 3178 l 6882 3187 l 6882 3197 l 6881 3208 l
 6878 3219 l 6875 3230 l 6870 3240 l 6865 3248 l 6860 3257 l
 6854 3266 l 6847 3275 l 6839 3284 l 6831 3293 l 6823 3301 l
 6816 3309 l 6809 3316 l 6803 3323 l 6795 3330 l 6788 3337 l
 6781 3344 l 6774 3351 l 6767 3358 l 6761 3364 l 6755 3370 l
 6750 3375 l 6745 3380 l 6739 3386 l 6734 3392 l 6728 3399 l
 6721 3406 l 6716 3413 l 6710 3420 l 6705 3428 l 6700 3436 l
 6694 3445 l 6689 3454 l 6683 3464 l 6676 3473 l 6671 3482 l
 6665 3489 l 6660 3495 l 6653 3501 l 6645 3505 l 6636 3509 l
 6627 3512 l 6617 3514 l 6608 3518 l 6599 3520 l 6590 3524 l
 6580 3528 l 6569 3533 l 6558 3537 l 6546 3541 l 6535 3545 l
 6525 3548 l 6515 3550 l 6504 3552 l 6492 3553 l 6480 3554 l
 6468 3555 l 6456 3555 l 6445 3555 l 6435 3555 l 6425 3555 l
 6414 3555 l 6402 3555 l 6390 3554 l 6378 3553 l 6366 3552 l
 6355 3550 l 6345 3548 l 6337 3545 l 6328 3542 l 6319 3539 l
 6309 3536 l 6299 3531 l 6289 3527 l 6278 3523 l 6268 3518 l
 6258 3514 l 6248 3510 l 6237 3506 l 6226 3502 l 6213 3497 l
 6200 3493 l 6186 3490 l 6173 3486 l 6159 3484 l 6145 3482 l
 6132 3480 l 6120 3480 l 6108 3480 l 6095 3482 l 6081 3483 l
 6067 3486 l 6054 3489 l 6040 3492 l 6027 3495 l 6014 3498 l
 6003 3500 l 5993 3503 l 5980 3505 l 5967 3506 l 5954 3507 l
 5942 3507 l 5930 3506 l 5920 3503 l 5911 3500 l 5903 3495 l
 5895 3489 l 5888 3482 l 5881 3473 l 5874 3462 l 5867 3450 l
 5861 3438 l 5855 3425 l 5850 3413 l 5846 3402 l 5842 3391 l
 5837 3379 l 5832 3366 l 5827 3354 l 5823 3341 l 5818 3329 l
 5813 3318 l 5809 3309 l 5805 3300 l 5800 3290 l 5794 3281 l
 5789 3272 l 5784 3264 l 5778 3255 l 5774 3248 l 5770 3240 l
 5768 3233 l 5765 3224 l 5763 3215 l 5762 3205 l 5761 3194 l
 5760 3183 l 5760 3171 l 5760 3160 l 5760 3150 l 5760 3140 l
 5760 3129 l 5760 3117 l 5760 3106 l 5760 3095 l 5760 3085 l
 5760 3076 l 5760 3068 l 5760 3058 l 5760 3048 l 5761 3040 l
 5762 3032 l 5765 3027 l 5768 3023 l 5772 3019 l 5779 3016 l
 5786 3014 l 5793 3011 l 5798 3008 l 5801 3003 l 5803 2998 l
 5806 2990 l 5810 2982 l 5814 2972 l 5820 2963 l 5825 2956 l
 5830 2949 l 5836 2941 l 5843 2933 l 5850 2924 l 5857 2915 l
 5864 2906 l 5870 2897 l 5875 2888 l 5880 2880 l 5885 2870 l
 5888 2859 l 5891 2848 l 5894 2837 l 5896 2827 l 5898 2818 l
 5900 2811 l 5903 2805 l 5907 2799 l 5912 2795 l 5919 2791 l
 5926 2788 l 5933 2786 l 5940 2783 l 5947 2779 l 5955 2774 l
 5963 2769 l 5970 2764 l 5978 2761 l 5985 2760 l 5992 2761 l
 6000 2764 l 6008 2769 l 6015 2774 l 6023 2779 l 6030 2783 l
 6037 2785 l 6045 2788 l 6053 2790 l 6060 2792 l 6068 2795 l
 6075 2798 l 6082 2802 l 6090 2807 l 6098 2813 l 6105 2818 l
 6113 2823 l 6120 2828 l 6127 2830 l 6135 2832 l 6143 2833 l
 6150 2832 l 6158 2830 l 6165 2828 l 6172 2823 l 6180 2818 l
 6189 2812 l 6198 2807 l 6208 2802 l 6218 2798 l 6226 2795 l
 6235 2793 l 6245 2792 l 6255 2791 l 6265 2790 l 6275 2790 l
 6284 2790 l 6293 2790 l 6302 2790 l 6312 2790 l 6321 2791 l
 6330 2792 l 6338 2795 l 6345 2798 l 6352 2802 l 6360 2808 l
 6370 2817 l 6381 2827 l 6389 2834 l
 6390 2835 l  cp gs col0 s gr 
% Polyline
n 7560 2700 m 7561 2699 l 7569 2696 l 7582 2689 l 7599 2682 l 7615 2675 l
 7628 2669 l 7640 2665 l 7650 2663 l 7660 2660 l 7671 2659 l
 7683 2657 l 7694 2657 l 7705 2657 l 7715 2659 l 7724 2660 l
 7733 2663 l 7742 2667 l 7752 2672 l 7760 2679 l 7768 2686 l
 7773 2693 l 7778 2700 l 7780 2707 l 7783 2715 l 7785 2724 l
 7787 2733 l 7790 2743 l 7793 2753 l 7795 2761 l 7799 2770 l
 7803 2779 l 7809 2789 l 7814 2798 l 7819 2807 l 7825 2814 l
 7830 2820 l 7837 2826 l 7845 2831 l 7853 2835 l 7860 2839 l
 7868 2844 l 7875 2850 l 7880 2856 l 7886 2863 l 7891 2871 l
 7898 2880 l 7904 2889 l 7909 2897 l 7915 2904 l 7920 2910 l
 7927 2916 l 7935 2921 l 7943 2925 l 7950 2929 l 7958 2934 l
 7965 2940 l 7970 2946 l 7976 2953 l 7981 2961 l 7988 2970 l
 7994 2979 l 7999 2987 l 8005 2994 l 8010 3000 l 8017 3006 l
 8024 3011 l 8031 3015 l 8038 3019 l 8043 3024 l 8048 3030 l
 8050 3036 l 8051 3043 l 8052 3052 l 8052 3062 l 8051 3073 l
 8048 3084 l 8045 3095 l 8040 3105 l 8035 3113 l 8030 3122 l
 8024 3131 l 8017 3140 l 8009 3149 l 8001 3158 l 7993 3166 l
 7986 3174 l 7979 3181 l 7973 3188 l 7965 3195 l 7958 3202 l
 7951 3209 l 7944 3216 l 7937 3223 l 7931 3229 l 7925 3235 l
 7920 3240 l 7915 3245 l 7909 3251 l 7904 3257 l 7898 3264 l
 7891 3271 l 7886 3278 l 7880 3285 l 7875 3293 l 7870 3301 l
 7864 3310 l 7859 3319 l 7853 3329 l 7846 3338 l 7841 3347 l
 7835 3354 l 7830 3360 l 7823 3366 l 7815 3370 l 7806 3374 l
 7797 3377 l 7787 3379 l 7778 3383 l 7769 3385 l 7760 3389 l
 7750 3393 l 7739 3398 l 7728 3402 l 7716 3406 l 7705 3410 l
 7695 3413 l 7685 3415 l 7674 3417 l 7662 3418 l 7650 3419 l
 7638 3420 l 7626 3420 l 7615 3420 l 7605 3420 l 7595 3420 l
 7584 3420 l 7572 3420 l 7560 3419 l 7548 3418 l 7536 3417 l
 7525 3415 l 7515 3413 l 7507 3410 l 7498 3407 l 7489 3404 l
 7479 3401 l 7469 3396 l 7459 3392 l 7448 3388 l 7438 3383 l
 7428 3379 l 7418 3375 l 7407 3371 l 7396 3367 l 7383 3362 l
 7370 3358 l 7356 3355 l 7343 3351 l 7329 3349 l 7315 3347 l
 7302 3345 l 7290 3345 l 7278 3345 l 7265 3347 l 7251 3348 l
 7237 3351 l 7224 3354 l 7210 3357 l 7197 3360 l 7184 3363 l
 7173 3365 l 7163 3368 l 7150 3370 l 7137 3371 l 7124 3372 l
 7112 3372 l 7100 3371 l 7090 3368 l 7081 3365 l 7073 3360 l
 7065 3354 l 7058 3347 l 7051 3338 l 7044 3327 l 7037 3315 l
 7031 3303 l 7025 3290 l 7020 3278 l 7016 3267 l 7012 3256 l
 7007 3244 l 7002 3231 l 6997 3219 l 6993 3206 l 6988 3194 l
 6983 3183 l 6979 3174 l 6975 3165 l 6970 3155 l 6964 3146 l
 6959 3137 l 6954 3129 l 6948 3120 l 6944 3113 l 6940 3105 l
 6938 3098 l 6935 3089 l 6933 3080 l 6932 3070 l 6931 3059 l
 6930 3048 l 6930 3036 l 6930 3025 l 6930 3015 l 6930 3005 l
 6930 2994 l 6930 2982 l 6930 2971 l 6930 2960 l 6930 2950 l
 6930 2941 l 6930 2933 l 6930 2923 l 6930 2913 l 6931 2905 l
 6932 2897 l 6935 2892 l 6938 2888 l 6942 2884 l 6949 2881 l
 6956 2879 l 6963 2876 l 6968 2873 l 6971 2868 l 6973 2863 l
 6976 2855 l 6980 2847 l 6984 2837 l 6990 2828 l 6995 2821 l
 7000 2814 l 7006 2806 l 7013 2798 l 7020 2789 l 7027 2780 l
 7034 2771 l 7040 2762 l 7045 2753 l 7050 2745 l 7055 2735 l
 7058 2724 l 7061 2713 l 7064 2702 l 7066 2692 l 7068 2683 l
 7070 2676 l 7073 2670 l 7077 2664 l 7082 2660 l 7089 2656 l
 7096 2653 l 7103 2651 l 7110 2648 l 7117 2644 l 7125 2639 l
 7133 2634 l 7140 2629 l 7148 2626 l 7155 2625 l 7162 2626 l
 7170 2629 l 7178 2634 l 7185 2639 l 7193 2644 l 7200 2648 l
 7207 2650 l 7215 2653 l 7223 2655 l 7230 2657 l 7238 2660 l
 7245 2663 l 7252 2667 l 7260 2672 l 7268 2678 l 7275 2683 l
 7283 2688 l 7290 2693 l 7297 2695 l 7305 2697 l 7313 2698 l
 7320 2697 l 7328 2695 l 7335 2693 l 7342 2688 l 7350 2683 l
 7359 2677 l 7368 2672 l 7378 2667 l 7388 2663 l 7396 2660 l
 7405 2658 l 7415 2657 l 7425 2656 l 7435 2655 l 7445 2655 l
 7454 2655 l 7463 2655 l 7472 2655 l 7482 2655 l 7491 2656 l
 7500 2657 l 7508 2660 l 7515 2663 l 7522 2667 l 7530 2673 l
 7540 2682 l 7551 2692 l 7559 2699 l
 7560 2700 l  cp gs col0 s gr 
% Polyline
n 8370 3645 m 8371 3644 l 8379 3641 l 8392 3634 l 8409 3627 l 8425 3620 l
 8438 3614 l 8450 3610 l 8460 3608 l 8470 3605 l 8481 3604 l
 8493 3602 l 8504 3602 l 8515 3602 l 8525 3604 l 8534 3605 l
 8543 3608 l 8552 3612 l 8562 3617 l 8570 3624 l 8578 3631 l
 8583 3638 l 8588 3645 l 8590 3652 l 8593 3660 l 8595 3669 l
 8597 3678 l 8600 3688 l 8603 3698 l 8605 3706 l 8609 3715 l
 8613 3724 l 8619 3734 l 8624 3743 l 8629 3752 l 8635 3759 l
 8640 3765 l 8647 3771 l 8655 3776 l 8663 3780 l 8670 3784 l
 8678 3789 l 8685 3795 l 8690 3801 l 8696 3808 l 8701 3816 l
 8708 3825 l 8714 3834 l 8719 3842 l 8725 3849 l 8730 3855 l
 8737 3861 l 8745 3866 l 8753 3870 l 8760 3874 l 8768 3879 l
 8775 3885 l 8780 3891 l 8786 3898 l 8791 3906 l 8798 3915 l
 8804 3924 l 8809 3932 l 8815 3939 l 8820 3945 l 8827 3951 l
 8834 3956 l 8841 3960 l 8848 3964 l 8853 3969 l 8858 3975 l
 8860 3981 l 8861 3988 l 8862 3997 l 8862 4007 l 8861 4018 l
 8858 4029 l 8855 4040 l 8850 4050 l 8845 4058 l 8840 4067 l
 8834 4076 l 8827 4085 l 8819 4094 l 8811 4103 l 8803 4111 l
 8796 4119 l 8789 4126 l 8783 4133 l 8775 4140 l 8768 4147 l
 8761 4154 l 8754 4161 l 8747 4168 l 8741 4174 l 8735 4180 l
 8730 4185 l 8725 4190 l 8719 4196 l 8714 4202 l 8708 4209 l
 8701 4216 l 8696 4223 l 8690 4230 l 8685 4238 l 8680 4246 l
 8674 4255 l 8669 4264 l 8663 4274 l 8656 4283 l 8651 4292 l
 8645 4299 l 8640 4305 l 8633 4311 l 8625 4315 l 8616 4319 l
 8607 4322 l 8597 4324 l 8588 4328 l 8579 4330 l 8570 4334 l
 8560 4338 l 8549 4343 l 8538 4347 l 8526 4351 l 8515 4355 l
 8505 4358 l 8495 4360 l 8484 4362 l 8472 4363 l 8460 4364 l
 8448 4365 l 8436 4365 l 8425 4365 l 8415 4365 l 8405 4365 l
 8394 4365 l 8382 4365 l 8370 4364 l 8358 4363 l 8346 4362 l
 8335 4360 l 8325 4358 l 8317 4355 l 8308 4352 l 8299 4349 l
 8289 4346 l 8279 4341 l 8269 4337 l 8258 4333 l 8248 4328 l
 8238 4324 l 8228 4320 l 8217 4316 l 8206 4312 l 8193 4307 l
 8180 4303 l 8166 4300 l 8153 4296 l 8139 4294 l 8125 4292 l
 8112 4290 l 8100 4290 l 8088 4290 l 8075 4292 l 8061 4293 l
 8047 4296 l 8034 4299 l 8020 4302 l 8007 4305 l 7994 4308 l
 7983 4310 l 7973 4313 l 7960 4315 l 7947 4316 l 7934 4317 l
 7922 4317 l 7910 4316 l 7900 4313 l 7891 4310 l 7883 4305 l
 7875 4299 l 7868 4292 l 7861 4283 l 7854 4272 l 7847 4260 l
 7841 4248 l 7835 4235 l 7830 4223 l 7826 4212 l 7822 4201 l
 7817 4189 l 7812 4176 l 7807 4164 l 7803 4151 l 7798 4139 l
 7793 4128 l 7789 4119 l 7785 4110 l 7780 4100 l 7774 4091 l
 7769 4082 l 7764 4074 l 7758 4065 l 7754 4058 l 7750 4050 l
 7748 4043 l 7745 4034 l 7743 4025 l 7742 4015 l 7741 4004 l
 7740 3993 l 7740 3981 l 7740 3970 l 7740 3960 l 7740 3950 l
 7740 3939 l 7740 3927 l 7740 3916 l 7740 3905 l 7740 3895 l
 7740 3886 l 7740 3878 l 7740 3868 l 7740 3858 l 7741 3850 l
 7742 3842 l 7745 3837 l 7748 3833 l 7752 3829 l 7759 3826 l
 7766 3824 l 7773 3821 l 7778 3818 l 7781 3813 l 7783 3808 l
 7786 3800 l 7790 3792 l 7794 3782 l 7800 3773 l 7805 3766 l
 7810 3759 l 7816 3751 l 7823 3743 l 7830 3734 l 7837 3725 l
 7844 3716 l 7850 3707 l 7855 3698 l 7860 3690 l 7865 3680 l
 7868 3669 l 7871 3658 l 7874 3647 l 7876 3637 l 7878 3628 l
 7880 3621 l 7883 3615 l 7887 3609 l 7892 3605 l 7899 3601 l
 7906 3598 l 7913 3596 l 7920 3593 l 7927 3589 l 7935 3584 l
 7943 3579 l 7950 3574 l 7958 3571 l 7965 3570 l 7972 3571 l
 7980 3574 l 7988 3579 l 7995 3584 l 8003 3589 l 8010 3593 l
 8017 3595 l 8025 3598 l 8033 3600 l 8040 3602 l 8048 3605 l
 8055 3608 l 8062 3612 l 8070 3617 l 8078 3623 l 8085 3628 l
 8093 3633 l 8100 3638 l 8107 3640 l 8115 3642 l 8123 3643 l
 8130 3642 l 8138 3640 l 8145 3638 l 8152 3633 l 8160 3628 l
 8169 3622 l 8178 3617 l 8188 3612 l 8198 3608 l 8206 3605 l
 8215 3603 l 8225 3602 l 8235 3601 l 8245 3600 l 8255 3600 l
 8264 3600 l 8273 3600 l 8282 3600 l 8292 3600 l 8301 3601 l
 8310 3602 l 8318 3605 l 8325 3608 l 8332 3612 l 8340 3618 l
 8350 3627 l 8361 3637 l 8369 3644 l
 8370 3645 l  cp gs col0 s gr 
% Polyline
0 slj
n 8235 1215 m
 10170 1215 l gs col0 s gr 
% Polyline
n 9180 855 m
 9180 1260 l gs col0 s gr 
% Polyline
n 8730 855 m
 8730 1260 l gs col0 s gr 
% Polyline
n 9675 855 m
 9675 1260 l gs col0 s gr 
% Polyline
n 8235 855 m 10170 855 l 10170 1260 l 8235 1260 l
 cp gs col0 s gr 
% Polyline
2 slj
n 10395 2160 m 10396 2159 l 10404 2156 l 10417 2149 l 10434 2142 l 10450 2135 l
 10463 2129 l 10475 2125 l 10485 2123 l 10495 2120 l 10506 2119 l
 10518 2117 l 10529 2117 l 10540 2117 l 10550 2119 l 10559 2120 l
 10568 2123 l 10577 2127 l 10587 2132 l 10595 2139 l 10603 2146 l
 10608 2153 l 10613 2160 l 10615 2167 l 10618 2175 l 10620 2184 l
 10622 2193 l 10625 2203 l 10628 2213 l 10630 2221 l 10634 2230 l
 10638 2239 l 10644 2249 l 10649 2258 l 10654 2267 l 10660 2274 l
 10665 2280 l 10672 2286 l 10680 2291 l 10688 2295 l 10695 2299 l
 10703 2304 l 10710 2310 l 10715 2316 l 10721 2323 l 10726 2331 l
 10733 2340 l 10739 2349 l 10744 2357 l 10750 2364 l 10755 2370 l
 10762 2376 l 10770 2381 l 10778 2385 l 10785 2389 l 10793 2394 l
 10800 2400 l 10805 2406 l 10811 2413 l 10816 2421 l 10823 2430 l
 10829 2439 l 10834 2447 l 10840 2454 l 10845 2460 l 10852 2466 l
 10859 2471 l 10866 2475 l 10873 2479 l 10878 2484 l 10883 2490 l
 10885 2496 l 10886 2503 l 10887 2512 l 10887 2522 l 10886 2533 l
 10883 2544 l 10880 2555 l 10875 2565 l 10870 2573 l 10865 2582 l
 10859 2591 l 10852 2600 l 10844 2609 l 10836 2618 l 10828 2626 l
 10821 2634 l 10814 2641 l 10808 2648 l 10800 2655 l 10793 2662 l
 10786 2669 l 10779 2676 l 10772 2683 l 10766 2689 l 10760 2695 l
 10755 2700 l 10750 2705 l 10744 2711 l 10739 2717 l 10733 2724 l
 10726 2731 l 10721 2738 l 10715 2745 l 10710 2753 l 10705 2761 l
 10699 2770 l 10694 2779 l 10688 2789 l 10681 2798 l 10676 2807 l
 10670 2814 l 10665 2820 l 10658 2826 l 10650 2830 l 10641 2834 l
 10632 2837 l 10622 2839 l 10613 2843 l 10604 2845 l 10595 2849 l
 10585 2853 l 10574 2858 l 10563 2862 l 10551 2866 l 10540 2870 l
 10530 2873 l 10520 2875 l 10509 2877 l 10497 2878 l 10485 2879 l
 10473 2880 l 10461 2880 l 10450 2880 l 10440 2880 l 10430 2880 l
 10419 2880 l 10407 2880 l 10395 2879 l 10383 2878 l 10371 2877 l
 10360 2875 l 10350 2873 l 10342 2870 l 10333 2867 l 10324 2864 l
 10314 2861 l 10304 2856 l 10294 2852 l 10283 2848 l 10273 2843 l
 10263 2839 l 10253 2835 l 10242 2831 l 10231 2827 l 10218 2822 l
 10205 2818 l 10191 2815 l 10178 2811 l 10164 2809 l 10150 2807 l
 10137 2805 l 10125 2805 l 10113 2805 l 10100 2807 l 10086 2808 l
 10072 2811 l 10059 2814 l 10045 2817 l 10032 2820 l 10019 2823 l
 10008 2825 l 9998 2828 l 9985 2830 l 9972 2831 l 9959 2832 l
 9947 2832 l 9935 2831 l 9925 2828 l 9916 2825 l 9908 2820 l
 9900 2814 l 9893 2807 l 9886 2798 l 9879 2787 l 9872 2775 l
 9866 2763 l 9860 2750 l 9855 2738 l 9851 2727 l 9847 2716 l
 9842 2704 l 9837 2691 l 9832 2679 l 9828 2666 l 9823 2654 l
 9818 2643 l 9814 2634 l 9810 2625 l 9805 2615 l 9799 2606 l
 9794 2597 l 9789 2589 l 9783 2580 l 9779 2573 l 9775 2565 l
 9773 2558 l 9770 2549 l 9768 2540 l 9767 2530 l 9766 2519 l
 9765 2508 l 9765 2496 l 9765 2485 l 9765 2475 l 9765 2465 l
 9765 2454 l 9765 2442 l 9765 2431 l 9765 2420 l 9765 2410 l
 9765 2401 l 9765 2393 l 9765 2383 l 9765 2373 l 9766 2365 l
 9767 2357 l 9770 2352 l 9773 2348 l 9777 2344 l 9784 2341 l
 9791 2339 l 9798 2336 l 9803 2333 l 9806 2328 l 9808 2323 l
 9811 2315 l 9815 2307 l 9819 2297 l 9825 2288 l 9830 2281 l
 9835 2274 l 9841 2266 l 9848 2258 l 9855 2249 l 9862 2240 l
 9869 2231 l 9875 2222 l 9880 2213 l 9885 2205 l 9890 2195 l
 9893 2184 l 9896 2173 l 9899 2162 l 9901 2152 l 9903 2143 l
 9905 2136 l 9908 2130 l 9912 2124 l 9917 2120 l 9924 2116 l
 9931 2113 l 9938 2111 l 9945 2108 l 9952 2104 l 9960 2099 l
 9968 2094 l 9975 2089 l 9983 2086 l 9990 2085 l 9997 2086 l
 10005 2089 l 10013 2094 l 10020 2099 l 10028 2104 l 10035 2108 l
 10042 2110 l 10050 2113 l 10058 2115 l 10065 2117 l 10073 2120 l
 10080 2123 l 10087 2127 l 10095 2132 l 10103 2138 l 10110 2143 l
 10118 2148 l 10125 2153 l 10132 2155 l 10140 2157 l 10148 2158 l
 10155 2157 l 10163 2155 l 10170 2153 l 10177 2148 l 10185 2143 l
 10194 2137 l 10203 2132 l 10213 2127 l 10223 2123 l 10231 2120 l
 10240 2118 l 10250 2117 l 10260 2116 l 10270 2115 l 10280 2115 l
 10289 2115 l 10298 2115 l 10307 2115 l 10317 2115 l 10326 2116 l
 10335 2117 l 10343 2120 l 10350 2123 l 10357 2127 l 10365 2133 l
 10375 2142 l 10386 2152 l 10394 2159 l
 10395 2160 l  cp gs col0 s gr 
% Polyline
n 8820 1935 m 8821 1934 l 8829 1931 l 8842 1924 l 8859 1917 l 8875 1910 l
 8888 1904 l 8900 1900 l 8910 1898 l 8920 1895 l 8931 1894 l
 8943 1892 l 8954 1892 l 8965 1892 l 8975 1894 l 8984 1895 l
 8993 1898 l 9002 1902 l 9012 1907 l 9020 1914 l 9028 1921 l
 9033 1928 l 9038 1935 l 9040 1942 l 9043 1950 l 9045 1959 l
 9047 1968 l 9050 1978 l 9053 1988 l 9055 1996 l 9059 2005 l
 9063 2014 l 9069 2024 l 9074 2033 l 9079 2042 l 9085 2049 l
 9090 2055 l 9097 2061 l 9105 2066 l 9113 2070 l 9120 2074 l
 9128 2079 l 9135 2085 l 9140 2091 l 9146 2098 l 9151 2106 l
 9158 2115 l 9164 2124 l 9169 2132 l 9175 2139 l 9180 2145 l
 9187 2151 l 9195 2156 l 9203 2160 l 9210 2164 l 9218 2169 l
 9225 2175 l 9230 2181 l 9236 2188 l 9241 2196 l 9248 2205 l
 9254 2214 l 9259 2222 l 9265 2229 l 9270 2235 l 9277 2241 l
 9284 2246 l 9291 2250 l 9298 2254 l 9303 2259 l 9308 2265 l
 9310 2271 l 9311 2278 l 9312 2287 l 9312 2297 l 9311 2308 l
 9308 2319 l 9305 2330 l 9300 2340 l 9295 2348 l 9290 2357 l
 9284 2366 l 9277 2375 l 9269 2384 l 9261 2393 l 9253 2401 l
 9246 2409 l 9239 2416 l 9233 2423 l 9225 2430 l 9218 2437 l
 9211 2444 l 9204 2451 l 9197 2458 l 9191 2464 l 9185 2470 l
 9180 2475 l 9175 2480 l 9169 2486 l 9164 2492 l 9158 2499 l
 9151 2506 l 9146 2513 l 9140 2520 l 9135 2528 l 9130 2536 l
 9124 2545 l 9119 2554 l 9113 2564 l 9106 2573 l 9101 2582 l
 9095 2589 l 9090 2595 l 9083 2601 l 9075 2605 l 9066 2609 l
 9057 2612 l 9047 2614 l 9038 2618 l 9029 2620 l 9020 2624 l
 9010 2628 l 8999 2633 l 8988 2637 l 8976 2641 l 8965 2645 l
 8955 2648 l 8945 2650 l 8934 2652 l 8922 2653 l 8910 2654 l
 8898 2655 l 8886 2655 l 8875 2655 l 8865 2655 l 8855 2655 l
 8844 2655 l 8832 2655 l 8820 2654 l 8808 2653 l 8796 2652 l
 8785 2650 l 8775 2648 l 8767 2645 l 8758 2642 l 8749 2639 l
 8739 2636 l 8729 2631 l 8719 2627 l 8708 2623 l 8698 2618 l
 8688 2614 l 8678 2610 l 8667 2606 l 8656 2602 l 8643 2597 l
 8630 2593 l 8616 2590 l 8603 2586 l 8589 2584 l 8575 2582 l
 8562 2580 l 8550 2580 l 8538 2580 l 8525 2582 l 8511 2583 l
 8497 2586 l 8484 2589 l 8470 2592 l 8457 2595 l 8444 2598 l
 8433 2600 l 8423 2603 l 8410 2605 l 8397 2606 l 8384 2607 l
 8372 2607 l 8360 2606 l 8350 2603 l 8341 2600 l 8333 2595 l
 8325 2589 l 8318 2582 l 8311 2573 l 8304 2562 l 8297 2550 l
 8291 2538 l 8285 2525 l 8280 2513 l 8276 2502 l 8272 2491 l
 8267 2479 l 8262 2466 l 8257 2454 l 8253 2441 l 8248 2429 l
 8243 2418 l 8239 2409 l 8235 2400 l 8230 2390 l 8224 2381 l
 8219 2372 l 8214 2364 l 8208 2355 l 8204 2348 l 8200 2340 l
 8198 2333 l 8195 2324 l 8193 2315 l 8192 2305 l 8191 2294 l
 8190 2283 l 8190 2271 l 8190 2260 l 8190 2250 l 8190 2240 l
 8190 2229 l 8190 2217 l 8190 2206 l 8190 2195 l 8190 2185 l
 8190 2176 l 8190 2168 l 8190 2158 l 8190 2148 l 8191 2140 l
 8192 2132 l 8195 2127 l 8198 2123 l 8202 2119 l 8209 2116 l
 8216 2114 l 8223 2111 l 8228 2108 l 8231 2103 l 8233 2098 l
 8236 2090 l 8240 2082 l 8244 2072 l 8250 2063 l 8255 2056 l
 8260 2049 l 8266 2041 l 8273 2033 l 8280 2024 l 8287 2015 l
 8294 2006 l 8300 1997 l 8305 1988 l 8310 1980 l 8315 1970 l
 8318 1959 l 8321 1948 l 8324 1937 l 8326 1927 l 8328 1918 l
 8330 1911 l 8333 1905 l 8337 1899 l 8342 1895 l 8349 1891 l
 8356 1888 l 8363 1886 l 8370 1883 l 8377 1879 l 8385 1874 l
 8393 1869 l 8400 1864 l 8408 1861 l 8415 1860 l 8422 1861 l
 8430 1864 l 8438 1869 l 8445 1874 l 8453 1879 l 8460 1883 l
 8467 1885 l 8475 1888 l 8483 1890 l 8490 1892 l 8498 1895 l
 8505 1898 l 8512 1902 l 8520 1907 l 8528 1913 l 8535 1918 l
 8543 1923 l 8550 1928 l 8557 1930 l 8565 1932 l 8573 1933 l
 8580 1932 l 8588 1930 l 8595 1928 l 8602 1923 l 8610 1918 l
 8619 1912 l 8628 1907 l 8638 1902 l 8648 1898 l 8656 1895 l
 8665 1893 l 8675 1892 l 8685 1891 l 8695 1890 l 8705 1890 l
 8714 1890 l 8723 1890 l 8732 1890 l 8742 1890 l 8751 1891 l
 8760 1892 l 8768 1895 l 8775 1898 l 8782 1902 l 8790 1908 l
 8800 1917 l 8811 1927 l 8819 1934 l
 8820 1935 l  cp gs col0 s gr 
% Polyline
n 10170 3330 m 10171 3329 l 10179 3326 l 10192 3319 l 10209 3312 l 10225 3305 l
 10238 3299 l 10250 3295 l 10260 3293 l 10270 3290 l 10281 3289 l
 10293 3287 l 10304 3287 l 10315 3287 l 10325 3289 l 10334 3290 l
 10343 3293 l 10352 3297 l 10362 3302 l 10370 3309 l 10378 3316 l
 10383 3323 l 10388 3330 l 10390 3337 l 10393 3345 l 10395 3354 l
 10397 3363 l 10400 3373 l 10403 3383 l 10405 3391 l 10409 3400 l
 10413 3409 l 10419 3419 l 10424 3428 l 10429 3437 l 10435 3444 l
 10440 3450 l 10447 3456 l 10455 3461 l 10463 3465 l 10470 3469 l
 10478 3474 l 10485 3480 l 10490 3486 l 10496 3493 l 10501 3501 l
 10508 3510 l 10514 3519 l 10519 3527 l 10525 3534 l 10530 3540 l
 10537 3546 l 10545 3551 l 10553 3555 l 10560 3559 l 10568 3564 l
 10575 3570 l 10580 3576 l 10586 3583 l 10591 3591 l 10598 3600 l
 10604 3609 l 10609 3617 l 10615 3624 l 10620 3630 l 10627 3636 l
 10634 3641 l 10641 3645 l 10648 3649 l 10653 3654 l 10658 3660 l
 10660 3666 l 10661 3673 l 10662 3682 l 10662 3692 l 10661 3703 l
 10658 3714 l 10655 3725 l 10650 3735 l 10645 3743 l 10640 3752 l
 10634 3761 l 10627 3770 l 10619 3779 l 10611 3788 l 10603 3796 l
 10596 3804 l 10589 3811 l 10583 3818 l 10575 3825 l 10568 3832 l
 10561 3839 l 10554 3846 l 10547 3853 l 10541 3859 l 10535 3865 l
 10530 3870 l 10525 3875 l 10519 3881 l 10514 3887 l 10508 3894 l
 10501 3901 l 10496 3908 l 10490 3915 l 10485 3923 l 10480 3931 l
 10474 3940 l 10469 3949 l 10463 3959 l 10456 3968 l 10451 3977 l
 10445 3984 l 10440 3990 l 10433 3996 l 10425 4000 l 10416 4004 l
 10407 4007 l 10397 4009 l 10388 4013 l 10379 4015 l 10370 4019 l
 10360 4023 l 10349 4028 l 10338 4032 l 10326 4036 l 10315 4040 l
 10305 4043 l 10295 4045 l 10284 4047 l 10272 4048 l 10260 4049 l
 10248 4050 l 10236 4050 l 10225 4050 l 10215 4050 l 10205 4050 l
 10194 4050 l 10182 4050 l 10170 4049 l 10158 4048 l 10146 4047 l
 10135 4045 l 10125 4043 l 10117 4040 l 10108 4037 l 10099 4034 l
 10089 4031 l 10079 4026 l 10069 4022 l 10058 4018 l 10048 4013 l
 10038 4009 l 10028 4005 l 10017 4001 l 10006 3997 l 9993 3992 l
 9980 3988 l 9966 3985 l 9953 3981 l 9939 3979 l 9925 3977 l
 9912 3975 l 9900 3975 l 9888 3975 l 9875 3977 l 9861 3978 l
 9847 3981 l 9834 3984 l 9820 3987 l 9807 3990 l 9794 3993 l
 9783 3995 l 9773 3998 l 9760 4000 l 9747 4001 l 9734 4002 l
 9722 4002 l 9710 4001 l 9700 3998 l 9691 3995 l 9683 3990 l
 9675 3984 l 9668 3977 l 9661 3968 l 9654 3957 l 9647 3945 l
 9641 3933 l 9635 3920 l 9630 3908 l 9626 3897 l 9622 3886 l
 9617 3874 l 9612 3861 l 9607 3849 l 9603 3836 l 9598 3824 l
 9593 3813 l 9589 3804 l 9585 3795 l 9580 3785 l 9574 3776 l
 9569 3767 l 9564 3759 l 9558 3750 l 9554 3743 l 9550 3735 l
 9548 3728 l 9545 3719 l 9543 3710 l 9542 3700 l 9541 3689 l
 9540 3678 l 9540 3666 l 9540 3655 l 9540 3645 l 9540 3635 l
 9540 3624 l 9540 3612 l 9540 3601 l 9540 3590 l 9540 3580 l
 9540 3571 l 9540 3563 l 9540 3553 l 9540 3543 l 9541 3535 l
 9542 3527 l 9545 3522 l 9548 3518 l 9552 3514 l 9559 3511 l
 9566 3509 l 9573 3506 l 9578 3503 l 9581 3498 l 9583 3493 l
 9586 3485 l 9590 3477 l 9594 3467 l 9600 3458 l 9605 3451 l
 9610 3444 l 9616 3436 l 9623 3428 l 9630 3419 l 9637 3410 l
 9644 3401 l 9650 3392 l 9655 3383 l 9660 3375 l 9665 3365 l
 9668 3354 l 9671 3343 l 9674 3332 l 9676 3322 l 9678 3313 l
 9680 3306 l 9683 3300 l 9687 3294 l 9692 3290 l 9699 3286 l
 9706 3283 l 9713 3281 l 9720 3278 l 9727 3274 l 9735 3269 l
 9743 3264 l 9750 3259 l 9758 3256 l 9765 3255 l 9772 3256 l
 9780 3259 l 9788 3264 l 9795 3269 l 9803 3274 l 9810 3278 l
 9817 3280 l 9825 3283 l 9833 3285 l 9840 3287 l 9848 3290 l
 9855 3293 l 9862 3297 l 9870 3302 l 9878 3308 l 9885 3313 l
 9893 3318 l 9900 3323 l 9907 3325 l 9915 3327 l 9923 3328 l
 9930 3327 l 9938 3325 l 9945 3323 l 9952 3318 l 9960 3313 l
 9969 3307 l 9978 3302 l 9988 3297 l 9998 3293 l 10006 3290 l
 10015 3288 l 10025 3287 l 10035 3286 l 10045 3285 l 10055 3285 l
 10064 3285 l 10073 3285 l 10082 3285 l 10092 3285 l 10101 3286 l
 10110 3287 l 10118 3290 l 10125 3293 l 10132 3297 l 10140 3303 l
 10150 3312 l 10161 3322 l 10169 3329 l
 10170 3330 l  cp gs col0 s gr 
% Polyline
n 12465 2790 m 12466 2789 l 12474 2786 l 12487 2779 l 12504 2772 l 12520 2765 l
 12533 2759 l 12545 2755 l 12555 2753 l 12565 2750 l 12576 2749 l
 12588 2747 l 12599 2747 l 12610 2747 l 12620 2749 l 12629 2750 l
 12638 2753 l 12647 2757 l 12657 2762 l 12665 2769 l 12673 2776 l
 12678 2783 l 12683 2790 l 12685 2797 l 12688 2805 l 12690 2814 l
 12692 2823 l 12695 2833 l 12698 2843 l 12700 2851 l 12704 2860 l
 12708 2869 l 12714 2879 l 12719 2888 l 12724 2897 l 12730 2904 l
 12735 2910 l 12742 2916 l 12750 2921 l 12758 2925 l 12765 2929 l
 12773 2934 l 12780 2940 l 12785 2946 l 12791 2953 l 12796 2961 l
 12803 2970 l 12809 2979 l 12814 2987 l 12820 2994 l 12825 3000 l
 12832 3006 l 12840 3011 l 12848 3015 l 12855 3019 l 12863 3024 l
 12870 3030 l 12875 3036 l 12881 3043 l 12886 3051 l 12893 3060 l
 12899 3069 l 12904 3077 l 12910 3084 l 12915 3090 l 12922 3096 l
 12929 3101 l 12936 3105 l 12943 3109 l 12948 3114 l 12953 3120 l
 12955 3126 l 12956 3133 l 12957 3142 l 12957 3152 l 12956 3163 l
 12953 3174 l 12950 3185 l 12945 3195 l 12940 3203 l 12935 3212 l
 12929 3221 l 12922 3230 l 12914 3239 l 12906 3248 l 12898 3256 l
 12891 3264 l 12884 3271 l 12878 3278 l 12870 3285 l 12863 3292 l
 12856 3299 l 12849 3306 l 12842 3313 l 12836 3319 l 12830 3325 l
 12825 3330 l 12820 3335 l 12814 3341 l 12809 3347 l 12803 3354 l
 12796 3361 l 12791 3368 l 12785 3375 l 12780 3383 l 12775 3391 l
 12769 3400 l 12764 3409 l 12758 3419 l 12751 3428 l 12746 3437 l
 12740 3444 l 12735 3450 l 12728 3456 l 12720 3460 l 12711 3464 l
 12702 3467 l 12692 3469 l 12683 3473 l 12674 3475 l 12665 3479 l
 12655 3483 l 12644 3488 l 12633 3492 l 12621 3496 l 12610 3500 l
 12600 3503 l 12590 3505 l 12579 3507 l 12567 3508 l 12555 3509 l
 12543 3510 l 12531 3510 l 12520 3510 l 12510 3510 l 12500 3510 l
 12489 3510 l 12477 3510 l 12465 3509 l 12453 3508 l 12441 3507 l
 12430 3505 l 12420 3503 l 12412 3500 l 12403 3497 l 12394 3494 l
 12384 3491 l 12374 3486 l 12364 3482 l 12353 3478 l 12343 3473 l
 12333 3469 l 12323 3465 l 12312 3461 l 12301 3457 l 12288 3452 l
 12275 3448 l 12261 3445 l 12248 3441 l 12234 3439 l 12220 3437 l
 12207 3435 l 12195 3435 l 12183 3435 l 12170 3437 l 12156 3438 l
 12142 3441 l 12129 3444 l 12115 3447 l 12102 3450 l 12089 3453 l
 12078 3455 l 12068 3458 l 12055 3460 l 12042 3461 l 12029 3462 l
 12017 3462 l 12005 3461 l 11995 3458 l 11986 3455 l 11978 3450 l
 11970 3444 l 11963 3437 l 11956 3428 l 11949 3417 l 11942 3405 l
 11936 3393 l 11930 3380 l 11925 3368 l 11921 3357 l 11917 3346 l
 11912 3334 l 11907 3321 l 11902 3309 l 11898 3296 l 11893 3284 l
 11888 3273 l 11884 3264 l 11880 3255 l 11875 3245 l 11869 3236 l
 11864 3227 l 11859 3219 l 11853 3210 l 11849 3203 l 11845 3195 l
 11843 3188 l 11840 3179 l 11838 3170 l 11837 3160 l 11836 3149 l
 11835 3138 l 11835 3126 l 11835 3115 l 11835 3105 l 11835 3095 l
 11835 3084 l 11835 3072 l 11835 3061 l 11835 3050 l 11835 3040 l
 11835 3031 l 11835 3023 l 11835 3013 l 11835 3003 l 11836 2995 l
 11837 2987 l 11840 2982 l 11843 2978 l 11847 2974 l 11854 2971 l
 11861 2969 l 11868 2966 l 11873 2963 l 11876 2958 l 11878 2953 l
 11881 2945 l 11885 2937 l 11889 2927 l 11895 2918 l 11900 2911 l
 11905 2904 l 11911 2896 l 11918 2888 l 11925 2879 l 11932 2870 l
 11939 2861 l 11945 2852 l 11950 2843 l 11955 2835 l 11960 2825 l
 11963 2814 l 11966 2803 l 11969 2792 l 11971 2782 l 11973 2773 l
 11975 2766 l 11978 2760 l 11982 2754 l 11987 2750 l 11994 2746 l
 12001 2743 l 12008 2741 l 12015 2738 l 12022 2734 l 12030 2729 l
 12038 2724 l 12045 2719 l 12053 2716 l 12060 2715 l 12067 2716 l
 12075 2719 l 12083 2724 l 12090 2729 l 12098 2734 l 12105 2738 l
 12112 2740 l 12120 2743 l 12128 2745 l 12135 2747 l 12143 2750 l
 12150 2753 l 12157 2757 l 12165 2762 l 12173 2768 l 12180 2773 l
 12188 2778 l 12195 2783 l 12202 2785 l 12210 2787 l 12218 2788 l
 12225 2787 l 12233 2785 l 12240 2783 l 12247 2778 l 12255 2773 l
 12264 2767 l 12273 2762 l 12283 2757 l 12293 2753 l 12301 2750 l
 12310 2748 l 12320 2747 l 12330 2746 l 12340 2745 l 12350 2745 l
 12359 2745 l 12368 2745 l 12377 2745 l 12387 2745 l 12396 2746 l
 12405 2747 l 12413 2750 l 12420 2753 l 12427 2757 l 12435 2763 l
 12445 2772 l 12456 2782 l 12464 2789 l
 12465 2790 l  cp gs col0 s gr 
% Polyline
n 4455 2970 m 4456 2969 l 4464 2966 l 4477 2959 l 4494 2952 l 4510 2945 l
 4523 2939 l 4535 2935 l 4545 2933 l 4555 2930 l 4566 2929 l
 4578 2927 l 4589 2927 l 4600 2927 l 4610 2929 l 4619 2930 l
 4628 2933 l 4637 2937 l 4647 2942 l 4655 2949 l 4663 2956 l
 4668 2963 l 4673 2970 l 4675 2977 l 4678 2985 l 4680 2994 l
 4682 3003 l 4685 3013 l 4688 3023 l 4690 3031 l 4694 3040 l
 4698 3049 l 4704 3059 l 4709 3068 l 4714 3077 l 4720 3084 l
 4725 3090 l 4732 3096 l 4740 3101 l 4748 3105 l 4755 3109 l
 4763 3114 l 4770 3120 l 4775 3126 l 4781 3133 l 4786 3141 l
 4793 3150 l 4799 3159 l 4804 3167 l 4810 3174 l 4815 3180 l
 4822 3186 l 4830 3191 l 4838 3195 l 4845 3199 l 4853 3204 l
 4860 3210 l 4865 3216 l 4871 3223 l 4876 3231 l 4883 3240 l
 4889 3249 l 4894 3257 l 4900 3264 l 4905 3270 l 4912 3276 l
 4919 3281 l 4926 3285 l 4933 3289 l 4938 3294 l 4943 3300 l
 4945 3306 l 4946 3313 l 4947 3322 l 4947 3332 l 4946 3343 l
 4943 3354 l 4940 3365 l 4935 3375 l 4930 3383 l 4925 3392 l
 4919 3401 l 4912 3410 l 4904 3419 l 4896 3428 l 4888 3436 l
 4881 3444 l 4874 3451 l 4868 3458 l 4860 3465 l 4853 3472 l
 4846 3479 l 4839 3486 l 4832 3493 l 4826 3499 l 4820 3505 l
 4815 3510 l 4810 3515 l 4804 3521 l 4799 3527 l 4793 3534 l
 4786 3541 l 4781 3548 l 4775 3555 l 4770 3563 l 4765 3571 l
 4759 3580 l 4754 3589 l 4748 3599 l 4741 3608 l 4736 3617 l
 4730 3624 l 4725 3630 l 4718 3636 l 4710 3640 l 4701 3644 l
 4692 3647 l 4682 3649 l 4673 3653 l 4664 3655 l 4655 3659 l
 4645 3663 l 4634 3668 l 4623 3672 l 4611 3676 l 4600 3680 l
 4590 3683 l 4580 3685 l 4569 3687 l 4557 3688 l 4545 3689 l
 4533 3690 l 4521 3690 l 4510 3690 l 4500 3690 l 4490 3690 l
 4479 3690 l 4467 3690 l 4455 3689 l 4443 3688 l 4431 3687 l
 4420 3685 l 4410 3683 l 4402 3680 l 4393 3677 l 4384 3674 l
 4374 3671 l 4364 3666 l 4354 3662 l 4343 3658 l 4333 3653 l
 4323 3649 l 4313 3645 l 4302 3641 l 4291 3637 l 4278 3632 l
 4265 3628 l 4251 3625 l 4238 3621 l 4224 3619 l 4210 3617 l
 4197 3615 l 4185 3615 l 4173 3615 l 4160 3617 l 4146 3618 l
 4132 3621 l 4119 3624 l 4105 3627 l 4092 3630 l 4079 3633 l
 4068 3635 l 4058 3638 l 4045 3640 l 4032 3641 l 4019 3642 l
 4007 3642 l 3995 3641 l 3985 3638 l 3976 3635 l 3968 3630 l
 3960 3624 l 3953 3617 l 3946 3608 l 3939 3597 l 3932 3585 l
 3926 3573 l 3920 3560 l 3915 3548 l 3911 3537 l 3907 3526 l
 3902 3514 l 3897 3501 l 3892 3489 l 3888 3476 l 3883 3464 l
 3878 3453 l 3874 3444 l 3870 3435 l 3865 3425 l 3859 3416 l
 3854 3407 l 3849 3399 l 3843 3390 l 3839 3383 l 3835 3375 l
 3833 3368 l 3830 3359 l 3828 3350 l 3827 3340 l 3826 3329 l
 3825 3318 l 3825 3306 l 3825 3295 l 3825 3285 l 3825 3275 l
 3825 3264 l 3825 3252 l 3825 3241 l 3825 3230 l 3825 3220 l
 3825 3211 l 3825 3203 l 3825 3193 l 3825 3183 l 3826 3175 l
 3827 3167 l 3830 3162 l 3833 3158 l 3837 3154 l 3844 3151 l
 3851 3149 l 3858 3146 l 3863 3143 l 3866 3138 l 3868 3133 l
 3871 3125 l 3875 3117 l 3879 3107 l 3885 3098 l 3890 3091 l
 3895 3084 l 3901 3076 l 3908 3068 l 3915 3059 l 3922 3050 l
 3929 3041 l 3935 3032 l 3940 3023 l 3945 3015 l 3950 3005 l
 3953 2994 l 3956 2983 l 3959 2972 l 3961 2962 l 3963 2953 l
 3965 2946 l 3968 2940 l 3972 2934 l 3977 2930 l 3984 2926 l
 3991 2923 l 3998 2921 l 4005 2918 l 4012 2914 l 4020 2909 l
 4028 2904 l 4035 2899 l 4043 2896 l 4050 2895 l 4057 2896 l
 4065 2899 l 4073 2904 l 4080 2909 l 4088 2914 l 4095 2918 l
 4102 2920 l 4110 2923 l 4118 2925 l 4125 2927 l 4133 2930 l
 4140 2933 l 4147 2937 l 4155 2942 l 4163 2948 l 4170 2953 l
 4178 2958 l 4185 2963 l 4192 2965 l 4200 2967 l 4208 2968 l
 4215 2967 l 4223 2965 l 4230 2963 l 4237 2958 l 4245 2953 l
 4254 2947 l 4263 2942 l 4273 2937 l 4283 2933 l 4291 2930 l
 4300 2928 l 4310 2927 l 4320 2926 l 4330 2925 l 4340 2925 l
 4349 2925 l 4358 2925 l 4367 2925 l 4377 2925 l 4386 2926 l
 4395 2927 l 4403 2930 l 4410 2933 l 4417 2937 l 4425 2943 l
 4435 2952 l 4446 2962 l 4454 2969 l
 4455 2970 l  cp gs col0 s gr 
% Polyline
0 slj
n 6525 1260 m
 4500 2880 l gs col0 s gr 
% Polyline
n 7020 1260 m
 6300 2745 l gs col0 s gr 
% Polyline
n 7503 1262 m
 7413 2612 l gs col0 s gr 
% Polyline
n 8055 1260 m
 8235 3555 l gs col0 s gr 
% Polyline
n 9675 1260 m
 10125 2115 l gs col0 s gr 
% Polyline
n 8636 1890 m 8644 1890 l gs col0 s gr
% Polyline
n 8415 1260 m
 8640 1890 l gs col0 s gr 
% Polyline
n 9000 1260 m
 9765 3285 l gs col0 s gr 
% Polyline
n 9945 1260 m
 12420 2745 l gs col0 s gr 
/Times-Roman ff 190.50 scf sf
6030 3060 m
gs 1 -1 sc (O8) col0 sh gr
/Times-Roman ff 190.50 scf sf
6435 3150 m
gs 1 -1 sc (O9) col0 sh gr
/Times-Roman ff 190.50 scf sf
5985 3375 m
gs 1 -1 sc (O10) col0 sh gr
/Times-Roman ff 190.50 scf sf
6390 3375 m
gs 1 -1 sc (O11) col0 sh gr
/Times-Roman ff 190.50 scf sf
7155 2925 m
gs 1 -1 sc (O17) col0 sh gr
/Times-Roman ff 190.50 scf sf
7065 3150 m
gs 1 -1 sc (O18) col0 sh gr
/Times-Roman ff 190.50 scf sf
7470 3330 m
gs 1 -1 sc (O19) col0 sh gr
/Times-Roman ff 190.50 scf sf
7560 3060 m
gs 1 -1 sc (O20) col0 sh gr
/Times-Roman ff 190.50 scf sf
7965 3915 m
gs 1 -1 sc (O21) col0 sh gr
/Times-Roman ff 190.50 scf sf
8280 4185 m
gs 1 -1 sc (O22) col0 sh gr
/Times-Roman ff 190.50 scf sf
10350 2475 m
gs 1 -1 sc (O16) col0 sh gr
/Times-Roman ff 190.50 scf sf
9855 2475 m
gs 1 -1 sc (O14) col0 sh gr
/Times-Roman ff 190.50 scf sf
9945 2700 m
gs 1 -1 sc (O15) col0 sh gr
/Times-Roman ff 190.50 scf sf
8415 2115 m
gs 1 -1 sc (O25) col0 sh gr
/Times-Roman ff 190.50 scf sf
8325 2295 m
gs 1 -1 sc (O26) col0 sh gr
/Times-Roman ff 190.50 scf sf
8730 2565 m
gs 1 -1 sc (O27) col0 sh gr
/Times-Roman ff 190.50 scf sf
9945 3870 m
gs 1 -1 sc (O24) col0 sh gr
/Times-Roman ff 190.50 scf sf
9900 3600 m
gs 1 -1 sc (O23) col0 sh gr
/Times-Roman ff 190.50 scf sf
12105 3015 m
gs 1 -1 sc (12) col0 sh gr
/Times-Roman ff 190.50 scf sf
12375 3240 m
gs 1 -1 sc (13) col0 sh gr
/Times-Roman ff 190.50 scf sf
4005 3195 m
gs 1 -1 sc (O1) col0 sh gr
/Times-Roman ff 190.50 scf sf
4050 3465 m
gs 1 -1 sc (O2) col0 sh gr
/Times-Roman ff 190.50 scf sf
4500 3330 m
gs 1 -1 sc (O3) col0 sh gr
/Times-Roman ff 190.50 scf sf
6930 1125 m
gs 1 -1 sc (C2) col0 sh gr
/Times-Roman ff 190.50 scf sf
7380 1125 m
gs 1 -1 sc (C3) col0 sh gr
/Times-Roman ff 190.50 scf sf
6480 1125 m
gs 1 -1 sc (C1) col0 sh gr
/Times-Roman ff 190.50 scf sf
7875 1125 m
gs 1 -1 sc (C4) col0 sh gr
/Times-Roman ff 190.50 scf sf
8325 1125 m
gs 1 -1 sc (C5) col0 sh gr
/Times-Roman ff 190.50 scf sf
9315 1125 m
gs 1 -1 sc (C7) col0 sh gr
/Times-Roman ff 190.50 scf sf
9810 1125 m
gs 1 -1 sc (C8) col0 sh gr
/Times-Roman ff 190.50 scf sf
8865 1125 m
gs 1 -1 sc (C6) col0 sh gr
% here ends figure;
pagefooter
showpage
%%Trailer
%EOF
