\relax 
\citation{mic-architecture}
\citation{cpp-compiler}
\citation{fortran-compiler}
\citation{mpi_forum}
\citation{openmp_pdf}
\citation{openmp_book}
\citation{PRACE_PHI}
\@writefile{toc}{\contentsline {chapter}{\numberline {2}Antecedentes Generales}{3}}
\@writefile{lof}{\addvspace {10\p@ }}
\@writefile{lot}{\addvspace {10\p@ }}
\@writefile{toc}{\contentsline {section}{\numberline {2.1}Conocimientos B\IeC {\'a}sicos}{3}}
\@writefile{toc}{\contentsline {subsection}{\numberline {2.1.1}Coprocesador Intel Xeon Phi}{3}}
\newlabel{fig_intel_phi-a}{{2.1(a)}{4}}
\newlabel{sub@fig_intel_phi-a}{{(a)}{4}}
\newlabel{fig_intel_phi-b}{{2.1(b)}{4}}
\newlabel{sub@fig_intel_phi-b}{{(b)}{4}}
\@writefile{lof}{\contentsline {figure}{\numberline {2.1}{\ignorespaces Diagrama de la Arquitectura MIC.}}{4}}
\newlabel{fig_intel_phi}{{2.1}{4}}
\@writefile{lof}{\contentsline {subfigure}{\numberline{(a)}{\ignorespaces {N\IeC {\'u}cleo del coprocesador Intel Xeon Phi.}}}{4}}
\@writefile{lof}{\contentsline {subfigure}{\numberline{(b)}{\ignorespaces {Interconexi\IeC {\'o}n de los n\IeC {\'u}cleos en una Intel Xeon Phi.}}}{4}}
\@writefile{toc}{\contentsline {section}{\numberline {2.2}Espacios m\IeC {\'e}tricos}{4}}
\citation{dimension1}
\citation{dimension1}
\newlabel{sec_bus_sim}{{2.2.1}{5}}
\@writefile{toc}{\contentsline {subsection}{\numberline {2.2.1}B\IeC {\'u}squedas por similitud}{5}}
\@writefile{lof}{\contentsline {figure}{\numberline {2.2}{\ignorespaces Ejemplos de consultas, por rango (izquierda) y por kNN (k vecinos m\IeC {\'a}s cercanos) (derecha) sobre un conjunto de puntos en $\mathbb  {R}^{2}$.}}{6}}
\newlabel{cap:Ejemplos-de-consultas}{{2.2}{6}}
\@writefile{lof}{\contentsline {subfigure}{\numberline{(a)}{\ignorespaces {Ejemplo de consulta por rango $(q,r)$}}}{6}}
\@writefile{lof}{\contentsline {subfigure}{\numberline{(b)}{\ignorespaces {Ejemplo de consulta kNN (con k=5)}}}{6}}
\@writefile{toc}{\contentsline {subsection}{\numberline {2.2.2}Indexaci'on}{6}}
\citation{dimension1}
\citation{SSS_Index}
\citation{SSS_Tree}
\citation{Vid86}
\citation{MOV94}
\citation{CMBY99}
\citation{NN97}
\citation{BCMW94}
\citation{CMN01}
\citation{GNAT}
\citation{EGNAT}
\citation{Uri05}
\citation{CPZ97}
\citation{LC}
\citation{Uhl91}
\citation{NVZ92}
\citation{DN87}
\citation{Nol89}
\citation{dimension1}
\citation{dimension2}
\citation{BGTPM_CAEE13}
\citation{GCBMB_europdp10}
\citation{LC}
\@writefile{toc}{\contentsline {subsection}{\numberline {2.2.3}\IeC {\'I}ndices m\IeC {\'e}tricos}{9}}
\newlabel{LC}{{2.2.3.1}{9}}
\@writefile{toc}{\contentsline {subsubsection}{\numberline {2.2.3.1}Lista de Clusters (\emph  {LC}) }{9}}
\newlabel{construye_lc}{{1}{10}}
\@writefile{loa}{\contentsline {algorithm}{\numberline {1}{\ignorespaces \emph  {Lista de Cluster}: algoritmo de construcci'on.}}{10}}
\@writefile{lof}{\contentsline {figure}{\numberline {2.3}{\ignorespaces \emph  {Lista de Cluster}: Zonas abarcadas por 3 centros seg'un este orden: $c_1,c_2,c_3$.}}{10}}
\newlabel{lc-cons}{{2.3}{10}}
\newlabel{busca-lc-a}{{2.4(a)}{10}}
\newlabel{sub@busca-lc-a}{{(a)}{10}}
\newlabel{busca-lc-b}{{2.4(b)}{10}}
\newlabel{sub@busca-lc-b}{{(b)}{10}}
\newlabel{busca-lc-c}{{2.4(c)}{10}}
\newlabel{sub@busca-lc-c}{{(c)}{10}}
\@writefile{lof}{\contentsline {figure}{\numberline {2.4}{\ignorespaces \emph  {Lista de Cluster}: Tres casos de b'usqueda.}}{10}}
\newlabel{busca-lc}{{2.4}{10}}
\@writefile{lof}{\contentsline {subfigure}{\numberline{(a)}{\ignorespaces {}}}{10}}
\@writefile{lof}{\contentsline {subfigure}{\numberline{(b)}{\ignorespaces {}}}{10}}
\@writefile{lof}{\contentsline {subfigure}{\numberline{(c)}{\ignorespaces {}}}{10}}
\citation{ICPP2010}
\citation{SSSpar08}
\citation{distributed_LC-09}
\citation{LCpar08}
\citation{LCSSS08}
\citation{MUB_iccs07}
\citation{UNBM_iccs06}
\citation{ICPP2010}
\citation{SSSpar08}
\citation{BSP}
\newlabel{alg_lc}{{2}{11}}
\@writefile{loa}{\contentsline {algorithm}{\numberline {2}{\ignorespaces \emph  {Lista de Cluster}: b'usqueda por rango $r$ para la consulta $q$.}}{11}}
\@writefile{toc}{\contentsline {section}{\numberline {2.3}Trabajo Relacionado}{11}}
\newlabel{sec_related_work-multi-core_ch-related}{{2.3.1}{11}}
\@writefile{toc}{\contentsline {subsection}{\numberline {2.3.1}Trabajo relacionado en Sistemas multi-core}{11}}
\citation{distributed_LC-09}
\citation{LCpar08}
\citation{LCSSS08}
\citation{MUB_iccs07}
\citation{UNBM_iccs06}
\citation{EGNAT}
\citation{Kuang09}
\citation{Bau08}
\citation{Bus06}
\citation{Uribe_iccsa-11}
\citation{Uribe_iccsa-11}
\citation{spaghettis}
\newlabel{sec:related_gpu}{{2.3.2}{13}}
\@writefile{toc}{\contentsline {subsection}{\numberline {2.3.2}Trabajo Relacionado en GPU}{13}}
\citation{Kuang09}
\citation{gpu_radixsort}
\citation{Bau08}
\citation{Bus06}
\@writefile{lof}{\contentsline {figure}{\numberline {2.5}{\ignorespaces Particionado de los datos y matrices de consultas en submatrices.}}{14}}
\newlabel{fig_kuang09}{{2.5}{14}}
\@setckpt{antecedentes_generales}{
\setcounter{page}{15}
\setcounter{equation}{0}
\setcounter{enumi}{2}
\setcounter{enumii}{0}
\setcounter{enumiii}{0}
\setcounter{enumiv}{0}
\setcounter{footnote}{0}
\setcounter{mpfootnote}{0}
\setcounter{part}{0}
\setcounter{chapter}{2}
\setcounter{section}{3}
\setcounter{subsection}{2}
\setcounter{subsubsection}{0}
\setcounter{paragraph}{0}
\setcounter{subparagraph}{0}
\setcounter{figure}{5}
\setcounter{table}{0}
\setcounter{parentequation}{0}
\setcounter{subfigure}{0}
\setcounter{lofdepth}{1}
\setcounter{subtable}{0}
\setcounter{lotdepth}{1}
\setcounter{float@type}{32}
\setcounter{lstnumber}{1}
\setcounter{algorithm}{2}
\setcounter{ALC@unique}{25}
\setcounter{ALC@line}{15}
\setcounter{ALC@rem}{0}
\setcounter{ALC@depth}{0}
\setcounter{BibCnt}{0}
\setcounter{LT@tables}{0}
\setcounter{LT@chunks}{0}
\setcounter{lstlisting}{0}
\setcounter{maskedRefs}{0}
}
