\relax 
\citation{cophir}
\citation{query_log}
\@writefile{toc}{\contentsline {chapter}{\numberline {3}Materiales y M\IeC {\'e}todos}{15}}
\@writefile{lof}{\addvspace {10\p@ }}
\@writefile{lot}{\addvspace {10\p@ }}
\@writefile{toc}{\contentsline {section}{\numberline {3.1}Materiales}{15}}
\@writefile{lot}{\contentsline {table}{\numberline {3.1}{\ignorespaces Caracter\IeC {\'\i }sticas Generales}}{15}}
\newlabel{tabla_hardware}{{3.1}{15}}
\citation{PRACE_PHI}
\@writefile{toc}{\contentsline {section}{\numberline {3.2}Metodolog\IeC {\'\i }a}{16}}
\@writefile{toc}{\contentsline {subsection}{\numberline {3.2.1} Hip\IeC {\'o}tesis}{16}}
\newlabel{objetivos}{{3.3}{16}}
\@writefile{toc}{\contentsline {section}{\numberline {3.3}Objetivos }{16}}
\@writefile{toc}{\contentsline {section}{\numberline {3.4}Metodolog\IeC {\'\i }a}{17}}
\@setckpt{materiales_y_metodos}{
\setcounter{page}{19}
\setcounter{equation}{0}
\setcounter{enumi}{8}
\setcounter{enumii}{0}
\setcounter{enumiii}{0}
\setcounter{enumiv}{0}
\setcounter{footnote}{0}
\setcounter{mpfootnote}{0}
\setcounter{part}{0}
\setcounter{chapter}{3}
\setcounter{section}{4}
\setcounter{subsection}{0}
\setcounter{subsubsection}{0}
\setcounter{paragraph}{0}
\setcounter{subparagraph}{0}
\setcounter{figure}{0}
\setcounter{table}{1}
\setcounter{parentequation}{0}
\setcounter{subfigure}{0}
\setcounter{lofdepth}{1}
\setcounter{subtable}{0}
\setcounter{lotdepth}{1}
\setcounter{float@type}{32}
\setcounter{lstnumber}{1}
\setcounter{algorithm}{2}
\setcounter{ALC@unique}{25}
\setcounter{ALC@line}{15}
\setcounter{ALC@rem}{0}
\setcounter{ALC@depth}{0}
\setcounter{BibCnt}{0}
\setcounter{LT@tables}{0}
\setcounter{LT@chunks}{0}
\setcounter{lstlisting}{0}
\setcounter{maskedRefs}{0}
}
