\relax 
\@writefile{toc}{\contentsline {chapter}{\numberline {4}Programa de Trabajo}{19}}
\@writefile{lof}{\addvspace {10\p@ }}
\@writefile{lot}{\addvspace {10\p@ }}
\@writefile{toc}{\contentsline {section}{\numberline {4.1}Plan de Trabajo}{19}}
\@writefile{lot}{\contentsline {table}{\numberline {4.1}{\ignorespaces Plan de trabajo}}{19}}
\@setckpt{programa_de_trabajo}{
\setcounter{page}{20}
\setcounter{equation}{0}
\setcounter{enumi}{8}
\setcounter{enumii}{0}
\setcounter{enumiii}{0}
\setcounter{enumiv}{0}
\setcounter{footnote}{0}
\setcounter{mpfootnote}{0}
\setcounter{part}{0}
\setcounter{chapter}{4}
\setcounter{section}{1}
\setcounter{subsection}{0}
\setcounter{subsubsection}{0}
\setcounter{paragraph}{0}
\setcounter{subparagraph}{0}
\setcounter{figure}{0}
\setcounter{table}{1}
\setcounter{parentequation}{0}
\setcounter{subfigure}{0}
\setcounter{lofdepth}{1}
\setcounter{subtable}{0}
\setcounter{lotdepth}{1}
\setcounter{float@type}{32}
\setcounter{lstnumber}{1}
\setcounter{algorithm}{2}
\setcounter{ALC@unique}{25}
\setcounter{ALC@line}{15}
\setcounter{ALC@rem}{0}
\setcounter{ALC@depth}{0}
\setcounter{BibCnt}{0}
\setcounter{LT@tables}{0}
\setcounter{LT@chunks}{0}
\setcounter{lstlisting}{0}
\setcounter{maskedRefs}{0}
}
