%!PS-Adobe-2.0
%%Title: T_H3.ps
%%Creator: gnuplot 4.0 patchlevel 0
%%CreationDate: Sat Apr  4 11:10:55 2009
%%DocumentFonts: (atend)
%%BoundingBox: 50 50 554 770
%%Orientation: Landscape
%%Pages: (atend)
%%EndComments
/gnudict 256 dict def
gnudict begin
/Color false def
/Solid false def
/gnulinewidth 5.000 def
/userlinewidth gnulinewidth def
/vshift -93 def
/dl {10.0 mul} def
/hpt_ 31.5 def
/vpt_ 31.5 def
/hpt hpt_ def
/vpt vpt_ def
/Rounded false def
/M {moveto} bind def
/L {lineto} bind def
/R {rmoveto} bind def
/V {rlineto} bind def
/N {newpath moveto} bind def
/C {setrgbcolor} bind def
/f {rlineto fill} bind def
/vpt2 vpt 2 mul def
/hpt2 hpt 2 mul def
/Lshow { currentpoint stroke M
  0 vshift R show } def
/Rshow { currentpoint stroke M
  dup stringwidth pop neg vshift R show } def
/Cshow { currentpoint stroke M
  dup stringwidth pop -2 div vshift R show } def
/UP { dup vpt_ mul /vpt exch def hpt_ mul /hpt exch def
  /hpt2 hpt 2 mul def /vpt2 vpt 2 mul def } def
/DL { Color {setrgbcolor Solid {pop []} if 0 setdash }
 {pop pop pop 0 setgray Solid {pop []} if 0 setdash} ifelse } def
/BL { stroke userlinewidth 2 mul setlinewidth
      Rounded { 1 setlinejoin 1 setlinecap } if } def
/AL { stroke userlinewidth 2 div setlinewidth
      Rounded { 1 setlinejoin 1 setlinecap } if } def
/UL { dup gnulinewidth mul /userlinewidth exch def
      dup 1 lt {pop 1} if 10 mul /udl exch def } def
/PL { stroke userlinewidth setlinewidth
      Rounded { 1 setlinejoin 1 setlinecap } if } def
/LTw { PL [] 1 setgray } def
/LTb { BL [] 0 0 0 DL } def
/LTa { AL [1 udl mul 2 udl mul] 0 setdash 0 0 0 setrgbcolor } def
/LT0 { PL [] 1 0 0 DL } def
/LT1 { PL [4 dl 2 dl] 0 1 0 DL } def
/LT2 { PL [2 dl 3 dl] 0 0 1 DL } def
/LT3 { PL [1 dl 1.5 dl] 1 0 1 DL } def
/LT4 { PL [5 dl 2 dl 1 dl 2 dl] 0 1 1 DL } def
/LT5 { PL [4 dl 3 dl 1 dl 3 dl] 1 1 0 DL } def
/LT6 { PL [2 dl 2 dl 2 dl 4 dl] 0 0 0 DL } def
/LT7 { PL [2 dl 2 dl 2 dl 2 dl 2 dl 4 dl] 1 0.3 0 DL } def
/LT8 { PL [2 dl 2 dl 2 dl 2 dl 2 dl 2 dl 2 dl 4 dl] 0.5 0.5 0.5 DL } def
/Pnt { stroke [] 0 setdash
   gsave 1 setlinecap M 0 0 V stroke grestore } def
/Dia { stroke [] 0 setdash 2 copy vpt add M
  hpt neg vpt neg V hpt vpt neg V
  hpt vpt V hpt neg vpt V closepath stroke
  Pnt } def
/Pls { stroke [] 0 setdash vpt sub M 0 vpt2 V
  currentpoint stroke M
  hpt neg vpt neg R hpt2 0 V stroke
  } def
/Box { stroke [] 0 setdash 2 copy exch hpt sub exch vpt add M
  0 vpt2 neg V hpt2 0 V 0 vpt2 V
  hpt2 neg 0 V closepath stroke
  Pnt } def

/Crs { stroke [] 0 setdash exch hpt sub exch vpt add M
  hpt2 vpt2 neg V currentpoint stroke M
  hpt2 neg 0 R hpt2 vpt2 V stroke } def
/TriU { stroke [] 0 setdash 2 copy vpt 1.12 mul add M
  hpt neg vpt -1.62 mul V
  hpt 2 mul 0 V
  hpt neg vpt 1.62 mul V closepath stroke
  Pnt  } def
/Star { 2 copy Pls Crs } def
/BoxF { stroke [] 0 setdash exch hpt sub exch vpt add M
  0 vpt2 neg V  hpt2 0 V  0 vpt2 V
  hpt2 neg 0 V  closepath fill } def
/TriUF { stroke [] 0 setdash vpt 1.12 mul add M
  hpt neg vpt -1.62 mul V
  hpt 2 mul 0 V
  hpt neg vpt 1.62 mul V closepath fill } def
/TriD { stroke [] 0 setdash 2 copy vpt 1.12 mul sub M
  hpt neg vpt 1.62 mul V
  hpt 2 mul 0 V
  hpt neg vpt -1.62 mul V closepath stroke
  Pnt  } def
/TriDF { stroke [] 0 setdash vpt 1.12 mul sub M
  hpt neg vpt 1.62 mul V
  hpt 2 mul 0 V
  hpt neg vpt -1.62 mul V closepath fill} def
/DiaF { stroke [] 0 setdash vpt add M
  hpt neg vpt neg V hpt vpt neg V
  hpt vpt V hpt neg vpt V closepath fill } def
/Pent { stroke [] 0 setdash 2 copy gsave
  translate 0 hpt M 4 {72 rotate 0 hpt L} repeat
  closepath stroke grestore Pnt } def
/PentF { stroke [] 0 setdash gsave
  translate 0 hpt M 4 {72 rotate 0 hpt L} repeat
  closepath fill grestore } def
/Circle { stroke [] 0 setdash 2 copy
  hpt 0 360 arc stroke Pnt } def
/CircleF { stroke [] 0 setdash hpt 0 360 arc fill } def
/C0 { BL [] 0 setdash 2 copy moveto vpt 90 450  arc } bind def
/C1 { BL [] 0 setdash 2 copy        moveto
       2 copy  vpt 0 90 arc closepath fill
               vpt 0 360 arc closepath } bind def
/C2 { BL [] 0 setdash 2 copy moveto
       2 copy  vpt 90 180 arc closepath fill
               vpt 0 360 arc closepath } bind def
/C3 { BL [] 0 setdash 2 copy moveto
       2 copy  vpt 0 180 arc closepath fill
               vpt 0 360 arc closepath } bind def
/C4 { BL [] 0 setdash 2 copy moveto
       2 copy  vpt 180 270 arc closepath fill
               vpt 0 360 arc closepath } bind def
/C5 { BL [] 0 setdash 2 copy moveto
       2 copy  vpt 0 90 arc
       2 copy moveto
       2 copy  vpt 180 270 arc closepath fill
               vpt 0 360 arc } bind def
/C6 { BL [] 0 setdash 2 copy moveto
      2 copy  vpt 90 270 arc closepath fill
              vpt 0 360 arc closepath } bind def
/C7 { BL [] 0 setdash 2 copy moveto
      2 copy  vpt 0 270 arc closepath fill
              vpt 0 360 arc closepath } bind def
/C8 { BL [] 0 setdash 2 copy moveto
      2 copy vpt 270 360 arc closepath fill
              vpt 0 360 arc closepath } bind def
/C9 { BL [] 0 setdash 2 copy moveto
      2 copy  vpt 270 450 arc closepath fill
              vpt 0 360 arc closepath } bind def
/C10 { BL [] 0 setdash 2 copy 2 copy moveto vpt 270 360 arc closepath fill
       2 copy moveto
       2 copy vpt 90 180 arc closepath fill
               vpt 0 360 arc closepath } bind def
/C11 { BL [] 0 setdash 2 copy moveto
       2 copy  vpt 0 180 arc closepath fill
       2 copy moveto
       2 copy  vpt 270 360 arc closepath fill
               vpt 0 360 arc closepath } bind def
/C12 { BL [] 0 setdash 2 copy moveto
       2 copy  vpt 180 360 arc closepath fill
               vpt 0 360 arc closepath } bind def
/C13 { BL [] 0 setdash  2 copy moveto
       2 copy  vpt 0 90 arc closepath fill
       2 copy moveto
       2 copy  vpt 180 360 arc closepath fill
               vpt 0 360 arc closepath } bind def
/C14 { BL [] 0 setdash 2 copy moveto
       2 copy  vpt 90 360 arc closepath fill
               vpt 0 360 arc } bind def
/C15 { BL [] 0 setdash 2 copy vpt 0 360 arc closepath fill
               vpt 0 360 arc closepath } bind def
/Rec   { newpath 4 2 roll moveto 1 index 0 rlineto 0 exch rlineto
       neg 0 rlineto closepath } bind def
/Square { dup Rec } bind def
/Bsquare { vpt sub exch vpt sub exch vpt2 Square } bind def
/S0 { BL [] 0 setdash 2 copy moveto 0 vpt rlineto BL Bsquare } bind def
/S1 { BL [] 0 setdash 2 copy vpt Square fill Bsquare } bind def
/S2 { BL [] 0 setdash 2 copy exch vpt sub exch vpt Square fill Bsquare } bind def
/S3 { BL [] 0 setdash 2 copy exch vpt sub exch vpt2 vpt Rec fill Bsquare } bind def
/S4 { BL [] 0 setdash 2 copy exch vpt sub exch vpt sub vpt Square fill Bsquare } bind def
/S5 { BL [] 0 setdash 2 copy 2 copy vpt Square fill
       exch vpt sub exch vpt sub vpt Square fill Bsquare } bind def
/S6 { BL [] 0 setdash 2 copy exch vpt sub exch vpt sub vpt vpt2 Rec fill Bsquare } bind def
/S7 { BL [] 0 setdash 2 copy exch vpt sub exch vpt sub vpt vpt2 Rec fill
       2 copy vpt Square fill
       Bsquare } bind def
/S8 { BL [] 0 setdash 2 copy vpt sub vpt Square fill Bsquare } bind def
/S9 { BL [] 0 setdash 2 copy vpt sub vpt vpt2 Rec fill Bsquare } bind def
/S10 { BL [] 0 setdash 2 copy vpt sub vpt Square fill 2 copy exch vpt sub exch vpt Square fill
       Bsquare } bind def
/S11 { BL [] 0 setdash 2 copy vpt sub vpt Square fill 2 copy exch vpt sub exch vpt2 vpt Rec fill
       Bsquare } bind def
/S12 { BL [] 0 setdash 2 copy exch vpt sub exch vpt sub vpt2 vpt Rec fill Bsquare } bind def
/S13 { BL [] 0 setdash 2 copy exch vpt sub exch vpt sub vpt2 vpt Rec fill
       2 copy vpt Square fill Bsquare } bind def
/S14 { BL [] 0 setdash 2 copy exch vpt sub exch vpt sub vpt2 vpt Rec fill
       2 copy exch vpt sub exch vpt Square fill Bsquare } bind def
/S15 { BL [] 0 setdash 2 copy Bsquare fill Bsquare } bind def
/D0 { gsave translate 45 rotate 0 0 S0 stroke grestore } bind def
/D1 { gsave translate 45 rotate 0 0 S1 stroke grestore } bind def
/D2 { gsave translate 45 rotate 0 0 S2 stroke grestore } bind def
/D3 { gsave translate 45 rotate 0 0 S3 stroke grestore } bind def
/D4 { gsave translate 45 rotate 0 0 S4 stroke grestore } bind def
/D5 { gsave translate 45 rotate 0 0 S5 stroke grestore } bind def
/D6 { gsave translate 45 rotate 0 0 S6 stroke grestore } bind def
/D7 { gsave translate 45 rotate 0 0 S7 stroke grestore } bind def
/D8 { gsave translate 45 rotate 0 0 S8 stroke grestore } bind def
/D9 { gsave translate 45 rotate 0 0 S9 stroke grestore } bind def
/D10 { gsave translate 45 rotate 0 0 S10 stroke grestore } bind def
/D11 { gsave translate 45 rotate 0 0 S11 stroke grestore } bind def
/D12 { gsave translate 45 rotate 0 0 S12 stroke grestore } bind def
/D13 { gsave translate 45 rotate 0 0 S13 stroke grestore } bind def
/D14 { gsave translate 45 rotate 0 0 S14 stroke grestore } bind def
/D15 { gsave translate 45 rotate 0 0 S15 stroke grestore } bind def
/DiaE { stroke [] 0 setdash vpt add M
  hpt neg vpt neg V hpt vpt neg V
  hpt vpt V hpt neg vpt V closepath stroke } def
/BoxE { stroke [] 0 setdash exch hpt sub exch vpt add M
  0 vpt2 neg V hpt2 0 V 0 vpt2 V
  hpt2 neg 0 V closepath stroke } def
/TriUE { stroke [] 0 setdash vpt 1.12 mul add M
  hpt neg vpt -1.62 mul V
  hpt 2 mul 0 V
  hpt neg vpt 1.62 mul V closepath stroke } def
/TriDE { stroke [] 0 setdash vpt 1.12 mul sub M
  hpt neg vpt 1.62 mul V
  hpt 2 mul 0 V
  hpt neg vpt -1.62 mul V closepath stroke } def
/PentE { stroke [] 0 setdash gsave
  translate 0 hpt M 4 {72 rotate 0 hpt L} repeat
  closepath stroke grestore } def
/CircE { stroke [] 0 setdash 
  hpt 0 360 arc stroke } def
/Opaque { gsave closepath 1 setgray fill grestore 0 setgray closepath } def
/DiaW { stroke [] 0 setdash vpt add M
  hpt neg vpt neg V hpt vpt neg V
  hpt vpt V hpt neg vpt V Opaque stroke } def
/BoxW { stroke [] 0 setdash exch hpt sub exch vpt add M
  0 vpt2 neg V hpt2 0 V 0 vpt2 V
  hpt2 neg 0 V Opaque stroke } def
/TriUW { stroke [] 0 setdash vpt 1.12 mul add M
  hpt neg vpt -1.62 mul V
  hpt 2 mul 0 V
  hpt neg vpt 1.62 mul V Opaque stroke } def
/TriDW { stroke [] 0 setdash vpt 1.12 mul sub M
  hpt neg vpt 1.62 mul V
  hpt 2 mul 0 V
  hpt neg vpt -1.62 mul V Opaque stroke } def
/PentW { stroke [] 0 setdash gsave
  translate 0 hpt M 4 {72 rotate 0 hpt L} repeat
  Opaque stroke grestore } def
/CircW { stroke [] 0 setdash 
  hpt 0 360 arc Opaque stroke } def
/BoxFill { gsave Rec 1 setgray fill grestore } def
/BoxColFill {
  gsave Rec
  /Fillden exch def
  currentrgbcolor
  /ColB exch def /ColG exch def /ColR exch def
  /ColR ColR Fillden mul Fillden sub 1 add def
  /ColG ColG Fillden mul Fillden sub 1 add def
  /ColB ColB Fillden mul Fillden sub 1 add def
  ColR ColG ColB setrgbcolor
  fill grestore } def
%
% PostScript Level 1 Pattern Fill routine
% Usage: x y w h s a XX PatternFill
%	x,y = lower left corner of box to be filled
%	w,h = width and height of box
%	  a = angle in degrees between lines and x-axis
%	 XX = 0/1 for no/yes cross-hatch
%
/PatternFill { gsave /PFa [ 9 2 roll ] def
    PFa 0 get PFa 2 get 2 div add PFa 1 get PFa 3 get 2 div add translate
    PFa 2 get -2 div PFa 3 get -2 div PFa 2 get PFa 3 get Rec
    gsave 1 setgray fill grestore clip
    currentlinewidth 0.5 mul setlinewidth
    /PFs PFa 2 get dup mul PFa 3 get dup mul add sqrt def
    0 0 M PFa 5 get rotate PFs -2 div dup translate
	0 1 PFs PFa 4 get div 1 add floor cvi
	{ PFa 4 get mul 0 M 0 PFs V } for
    0 PFa 6 get ne {
	0 1 PFs PFa 4 get div 1 add floor cvi
	{ PFa 4 get mul 0 2 1 roll M PFs 0 V } for
    } if
    stroke grestore } def
%
/Symbol-Oblique /Symbol findfont [1 0 .167 1 0 0] makefont
dup length dict begin {1 index /FID eq {pop pop} {def} ifelse} forall
currentdict end definefont pop
end
%%EndProlog
%%Page: 1 1
gnudict begin
gsave
50 50 translate
0.100 0.100 scale
90 rotate
0 -5040 translate
0 setgray
newpath
(Times ) findfont 280 scalefont setfont
1.000 UL
LTb
1260 840 M
63 0 V
5401 0 R
-63 0 V
-5569 0 R
gsave 0 setgray
( 0) Rshow
grestore
1.000 UL
LTb
1260 1243 M
63 0 V
5401 0 R
-63 0 V
-5569 0 R
gsave 0 setgray
( 5) Rshow
grestore
1.000 UL
LTb
1260 1645 M
63 0 V
5401 0 R
-63 0 V
-5569 0 R
gsave 0 setgray
( 10) Rshow
grestore
1.000 UL
LTb
1260 2048 M
63 0 V
5401 0 R
-63 0 V
-5569 0 R
gsave 0 setgray
( 15) Rshow
grestore
1.000 UL
LTb
1260 2450 M
63 0 V
5401 0 R
-63 0 V
-5569 0 R
gsave 0 setgray
( 20) Rshow
grestore
1.000 UL
LTb
1260 2853 M
63 0 V
5401 0 R
-63 0 V
-5569 0 R
gsave 0 setgray
( 25) Rshow
grestore
1.000 UL
LTb
1260 3255 M
63 0 V
5401 0 R
-63 0 V
-5569 0 R
gsave 0 setgray
( 30) Rshow
grestore
1.000 UL
LTb
1260 3658 M
63 0 V
5401 0 R
-63 0 V
-5569 0 R
gsave 0 setgray
( 35) Rshow
grestore
1.000 UL
LTb
1260 4060 M
63 0 V
5401 0 R
-63 0 V
-5569 0 R
gsave 0 setgray
( 40) Rshow
grestore
1.000 UL
LTb
1260 4463 M
63 0 V
5401 0 R
-63 0 V
-5569 0 R
gsave 0 setgray
( 45) Rshow
grestore
1.000 UL
LTb
1412 840 M
0 63 V
0 3801 R
0 -63 V
0 -4081 R
gsave 0 setgray
( 0) Cshow
grestore
1.000 UL
LTb
2171 840 M
0 63 V
0 3801 R
0 -63 V
0 -4081 R
gsave 0 setgray
( 5) Cshow
grestore
1.000 UL
LTb
2930 840 M
0 63 V
0 3801 R
0 -63 V
0 -4081 R
gsave 0 setgray
( 10) Cshow
grestore
1.000 UL
LTb
3688 840 M
0 63 V
0 3801 R
0 -63 V
0 -4081 R
gsave 0 setgray
( 15) Cshow
grestore
1.000 UL
LTb
4447 840 M
0 63 V
0 3801 R
0 -63 V
0 -4081 R
gsave 0 setgray
( 20) Cshow
grestore
1.000 UL
LTb
5206 840 M
0 63 V
0 3801 R
0 -63 V
0 -4081 R
gsave 0 setgray
( 25) Cshow
grestore
1.000 UL
LTb
5965 840 M
0 63 V
0 3801 R
0 -63 V
0 -4081 R
gsave 0 setgray
( 30) Cshow
grestore
1.000 UL
LTb
6724 840 M
0 63 V
0 3801 R
0 -63 V
0 -4081 R
gsave 0 setgray
( 35) Cshow
grestore
1.000 UL
LTb
1.000 UL
LTb
1260 840 M
5464 0 V
0 3864 V
-5464 0 V
0 -3864 V
LTb
280 2772 M
gsave 0 setgray
currentpoint gsave translate 90 rotate 0 0 M
(Throughput ) Cshow
grestore
grestore
LTb
3992 140 M
gsave 0 setgray
(Tiempo ) Cshow
grestore
1.400 UP
LTb
2171 3497 M
gsave 0 setgray
(Trafico) Cshow
grestore
LTb
2171 3255 M
gsave 0 setgray
(Bajo) Cshow
grestore
LTb
5662 3497 M
gsave 0 setgray
(Trafico) Cshow
grestore
LTb
5662 3255 M
gsave 0 setgray
(Bajo) Cshow
grestore
LTb
3688 1484 M
gsave 0 setgray
(Trafico) Cshow
grestore
LTb
3688 1243 M
gsave 0 setgray
(Alto) Cshow
grestore
1.400 UP
1.000 UL
LT0
LTb
5460 4501 M
gsave 0 setgray
(Local) Rshow
grestore
LT0
5628 4501 M
760 0 V
1412 1806 M
152 -80 V
151 161 V
152 -81 V
152 161 V
152 -161 V
151 -80 V
152 241 V
152 -80 V
152 80 V
152 403 V
151 885 V
152 322 V
152 81 V
152 483 V
151 -242 V
152 -322 V
152 0 V
152 -241 V
152 -242 V
151 -885 V
152 -403 V
152 161 V
152 -161 V
151 242 V
152 -242 V
152 -161 V
152 483 V
152 -483 V
151 322 V
152 -161 V
152 161 V
152 -241 V
151 80 V
152 242 V
152 80 V
1412 1806 CircleF
1564 1726 CircleF
1715 1887 CircleF
1867 1806 CircleF
2019 1967 CircleF
2171 1806 CircleF
2322 1726 CircleF
2474 1967 CircleF
2626 1887 CircleF
2778 1967 CircleF
2930 2370 CircleF
3081 3255 CircleF
3233 3577 CircleF
3385 3658 CircleF
3537 4141 CircleF
3688 3899 CircleF
3840 3577 CircleF
3992 3577 CircleF
4144 3336 CircleF
4296 3094 CircleF
4447 2209 CircleF
4599 1806 CircleF
4751 1967 CircleF
4903 1806 CircleF
5054 2048 CircleF
5206 1806 CircleF
5358 1645 CircleF
5510 2128 CircleF
5662 1645 CircleF
5813 1967 CircleF
5965 1806 CircleF
6117 1967 CircleF
6269 1726 CircleF
6420 1806 CircleF
6572 2048 CircleF
6724 2128 CircleF
6008 4501 CircleF
1.400 UP
1.000 UL
LT6
LTb
5460 4221 M
gsave 0 setgray
(Bulk-Circular) Rshow
grestore
LT6
5628 4221 M
760 0 V
1412 2209 M
152 322 V
151 0 V
152 -242 V
152 403 V
152 -242 V
151 81 V
152 161 V
152 -161 V
152 402 V
152 -483 V
151 0 V
152 242 V
152 80 V
152 886 V
151 -564 V
152 -563 V
152 644 V
152 161 V
152 -483 V
151 -161 V
152 -161 V
152 322 V
152 -81 V
151 -161 V
152 -161 V
152 161 V
152 81 V
152 0 V
151 0 V
152 -242 V
152 242 V
152 -483 V
151 161 V
152 80 V
152 -161 V
1412 2209 Box
1564 2531 Box
1715 2531 Box
1867 2289 Box
2019 2692 Box
2171 2450 Box
2322 2531 Box
2474 2692 Box
2626 2531 Box
2778 2933 Box
2930 2450 Box
3081 2450 Box
3233 2692 Box
3385 2772 Box
3537 3658 Box
3688 3094 Box
3840 2531 Box
3992 3175 Box
4144 3336 Box
4296 2853 Box
4447 2692 Box
4599 2531 Box
4751 2853 Box
4903 2772 Box
5054 2611 Box
5206 2450 Box
5358 2611 Box
5510 2692 Box
5662 2692 Box
5813 2692 Box
5965 2450 Box
6117 2692 Box
6269 2209 Box
6420 2370 Box
6572 2450 Box
6724 2289 Box
6008 4221 Box
1.400 UP
1.000 UL
LT8
LTb
5460 3941 M
gsave 0 setgray
(Hibrido) Rshow
grestore
LT8
5628 3941 M
760 0 V
1412 2209 M
152 322 V
151 0 V
152 -242 V
152 403 V
152 -242 V
151 81 V
152 161 V
152 -161 V
152 402 V
152 -483 V
151 805 V
152 322 V
152 242 V
152 402 V
151 -161 V
152 -241 V
152 -81 V
152 -241 V
152 -161 V
151 -322 V
152 0 V
152 -81 V
152 -161 V
151 -241 V
152 -81 V
152 242 V
152 -161 V
152 161 V
151 80 V
152 -161 V
152 81 V
152 -81 V
151 -161 V
152 242 V
152 -403 V
1412 2209 TriUF
1564 2531 TriUF
1715 2531 TriUF
1867 2289 TriUF
2019 2692 TriUF
2171 2450 TriUF
2322 2531 TriUF
2474 2692 TriUF
2626 2531 TriUF
2778 2933 TriUF
2930 2450 TriUF
3081 3255 TriUF
3233 3577 TriUF
3385 3819 TriUF
3537 4221 TriUF
3688 4060 TriUF
3840 3819 TriUF
3992 3738 TriUF
4144 3497 TriUF
4296 3336 TriUF
4447 3014 TriUF
4599 3014 TriUF
4751 2933 TriUF
4903 2772 TriUF
5054 2531 TriUF
5206 2450 TriUF
5358 2692 TriUF
5510 2531 TriUF
5662 2692 TriUF
5813 2772 TriUF
5965 2611 TriUF
6117 2692 TriUF
6269 2611 TriUF
6420 2450 TriUF
6572 2692 TriUF
6724 2289 TriUF
6008 3941 TriUF
1.000 UL
LTb
1260 840 M
5464 0 V
0 3864 V
-5464 0 V
0 -3864 V
1.400 UP
stroke
grestore
end
showpage
%%Trailer
%%DocumentFonts: Times 
%%Pages: 1
