%!PS-Adobe-2.0 EPSF-2.0
%%Title: cod_gpu.fig
%%Creator: fig2dev Version 3.2 Patchlevel 5c
%%CreationDate: Sat Mar 26 00:23:21 2011
%%BoundingBox: 0 0 489 557
%Magnification: 1.0000
%%EndComments
%%BeginProlog
/$F2psDict 200 dict def
$F2psDict begin
$F2psDict /mtrx matrix put
/col-1 {0 setgray} bind def
/col0 {0.000 0.000 0.000 srgb} bind def
/col1 {0.000 0.000 1.000 srgb} bind def
/col2 {0.000 1.000 0.000 srgb} bind def
/col3 {0.000 1.000 1.000 srgb} bind def
/col4 {1.000 0.000 0.000 srgb} bind def
/col5 {1.000 0.000 1.000 srgb} bind def
/col6 {1.000 1.000 0.000 srgb} bind def
/col7 {1.000 1.000 1.000 srgb} bind def
/col8 {0.000 0.000 0.560 srgb} bind def
/col9 {0.000 0.000 0.690 srgb} bind def
/col10 {0.000 0.000 0.820 srgb} bind def
/col11 {0.530 0.810 1.000 srgb} bind def
/col12 {0.000 0.560 0.000 srgb} bind def
/col13 {0.000 0.690 0.000 srgb} bind def
/col14 {0.000 0.820 0.000 srgb} bind def
/col15 {0.000 0.560 0.560 srgb} bind def
/col16 {0.000 0.690 0.690 srgb} bind def
/col17 {0.000 0.820 0.820 srgb} bind def
/col18 {0.560 0.000 0.000 srgb} bind def
/col19 {0.690 0.000 0.000 srgb} bind def
/col20 {0.820 0.000 0.000 srgb} bind def
/col21 {0.560 0.000 0.560 srgb} bind def
/col22 {0.690 0.000 0.690 srgb} bind def
/col23 {0.820 0.000 0.820 srgb} bind def
/col24 {0.500 0.190 0.000 srgb} bind def
/col25 {0.630 0.250 0.000 srgb} bind def
/col26 {0.750 0.380 0.000 srgb} bind def
/col27 {1.000 0.500 0.500 srgb} bind def
/col28 {1.000 0.630 0.630 srgb} bind def
/col29 {1.000 0.750 0.750 srgb} bind def
/col30 {1.000 0.880 0.880 srgb} bind def
/col31 {1.000 0.840 0.000 srgb} bind def

end

/cp {closepath} bind def
/ef {eofill} bind def
/gr {grestore} bind def
/gs {gsave} bind def
/sa {save} bind def
/rs {restore} bind def
/l {lineto} bind def
/m {moveto} bind def
/rm {rmoveto} bind def
/n {newpath} bind def
/s {stroke} bind def
/sh {show} bind def
/slc {setlinecap} bind def
/slj {setlinejoin} bind def
/slw {setlinewidth} bind def
/srgb {setrgbcolor} bind def
/rot {rotate} bind def
/sc {scale} bind def
/sd {setdash} bind def
/ff {findfont} bind def
/sf {setfont} bind def
/scf {scalefont} bind def
/sw {stringwidth} bind def
/tr {translate} bind def
/tnt {dup dup currentrgbcolor
  4 -2 roll dup 1 exch sub 3 -1 roll mul add
  4 -2 roll dup 1 exch sub 3 -1 roll mul add
  4 -2 roll dup 1 exch sub 3 -1 roll mul add srgb}
  bind def
/shd {dup dup currentrgbcolor 4 -2 roll mul 4 -2 roll mul
  4 -2 roll mul srgb} bind def
/$F2psBegin {$F2psDict begin /$F2psEnteredState save def} def
/$F2psEnd {$F2psEnteredState restore end} def

/pageheader {
save
newpath 0 557 moveto 0 0 lineto 489 0 lineto 489 557 lineto closepath clip newpath
-257.0 557.4 translate
1 -1 scale
$F2psBegin
10 setmiterlimit
0 slj 0 slc
 0.06299 0.06299 sc
} bind def
/pagefooter {
$F2psEnd
restore
} bind def
%%EndProlog
pageheader
%
% Fig objects follow
%
% 
% here starts figure with depth 50
/Times-Roman ff 190.50 scf sf
4140 5400 m
gs 1 -1 sc (    inicializar_valores\(host_A, host_B, host_result\);) col0 sh gr
/Times-Roman ff 190.50 scf sf
4140 5895 m
gs 1 -1 sc (    cudaMemcpy\(dev_A, host_A, sizeof\(float\)*N, cudaMemcpyHostToDevice\);) col0 sh gr
/Times-Roman ff 190.50 scf sf
4320 5670 m
gs 1 -1 sc (/* Se copian los valores a las variables alojadas en device memory */ ) col0 sh gr
/Times-Roman ff 190.50 scf sf
4320 6165 m
gs 1 -1 sc (cudaMemcpy\(dev_B, host_B, sizeof\(float\)*N, cudaMemcpyHostToDevice\);) col0 sh gr
/Times-Roman ff 190.50 scf sf
4320 6525 m
gs 1 -1 sc (/*Invocamos al kernel con 'N_BLOQUES' bloques y 'N' threads por bloque) col0 sh gr
/Times-Roman ff 190.50 scf sf
4500 6750 m
gs 1 -1 sc (con las variables alojadas en device memory */) col0 sh gr
/Times-Roman ff 190.50 scf sf
4320 7020 m
gs 1 -1 sc (function<<<N_BLOQUES, N>>>\(dev_A, dev_B, dev_result\);) col0 sh gr
/Times-Roman ff 190.50 scf sf
4320 7380 m
gs 1 -1 sc (/* Se copian los resultados a memoria de la CPU */) col0 sh gr
/Times-Roman ff 190.50 scf sf
4320 7650 m
gs 1 -1 sc (cudaMemcpy\(host_result, dev_result, sizeof\(float\)*N, cudaMemcpyDeviceToHost\);) col0 sh gr
/Times-Roman ff 190.50 scf sf
4320 8010 m
gs 1 -1 sc (imprimir_resultados\(host_result\);) col0 sh gr
/Times-Roman ff 190.50 scf sf
4365 8280 m
gs 1 -1 sc (cudaThreadExit\(\);) col0 sh gr
/Times-Roman ff 190.50 scf sf
4365 8550 m
gs 1 -1 sc (return 0;) col0 sh gr
/Times-Roman ff 190.50 scf sf
4140 8775 m
gs 1 -1 sc (}) col0 sh gr
/Times-Roman ff 190.50 scf sf
5985 2250 m
gs 1 -1 sc (T) col0 sh gr
/Times-Roman ff 158.75 scf sf
6075 2295 m
gs 1 -1 sc (Block) col0 sh gr
/Times-Roman ff 190.50 scf sf
5040 2250 m
gs 1 -1 sc (ID) col0 sh gr
/Times-Roman ff 158.75 scf sf
5220 2340 m
gs 1 -1 sc (Thread) col0 sh gr
/Times-Roman ff 190.50 scf sf
6615 2250 m
gs 1 -1 sc (ID) col0 sh gr
/Times-Roman ff 158.75 scf sf
6795 2340 m
gs 1 -1 sc (Block) col0 sh gr
/Times-Roman ff 190.50 scf sf
4185 2250 m
gs 1 -1 sc (    int tid =                + \(            *             \);) col0 sh gr
/Times-Roman ff 190.50 scf sf
4095 1575 m
gs 1 -1 sc (__global__ void function\(float *A, float *B, float *result\)) col0 sh gr
/Times-Roman ff 190.50 scf sf
4095 1800 m
gs 1 -1 sc ({) col0 sh gr
/Times-Roman ff 190.50 scf sf
4365 2025 m
gs 1 -1 sc (/* Se obtiene el identificador del thread */) col0 sh gr
/Times-Roman ff 190.50 scf sf
4185 2700 m
gs 1 -1 sc (    result [tid] = A[tid] + B[tid];) col0 sh gr
/Times-Roman ff 190.50 scf sf
4365 2520 m
gs 1 -1 sc (/* Cada thread realiza la suma de un elemento distinto */) col0 sh gr
/Times-Roman ff 190.50 scf sf
4185 2925 m
gs 1 -1 sc (    return;) col0 sh gr
/Times-Roman ff 190.50 scf sf
4095 3060 m
gs 1 -1 sc (}) col0 sh gr
/Times-Roman ff 190.50 scf sf
4140 3420 m
gs 1 -1 sc (main\(\)) col0 sh gr
/Times-Roman ff 190.50 scf sf
4095 3645 m
gs 1 -1 sc ({) col0 sh gr
/Times-Roman ff 190.50 scf sf
4140 3825 m
gs 1 -1 sc (    float host_A[N], host_B[N], host_result[N];) col0 sh gr
/Times-Roman ff 190.50 scf sf
4140 4050 m
gs 1 -1 sc (    float *dev_A, *dev_B, *dev_result;) col0 sh gr
/Times-Roman ff 190.50 scf sf
4275 4365 m
gs 1 -1 sc (/* Asignamos memoria en device memory */) col0 sh gr
/Times-Roman ff 190.50 scf sf
4140 4590 m
gs 1 -1 sc (    cudaMalloc\(\(void **\)&dev_A, sizeof\(float\)*N\);) col0 sh gr
/Times-Roman ff 190.50 scf sf
4140 4815 m
gs 1 -1 sc (    cudaMalloc\(\(void **\)&dev_B, sizeof\(float\)*N\);) col0 sh gr
/Times-Roman ff 190.50 scf sf
4140 5040 m
gs 1 -1 sc (    cudaMalloc\(\(void **\)&dev_result, sizeof\(float\)*N\);) col0 sh gr
/Times-Roman ff 190.50 scf sf
4140 1305 m
gs 1 -1 sc (/* Se define un kernel llamado 'function' */) col0 sh gr
/Times-Roman ff 190.50 scf sf
4140 180 m
gs 1 -1 sc (#include <stdio.h>) col0 sh gr
/Times-Roman ff 190.50 scf sf
4140 405 m
gs 1 -1 sc (#include <cuda.h>) col0 sh gr
/Times-Roman ff 190.50 scf sf
4140 630 m
gs 1 -1 sc (#define N 200) col0 sh gr
/Times-Roman ff 190.50 scf sf
4140 855 m
gs 1 -1 sc (#define N_BLOQUES 1) col0 sh gr
% here ends figure;
pagefooter
showpage
%%Trailer
%EOF
