%!PS-Adobe-2.0 EPSF-2.0
%%Title: ej_queries_english.fig
%%Creator: fig2dev Version 3.2 Patchlevel 5
%%CreationDate: Mon Nov  9 23:05:52 2009
%%For: root@hanamichi (root)
%%BoundingBox: 0 0 530 253
%Magnification: 1.0000
%%EndComments
%%BeginProlog
/$F2psDict 200 dict def
$F2psDict begin
$F2psDict /mtrx matrix put
/col-1 {0 setgray} bind def
/col0 {0.000 0.000 0.000 srgb} bind def
/col1 {0.000 0.000 1.000 srgb} bind def
/col2 {0.000 1.000 0.000 srgb} bind def
/col3 {0.000 1.000 1.000 srgb} bind def
/col4 {1.000 0.000 0.000 srgb} bind def
/col5 {1.000 0.000 1.000 srgb} bind def
/col6 {1.000 1.000 0.000 srgb} bind def
/col7 {1.000 1.000 1.000 srgb} bind def
/col8 {0.000 0.000 0.560 srgb} bind def
/col9 {0.000 0.000 0.690 srgb} bind def
/col10 {0.000 0.000 0.820 srgb} bind def
/col11 {0.530 0.810 1.000 srgb} bind def
/col12 {0.000 0.560 0.000 srgb} bind def
/col13 {0.000 0.690 0.000 srgb} bind def
/col14 {0.000 0.820 0.000 srgb} bind def
/col15 {0.000 0.560 0.560 srgb} bind def
/col16 {0.000 0.690 0.690 srgb} bind def
/col17 {0.000 0.820 0.820 srgb} bind def
/col18 {0.560 0.000 0.000 srgb} bind def
/col19 {0.690 0.000 0.000 srgb} bind def
/col20 {0.820 0.000 0.000 srgb} bind def
/col21 {0.560 0.000 0.560 srgb} bind def
/col22 {0.690 0.000 0.690 srgb} bind def
/col23 {0.820 0.000 0.820 srgb} bind def
/col24 {0.500 0.190 0.000 srgb} bind def
/col25 {0.630 0.250 0.000 srgb} bind def
/col26 {0.750 0.380 0.000 srgb} bind def
/col27 {1.000 0.500 0.500 srgb} bind def
/col28 {1.000 0.630 0.630 srgb} bind def
/col29 {1.000 0.750 0.750 srgb} bind def
/col30 {1.000 0.880 0.880 srgb} bind def
/col31 {1.000 0.840 0.000 srgb} bind def

end

/cp {closepath} bind def
/ef {eofill} bind def
/gr {grestore} bind def
/gs {gsave} bind def
/sa {save} bind def
/rs {restore} bind def
/l {lineto} bind def
/m {moveto} bind def
/rm {rmoveto} bind def
/n {newpath} bind def
/s {stroke} bind def
/sh {show} bind def
/slc {setlinecap} bind def
/slj {setlinejoin} bind def
/slw {setlinewidth} bind def
/srgb {setrgbcolor} bind def
/rot {rotate} bind def
/sc {scale} bind def
/sd {setdash} bind def
/ff {findfont} bind def
/sf {setfont} bind def
/scf {scalefont} bind def
/sw {stringwidth} bind def
/tr {translate} bind def
/tnt {dup dup currentrgbcolor
  4 -2 roll dup 1 exch sub 3 -1 roll mul add
  4 -2 roll dup 1 exch sub 3 -1 roll mul add
  4 -2 roll dup 1 exch sub 3 -1 roll mul add srgb}
  bind def
/shd {dup dup currentrgbcolor 4 -2 roll mul 4 -2 roll mul
  4 -2 roll mul srgb} bind def
/reencdict 12 dict def /ReEncode { reencdict begin
/newcodesandnames exch def /newfontname exch def /basefontname exch def
/basefontdict basefontname findfont def /newfont basefontdict maxlength dict def
basefontdict { exch dup /FID ne { dup /Encoding eq
{ exch dup length array copy newfont 3 1 roll put }
{ exch newfont 3 1 roll put } ifelse } { pop pop } ifelse } forall
newfont /FontName newfontname put newcodesandnames aload pop
128 1 255 { newfont /Encoding get exch /.notdef put } for
newcodesandnames length 2 idiv { newfont /Encoding get 3 1 roll put } repeat
newfontname newfont definefont pop end } def
/isovec [
8#055 /minus 8#200 /grave 8#201 /acute 8#202 /circumflex 8#203 /tilde
8#204 /macron 8#205 /breve 8#206 /dotaccent 8#207 /dieresis
8#210 /ring 8#211 /cedilla 8#212 /hungarumlaut 8#213 /ogonek 8#214 /caron
8#220 /dotlessi 8#230 /oe 8#231 /OE
8#240 /space 8#241 /exclamdown 8#242 /cent 8#243 /sterling
8#244 /currency 8#245 /yen 8#246 /brokenbar 8#247 /section 8#250 /dieresis
8#251 /copyright 8#252 /ordfeminine 8#253 /guillemotleft 8#254 /logicalnot
8#255 /hyphen 8#256 /registered 8#257 /macron 8#260 /degree 8#261 /plusminus
8#262 /twosuperior 8#263 /threesuperior 8#264 /acute 8#265 /mu 8#266 /paragraph
8#267 /periodcentered 8#270 /cedilla 8#271 /onesuperior 8#272 /ordmasculine
8#273 /guillemotright 8#274 /onequarter 8#275 /onehalf
8#276 /threequarters 8#277 /questiondown 8#300 /Agrave 8#301 /Aacute
8#302 /Acircumflex 8#303 /Atilde 8#304 /Adieresis 8#305 /Aring
8#306 /AE 8#307 /Ccedilla 8#310 /Egrave 8#311 /Eacute
8#312 /Ecircumflex 8#313 /Edieresis 8#314 /Igrave 8#315 /Iacute
8#316 /Icircumflex 8#317 /Idieresis 8#320 /Eth 8#321 /Ntilde 8#322 /Ograve
8#323 /Oacute 8#324 /Ocircumflex 8#325 /Otilde 8#326 /Odieresis 8#327 /multiply
8#330 /Oslash 8#331 /Ugrave 8#332 /Uacute 8#333 /Ucircumflex
8#334 /Udieresis 8#335 /Yacute 8#336 /Thorn 8#337 /germandbls 8#340 /agrave
8#341 /aacute 8#342 /acircumflex 8#343 /atilde 8#344 /adieresis 8#345 /aring
8#346 /ae 8#347 /ccedilla 8#350 /egrave 8#351 /eacute
8#352 /ecircumflex 8#353 /edieresis 8#354 /igrave 8#355 /iacute
8#356 /icircumflex 8#357 /idieresis 8#360 /eth 8#361 /ntilde 8#362 /ograve
8#363 /oacute 8#364 /ocircumflex 8#365 /otilde 8#366 /odieresis 8#367 /divide
8#370 /oslash 8#371 /ugrave 8#372 /uacute 8#373 /ucircumflex
8#374 /udieresis 8#375 /yacute 8#376 /thorn 8#377 /ydieresis] def
/NewCenturySchlbk-Roman /NewCenturySchlbk-Roman-iso isovec ReEncode
/NewCenturySchlbk-Bold /NewCenturySchlbk-Bold-iso isovec ReEncode
/$F2psBegin {$F2psDict begin /$F2psEnteredState save def} def
/$F2psEnd {$F2psEnteredState restore end} def

/pageheader {
save
newpath 0 253 moveto 0 0 lineto 530 0 lineto 530 253 lineto closepath clip newpath
-72.8 298.8 translate
1 -1 scale
$F2psBegin
10 setmiterlimit
0 slj 0 slc
 0.06299 0.06299 sc
} bind def
/pagefooter {
$F2psEnd
restore
} bind def
%%EndProlog
pageheader
%
% Fig objects follow
%
% 
% here starts figure with depth 50
% Polyline
0 slj
0 slc
7.500 slw
n 5670 1620 m
 9135 1620 l gs col0 s gr 
% Polyline
n 6300 1305 m
 6300 4725 l gs col0 s gr 
% Polyline
n 7740 1305 m
 7740 4680 l gs col0 s gr 
% Polyline
n 1755 1215 m
 1755 4635 l gs col0 s gr 
% Polyline
n 1170 1620 m
 4635 1620 l gs col0 s gr 
% Polyline
n 3195 1260 m
 3195 4635 l gs col0 s gr 
/NewCenturySchlbk-Roman-iso ff 190.50 scf sf
1845 2070 m
gs 1 -1 sc (q1) col0 sh gr
/NewCenturySchlbk-Roman-iso ff 190.50 scf sf
1845 2310 m
gs 1 -1 sc (q1) col0 sh gr
/NewCenturySchlbk-Roman-iso ff 190.50 scf sf
1845 2550 m
gs 1 -1 sc (q1) col0 sh gr
/NewCenturySchlbk-Roman-iso ff 190.50 scf sf
1845 2790 m
gs 1 -1 sc (q1) col0 sh gr
/NewCenturySchlbk-Roman-iso ff 190.50 scf sf
1845 3015 m
gs 1 -1 sc (q5) col0 sh gr
/NewCenturySchlbk-Roman-iso ff 190.50 scf sf
1845 3255 m
gs 1 -1 sc (q5) col0 sh gr
/NewCenturySchlbk-Roman-iso ff 190.50 scf sf
1845 3495 m
gs 1 -1 sc (q5) col0 sh gr
/NewCenturySchlbk-Roman-iso ff 190.50 scf sf
1845 3735 m
gs 1 -1 sc (q5) col0 sh gr
/NewCenturySchlbk-Roman-iso ff 190.50 scf sf
1845 4200 m
gs 1 -1 sc (q9) col0 sh gr
/NewCenturySchlbk-Roman-iso ff 190.50 scf sf
1845 4440 m
gs 1 -1 sc (q9) col0 sh gr
/NewCenturySchlbk-Roman-iso ff 190.50 scf sf
1845 4680 m
gs 1 -1 sc (q9) col0 sh gr
/NewCenturySchlbk-Roman-iso ff 190.50 scf sf
1845 3960 m
gs 1 -1 sc (q9) col0 sh gr
/NewCenturySchlbk-Roman-iso ff 190.50 scf sf
1305 2070 m
gs 1 -1 sc (1) col0 sh gr
/NewCenturySchlbk-Roman-iso ff 190.50 scf sf
1305 2310 m
gs 1 -1 sc (2) col0 sh gr
/NewCenturySchlbk-Roman-iso ff 190.50 scf sf
1305 2550 m
gs 1 -1 sc (3) col0 sh gr
/NewCenturySchlbk-Roman-iso ff 190.50 scf sf
1305 2790 m
gs 1 -1 sc (4) col0 sh gr
/NewCenturySchlbk-Roman-iso ff 190.50 scf sf
1305 3030 m
gs 1 -1 sc (5) col0 sh gr
/NewCenturySchlbk-Roman-iso ff 190.50 scf sf
1305 3270 m
gs 1 -1 sc (6) col0 sh gr
/NewCenturySchlbk-Roman-iso ff 190.50 scf sf
1305 3510 m
gs 1 -1 sc (7) col0 sh gr
/NewCenturySchlbk-Roman-iso ff 190.50 scf sf
1305 3750 m
gs 1 -1 sc (8) col0 sh gr
/NewCenturySchlbk-Roman-iso ff 190.50 scf sf
1305 3990 m
gs 1 -1 sc (9) col0 sh gr
/NewCenturySchlbk-Roman-iso ff 190.50 scf sf
1305 4230 m
gs 1 -1 sc (10) col0 sh gr
/NewCenturySchlbk-Roman-iso ff 190.50 scf sf
1305 4470 m
gs 1 -1 sc (11) col0 sh gr
/NewCenturySchlbk-Roman-iso ff 190.50 scf sf
1305 4710 m
gs 1 -1 sc (12) col0 sh gr
/NewCenturySchlbk-Roman-iso ff 190.50 scf sf
2160 2070 m
gs 1 -1 sc (q2) col0 sh gr
/NewCenturySchlbk-Roman-iso ff 190.50 scf sf
2160 2310 m
gs 1 -1 sc (q2) col0 sh gr
/NewCenturySchlbk-Roman-iso ff 190.50 scf sf
2160 2550 m
gs 1 -1 sc (q2) col0 sh gr
/NewCenturySchlbk-Roman-iso ff 190.50 scf sf
2475 2295 m
gs 1 -1 sc (q3) col0 sh gr
/NewCenturySchlbk-Roman-iso ff 190.50 scf sf
2475 2535 m
gs 1 -1 sc (q3) col0 sh gr
/NewCenturySchlbk-Roman-iso ff 190.50 scf sf
2160 2790 m
gs 1 -1 sc (q6) col0 sh gr
/NewCenturySchlbk-Roman-iso ff 190.50 scf sf
2160 3030 m
gs 1 -1 sc (q6) col0 sh gr
/NewCenturySchlbk-Roman-iso ff 190.50 scf sf
2160 3270 m
gs 1 -1 sc (q6) col0 sh gr
/NewCenturySchlbk-Roman-iso ff 190.50 scf sf
2475 3015 m
gs 1 -1 sc (q7) col0 sh gr
/NewCenturySchlbk-Roman-iso ff 190.50 scf sf
2475 3255 m
gs 1 -1 sc (q7) col0 sh gr
/NewCenturySchlbk-Roman-iso ff 190.50 scf sf
2115 3510 m
gs 1 -1 sc (q10) col0 sh gr
/NewCenturySchlbk-Roman-iso ff 190.50 scf sf
2115 3750 m
gs 1 -1 sc (q10) col0 sh gr
/NewCenturySchlbk-Roman-iso ff 190.50 scf sf
2115 3990 m
gs 1 -1 sc (q10) col0 sh gr
/NewCenturySchlbk-Roman-iso ff 190.50 scf sf
2475 3735 m
gs 1 -1 sc (q11) col0 sh gr
/NewCenturySchlbk-Roman-iso ff 190.50 scf sf
2475 3975 m
gs 1 -1 sc (q11) col0 sh gr
/NewCenturySchlbk-Roman-iso ff 190.50 scf sf
1845 4200 m
gs 1 -1 sc (q9) col0 sh gr
/NewCenturySchlbk-Roman-iso ff 190.50 scf sf
1845 4440 m
gs 1 -1 sc (q9) col0 sh gr
/NewCenturySchlbk-Roman-iso ff 190.50 scf sf
1845 4680 m
gs 1 -1 sc (q9) col0 sh gr
/NewCenturySchlbk-Roman-iso ff 190.50 scf sf
1845 3960 m
gs 1 -1 sc (q9) col0 sh gr
/NewCenturySchlbk-Roman-iso ff 190.50 scf sf
6390 2070 m
gs 1 -1 sc (q1) col0 sh gr
/NewCenturySchlbk-Roman-iso ff 190.50 scf sf
6390 2310 m
gs 1 -1 sc (q1) col0 sh gr
/NewCenturySchlbk-Roman-iso ff 190.50 scf sf
6390 2550 m
gs 1 -1 sc (q1) col0 sh gr
/NewCenturySchlbk-Roman-iso ff 190.50 scf sf
6390 2790 m
gs 1 -1 sc (q1) col0 sh gr
/NewCenturySchlbk-Roman-iso ff 190.50 scf sf
6750 2070 m
gs 1 -1 sc (q2) col0 sh gr
/NewCenturySchlbk-Roman-iso ff 190.50 scf sf
6750 2310 m
gs 1 -1 sc (q2) col0 sh gr
/NewCenturySchlbk-Roman-iso ff 190.50 scf sf
6750 2550 m
gs 1 -1 sc (q2) col0 sh gr
/NewCenturySchlbk-Roman-iso ff 190.50 scf sf
7065 2295 m
gs 1 -1 sc (q3) col0 sh gr
/NewCenturySchlbk-Roman-iso ff 190.50 scf sf
7065 2535 m
gs 1 -1 sc (q3) col0 sh gr
/NewCenturySchlbk-Roman-iso ff 190.50 scf sf
7020 2790 m
gs 1 -1 sc (q6) col0 sh gr
/NewCenturySchlbk-Roman-iso ff 190.50 scf sf
7020 3030 m
gs 1 -1 sc (q6) col0 sh gr
/NewCenturySchlbk-Roman-iso ff 190.50 scf sf
7020 3270 m
gs 1 -1 sc (q6) col0 sh gr
/NewCenturySchlbk-Roman-iso ff 190.50 scf sf
7335 3015 m
gs 1 -1 sc (q7) col0 sh gr
/NewCenturySchlbk-Roman-iso ff 190.50 scf sf
7335 3255 m
gs 1 -1 sc (q7) col0 sh gr
/NewCenturySchlbk-Roman-iso ff 190.50 scf sf
5805 2025 m
gs 1 -1 sc (1) col0 sh gr
/NewCenturySchlbk-Roman-iso ff 190.50 scf sf
5805 2265 m
gs 1 -1 sc (2) col0 sh gr
/NewCenturySchlbk-Roman-iso ff 190.50 scf sf
5805 2505 m
gs 1 -1 sc (3) col0 sh gr
/NewCenturySchlbk-Roman-iso ff 190.50 scf sf
5805 2745 m
gs 1 -1 sc (4) col0 sh gr
/NewCenturySchlbk-Roman-iso ff 190.50 scf sf
5805 2985 m
gs 1 -1 sc (5) col0 sh gr
/NewCenturySchlbk-Roman-iso ff 190.50 scf sf
5805 3225 m
gs 1 -1 sc (6) col0 sh gr
/NewCenturySchlbk-Roman-iso ff 190.50 scf sf
5805 3465 m
gs 1 -1 sc (7) col0 sh gr
/NewCenturySchlbk-Roman-iso ff 190.50 scf sf
5805 3705 m
gs 1 -1 sc (8) col0 sh gr
/NewCenturySchlbk-Roman-iso ff 190.50 scf sf
5805 3945 m
gs 1 -1 sc (9) col0 sh gr
/NewCenturySchlbk-Roman-iso ff 190.50 scf sf
5805 4185 m
gs 1 -1 sc (10) col0 sh gr
/NewCenturySchlbk-Roman-iso ff 190.50 scf sf
5805 4425 m
gs 1 -1 sc (11) col0 sh gr
/NewCenturySchlbk-Roman-iso ff 190.50 scf sf
5805 4665 m
gs 1 -1 sc (12) col0 sh gr
/NewCenturySchlbk-Roman-iso ff 190.50 scf sf
6390 3705 m
gs 1 -1 sc (q9) col0 sh gr
/NewCenturySchlbk-Roman-iso ff 190.50 scf sf
6390 3945 m
gs 1 -1 sc (q9) col0 sh gr
/NewCenturySchlbk-Roman-iso ff 190.50 scf sf
6390 4185 m
gs 1 -1 sc (q9) col0 sh gr
/NewCenturySchlbk-Roman-iso ff 190.50 scf sf
6390 3465 m
gs 1 -1 sc (q9) col0 sh gr
/NewCenturySchlbk-Roman-iso ff 190.50 scf sf
6750 2790 m
gs 1 -1 sc (q5) col0 sh gr
/NewCenturySchlbk-Roman-iso ff 190.50 scf sf
6750 3030 m
gs 1 -1 sc (q5) col0 sh gr
/NewCenturySchlbk-Roman-iso ff 190.50 scf sf
6750 3240 m
gs 1 -1 sc (q5) col0 sh gr
/NewCenturySchlbk-Roman-iso ff 190.50 scf sf
6750 3480 m
gs 1 -1 sc (q5) col0 sh gr
/NewCenturySchlbk-Roman-iso ff 190.50 scf sf
6975 3465 m
gs 1 -1 sc (q10) col0 sh gr
/NewCenturySchlbk-Roman-iso ff 190.50 scf sf
6975 3705 m
gs 1 -1 sc (q10) col0 sh gr
/NewCenturySchlbk-Roman-iso ff 190.50 scf sf
6975 3945 m
gs 1 -1 sc (q10) col0 sh gr
/NewCenturySchlbk-Roman-iso ff 190.50 scf sf
7335 3690 m
gs 1 -1 sc (q11) col0 sh gr
/NewCenturySchlbk-Roman-iso ff 190.50 scf sf
7335 3930 m
gs 1 -1 sc (q11) col0 sh gr
/NewCenturySchlbk-Roman-iso ff 190.50 scf sf
5670 1485 m
gs 1 -1 sc (Time) col0 sh gr
/NewCenturySchlbk-Bold-iso ff 190.50 scf sf
6390 1845 m
gs 1 -1 sc (T1 T2 T3 T4) col0 sh gr
/NewCenturySchlbk-Roman-iso ff 190.50 scf sf
7875 1485 m
gs 1 -1 sc (Bulk-Circular) col0 sh gr
/NewCenturySchlbk-Roman-iso ff 190.50 scf sf
6615 1485 m
gs 1 -1 sc (Local) col0 sh gr
/NewCenturySchlbk-Bold-iso ff 190.50 scf sf
7875 1845 m
gs 1 -1 sc (T1 T2 T3 T4) col0 sh gr
/NewCenturySchlbk-Roman-iso ff 190.50 scf sf
7380 2520 m
gs 1 -1 sc (q4) col0 sh gr
/NewCenturySchlbk-Roman-iso ff 190.50 scf sf
6390 3240 m
gs 1 -1 sc (q8) col0 sh gr
/NewCenturySchlbk-Roman-iso ff 190.50 scf sf
6615 3960 m
gs 1 -1 sc (q12) col0 sh gr
/NewCenturySchlbk-Roman-iso ff 190.50 scf sf
7875 2070 m
gs 1 -1 sc (q1  q1  q1  q1) col0 sh gr
/NewCenturySchlbk-Roman-iso ff 190.50 scf sf
7875 2295 m
gs 1 -1 sc (q2  q2  q2 ) col0 sh gr
/NewCenturySchlbk-Roman-iso ff 190.50 scf sf
7875 2520 m
gs 1 -1 sc (q3 ) col0 sh gr
/NewCenturySchlbk-Roman-iso ff 190.50 scf sf
8550 2520 m
gs 1 -1 sc (q3  q4) col0 sh gr
/NewCenturySchlbk-Roman-iso ff 190.50 scf sf
7875 2790 m
gs 1 -1 sc (q5  q5  q5  q5) col0 sh gr
/NewCenturySchlbk-Roman-iso ff 190.50 scf sf
7875 2790 m
gs 1 -1 sc (q5  q5  q5  q5) col0 sh gr
/NewCenturySchlbk-Roman-iso ff 190.50 scf sf
7875 3015 m
gs 1 -1 sc (q6  q6  q6 ) col0 sh gr
/NewCenturySchlbk-Roman-iso ff 190.50 scf sf
7875 3465 m
gs 1 -1 sc (q8) col0 sh gr
/NewCenturySchlbk-Roman-iso ff 190.50 scf sf
8865 3015 m
gs 1 -1 sc (q7 ) col0 sh gr
/NewCenturySchlbk-Roman-iso ff 190.50 scf sf
7875 3240 m
gs 1 -1 sc (q7 ) col0 sh gr
/NewCenturySchlbk-Roman-iso ff 190.50 scf sf
8145 3465 m
gs 1 -1 sc (q10 q10 q10) col0 sh gr
/NewCenturySchlbk-Roman-iso ff 190.50 scf sf
7875 3690 m
gs 1 -1 sc (q9  q9  q9  q9) col0 sh gr
/NewCenturySchlbk-Roman-iso ff 190.50 scf sf
8190 3915 m
gs 1 -1 sc (q12) col0 sh gr
/NewCenturySchlbk-Roman-iso ff 190.50 scf sf
8865 3915 m
gs 1 -1 sc (q11) col0 sh gr
/NewCenturySchlbk-Roman-iso ff 190.50 scf sf
7830 3915 m
gs 1 -1 sc (q11) col0 sh gr
/NewCenturySchlbk-Roman-iso ff 190.50 scf sf
5670 900 m
gs 1 -1 sc (Least loaded thread selection for queries) col0 sh gr
/NewCenturySchlbk-Roman-iso ff 190.50 scf sf
1170 1485 m
gs 1 -1 sc (Time) col0 sh gr
/NewCenturySchlbk-Roman-iso ff 190.50 scf sf
2160 1485 m
gs 1 -1 sc (Local) col0 sh gr
/NewCenturySchlbk-Roman-iso ff 190.50 scf sf
3375 1485 m
gs 1 -1 sc (Bulk-Circular) col0 sh gr
/NewCenturySchlbk-Bold-iso ff 190.50 scf sf
1845 1845 m
gs 1 -1 sc (T1 T2 T3 T4) col0 sh gr
/NewCenturySchlbk-Bold-iso ff 190.50 scf sf
3330 1845 m
gs 1 -1 sc (T1 T2 T3 T4) col0 sh gr
/NewCenturySchlbk-Roman-iso ff 190.50 scf sf
2835 2520 m
gs 1 -1 sc (q4) col0 sh gr
/NewCenturySchlbk-Roman-iso ff 190.50 scf sf
2835 3240 m
gs 1 -1 sc (q8) col0 sh gr
/NewCenturySchlbk-Roman-iso ff 190.50 scf sf
3330 2070 m
gs 1 -1 sc (q1  q1  q1  q1) col0 sh gr
/NewCenturySchlbk-Roman-iso ff 190.50 scf sf
3330 2295 m
gs 1 -1 sc (q2  q2  q2 ) col0 sh gr
/NewCenturySchlbk-Roman-iso ff 190.50 scf sf
3330 2565 m
gs 1 -1 sc (q3 ) col0 sh gr
/NewCenturySchlbk-Roman-iso ff 190.50 scf sf
3330 2790 m
gs 1 -1 sc (q5  q5  q5  q5) col0 sh gr
/NewCenturySchlbk-Roman-iso ff 190.50 scf sf
3330 3015 m
gs 1 -1 sc (q6  q6  q6 ) col0 sh gr
/NewCenturySchlbk-Roman-iso ff 190.50 scf sf
3330 3240 m
gs 1 -1 sc (q7 ) col0 sh gr
/NewCenturySchlbk-Roman-iso ff 190.50 scf sf
3330 3510 m
gs 1 -1 sc (q9  q9  q9  q9) col0 sh gr
/NewCenturySchlbk-Roman-iso ff 190.50 scf sf
3285 3735 m
gs 1 -1 sc (q10) col0 sh gr
/NewCenturySchlbk-Roman-iso ff 190.50 scf sf
3645 3735 m
gs 1 -1 sc (q10) col0 sh gr
/NewCenturySchlbk-Roman-iso ff 190.50 scf sf
4005 3735 m
gs 1 -1 sc (q10) col0 sh gr
/NewCenturySchlbk-Roman-iso ff 190.50 scf sf
3285 3960 m
gs 1 -1 sc (q11) col0 sh gr
/NewCenturySchlbk-Roman-iso ff 190.50 scf sf
4005 2565 m
gs 1 -1 sc (q3  q4) col0 sh gr
/NewCenturySchlbk-Roman-iso ff 190.50 scf sf
4005 3240 m
gs 1 -1 sc (q7  q8) col0 sh gr
/NewCenturySchlbk-Roman-iso ff 190.50 scf sf
4005 3960 m
gs 1 -1 sc (q11) col0 sh gr
/NewCenturySchlbk-Roman-iso ff 190.50 scf sf
4320 3960 m
gs 1 -1 sc (q12) col0 sh gr
/NewCenturySchlbk-Roman-iso ff 190.50 scf sf
2835 3960 m
gs 1 -1 sc (q12) col0 sh gr
/NewCenturySchlbk-Roman-iso ff 190.50 scf sf
1440 945 m
gs 1 -1 sc (CIrcular distribution of queries) col0 sh gr
% here ends figure;
pagefooter
showpage
%%Trailer
%EOF
