%!PS-Adobe-2.0 EPSF-2.0
%%Title: fig_kuang09.fig
%%Creator: fig2dev Version 3.2 Patchlevel 5
%%CreationDate: Wed Aug 18 18:34:01 2010
%%For: root@hanamichi (root)
%%BoundingBox: 0 0 471 195
%Magnification: 1.0000
%%EndComments
%%BeginProlog
/$F2psDict 200 dict def
$F2psDict begin
$F2psDict /mtrx matrix put
/col-1 {0 setgray} bind def
/col0 {0.000 0.000 0.000 srgb} bind def
/col1 {0.000 0.000 1.000 srgb} bind def
/col2 {0.000 1.000 0.000 srgb} bind def
/col3 {0.000 1.000 1.000 srgb} bind def
/col4 {1.000 0.000 0.000 srgb} bind def
/col5 {1.000 0.000 1.000 srgb} bind def
/col6 {1.000 1.000 0.000 srgb} bind def
/col7 {1.000 1.000 1.000 srgb} bind def
/col8 {0.000 0.000 0.560 srgb} bind def
/col9 {0.000 0.000 0.690 srgb} bind def
/col10 {0.000 0.000 0.820 srgb} bind def
/col11 {0.530 0.810 1.000 srgb} bind def
/col12 {0.000 0.560 0.000 srgb} bind def
/col13 {0.000 0.690 0.000 srgb} bind def
/col14 {0.000 0.820 0.000 srgb} bind def
/col15 {0.000 0.560 0.560 srgb} bind def
/col16 {0.000 0.690 0.690 srgb} bind def
/col17 {0.000 0.820 0.820 srgb} bind def
/col18 {0.560 0.000 0.000 srgb} bind def
/col19 {0.690 0.000 0.000 srgb} bind def
/col20 {0.820 0.000 0.000 srgb} bind def
/col21 {0.560 0.000 0.560 srgb} bind def
/col22 {0.690 0.000 0.690 srgb} bind def
/col23 {0.820 0.000 0.820 srgb} bind def
/col24 {0.500 0.190 0.000 srgb} bind def
/col25 {0.630 0.250 0.000 srgb} bind def
/col26 {0.750 0.380 0.000 srgb} bind def
/col27 {1.000 0.500 0.500 srgb} bind def
/col28 {1.000 0.630 0.630 srgb} bind def
/col29 {1.000 0.750 0.750 srgb} bind def
/col30 {1.000 0.880 0.880 srgb} bind def
/col31 {1.000 0.840 0.000 srgb} bind def

end

/cp {closepath} bind def
/ef {eofill} bind def
/gr {grestore} bind def
/gs {gsave} bind def
/sa {save} bind def
/rs {restore} bind def
/l {lineto} bind def
/m {moveto} bind def
/rm {rmoveto} bind def
/n {newpath} bind def
/s {stroke} bind def
/sh {show} bind def
/slc {setlinecap} bind def
/slj {setlinejoin} bind def
/slw {setlinewidth} bind def
/srgb {setrgbcolor} bind def
/rot {rotate} bind def
/sc {scale} bind def
/sd {setdash} bind def
/ff {findfont} bind def
/sf {setfont} bind def
/scf {scalefont} bind def
/sw {stringwidth} bind def
/tr {translate} bind def
/tnt {dup dup currentrgbcolor
  4 -2 roll dup 1 exch sub 3 -1 roll mul add
  4 -2 roll dup 1 exch sub 3 -1 roll mul add
  4 -2 roll dup 1 exch sub 3 -1 roll mul add srgb}
  bind def
/shd {dup dup currentrgbcolor 4 -2 roll mul 4 -2 roll mul
  4 -2 roll mul srgb} bind def
/$F2psBegin {$F2psDict begin /$F2psEnteredState save def} def
/$F2psEnd {$F2psEnteredState restore end} def

/pageheader {
save
newpath 0 195 moveto 0 0 lineto 471 0 lineto 471 195 lineto closepath clip newpath
-50.1 338.3 translate
1 -1 scale
$F2psBegin
10 setmiterlimit
0 slj 0 slc
 0.06299 0.06299 sc
} bind def
/pagefooter {
$F2psEnd
restore
} bind def
%%EndProlog
pageheader
%
% Fig objects follow
%
% 
% here starts figure with depth 50
% Polyline
0 slj
0 slc
7.500 slw
gs  clippath
5964 3420 m 6045 3420 l 6045 3330 l 5964 3330 l 5964 3330 l 6024 3375 l 5964 3420 l cp
5736 3330 m 5655 3330 l 5655 3420 l 5736 3420 l 5736 3420 l 5676 3375 l 5736 3330 l cp
eoclip
n 5670 3375 m
 6030 3375 l gs 0.00 setgray ef gr gs col0 s gr gr

% arrowhead
n 5736 3330 m 5676 3375 l 5736 3420 l 5736 3330 l  cp gs 0.00 setgray ef gr  col0 s
% arrowhead
n 5964 3420 m 6024 3375 l 5964 3330 l 5964 3420 l  cp gs 0.00 setgray ef gr  col0 s
% Polyline
n 3105 2745 m 4995 2745 l 4995 3960 l 3105 3960 l
 cp gs col0 s gr 
% Polyline
n 5355 2745 m 7920 2745 l 7920 3960 l 5355 3960 l
 cp gs col0 s gr 
% Polyline
n 3105 3060 m 4995 3060 l 4995 3330 l 3105 3330 l
 cp gs col0 s gr 
% Polyline
n 3510 3060 m 4635 3060 l 4635 3330 l 3510 3330 l
 cp gs col0 s gr 
% Polyline
n 3870 3060 m 4275 3060 l 4275 3330 l 3870 3330 l
 cp gs col0 s gr 
% Polyline
45.000 slw
n 3105 3150 m
 4995 3150 l gs col0 s gr 
% Polyline
7.500 slw
gs  clippath
3242 2580 m 3090 2580 l 3090 2640 l 3242 2640 l 3242 2640 l 3122 2610 l 3242 2580 l cp
eoclip
n 3780 2610 m
 3105 2610 l gs col0 s gr gr

% arrowhead
n 3242 2580 m 3122 2610 l 3242 2640 l  col0 s
% Polyline
gs  clippath
4813 2640 m 4965 2640 l 4965 2580 l 4813 2580 l 4813 2580 l 4933 2610 l 4813 2640 l cp
eoclip
n 4230 2610 m
 4950 2610 l gs col0 s gr gr

% arrowhead
n 4813 2640 m 4933 2610 l 4813 2580 l  col0 s
% Polyline
gs  clippath
3000 2882 m 3000 2730 l 2940 2730 l 2940 2882 l 2940 2882 l 2970 2762 l 3000 2882 l cp
eoclip
n 2970 3150 m
 2970 2745 l gs col0 s gr gr

% arrowhead
n 3000 2882 m 2970 2762 l 2940 2882 l  col0 s
% Polyline
gs  clippath
2940 3823 m 2940 3975 l 3000 3975 l 3000 3823 l 3000 3823 l 2970 3943 l 2940 3823 l cp
eoclip
n 2970 3465 m
 2970 3960 l gs col0 s gr gr

% arrowhead
n 2940 3823 m 2970 3943 l 3000 3823 l  col0 s
% Polyline
gs  clippath
5492 2580 m 5340 2580 l 5340 2640 l 5492 2640 l 5492 2640 l 5372 2610 l 5492 2580 l cp
eoclip
n 6255 2610 m
 5355 2610 l gs col0 s gr gr

% arrowhead
n 5492 2580 m 5372 2610 l 5492 2640 l  col0 s
% Polyline
gs  clippath
7738 2640 m 7890 2640 l 7890 2580 l 7738 2580 l 7738 2580 l 7858 2610 l 7738 2640 l cp
eoclip
n 6840 2610 m
 7875 2610 l gs col0 s gr gr

% arrowhead
n 7738 2640 m 7858 2610 l 7738 2580 l  col0 s
% Polyline
gs  clippath
5190 3823 m 5190 3975 l 5250 3975 l 5250 3823 l 5250 3823 l 5220 3943 l 5190 3823 l cp
eoclip
n 5220 3465 m
 5220 3960 l gs col0 s gr gr

% arrowhead
n 5190 3823 m 5220 3943 l 5250 3823 l  col0 s
% Polyline
gs  clippath
5250 2882 m 5250 2730 l 5190 2730 l 5190 2882 l 5190 2882 l 5220 2762 l 5250 2882 l cp
eoclip
n 5220 3150 m
 5220 2745 l gs col0 s gr gr

% arrowhead
n 5250 2882 m 5220 2762 l 5190 2882 l  col0 s
% Polyline
 [60] 0 sd
n 4995 3105 m 7920 3105 l 7920 3150 l 4995 3150 l
 cp gs col0 s gr  [] 0 sd
% Polyline
 [60] 0 sd
n 5760 2745 m 5805 2745 l 5805 3960 l 5760 3960 l
 cp gs col0 s gr  [] 0 sd
% Polyline
gs  clippath
5775 2609 m 5775 2760 l 5835 2760 l 5835 2609 l 5835 2609 l 5805 2729 l 5775 2609 l cp
eoclip
n 2430 3870 m 2655 3870 l 2655 2295 l 5805 2295 l
 5805 2745 l gs col0 s gr gr

% arrowhead
n 5775 2609 m 5805 2729 l 5835 2609 l 5775 2609 l  cp gs 0.00 setgray ef gr  col0 s
% Polyline
n 5670 3060 m 6030 3060 l 6030 3330 l 5670 3330 l
 cp gs col0 s gr 
% Polyline
n 5760 3105 m 5805 3105 l 5805 3150 l 5760 3150 l
 cp gs 0.00 setgray ef gr gs col0 s gr 
% Polyline
gs  clippath
6075 3309 m 6075 3390 l 6165 3390 l 6165 3309 l 6165 3309 l 6120 3369 l 6075 3309 l cp
6165 3126 m 6165 3045 l 6075 3045 l 6075 3126 l 6075 3126 l 6120 3066 l 6165 3126 l cp
eoclip
n 6120 3060 m
 6120 3375 l gs 0.00 setgray ef gr gs col0 s gr gr

% arrowhead
n 6165 3126 m 6120 3066 l 6075 3126 l 6165 3126 l  cp gs 0.00 setgray ef gr  col0 s
% arrowhead
n 6075 3309 m 6120 3369 l 6165 3309 l 6075 3309 l  cp gs 0.00 setgray ef gr  col0 s
% Polyline
n 1125 2745 m 2430 2745 l 2430 4995 l 1125 4995 l
 cp gs col0 s gr 
% Polyline
n 1125 3735 m 2430 3735 l 2430 4050 l 1125 4050 l
 cp gs col0 s gr 
% Polyline
n 1440 3735 m 2115 3735 l 2115 4050 l 1440 4050 l
 cp gs col0 s gr 
% Polyline
n 1755 3735 m
 1755 4050 l gs col0 s gr 
% Polyline
45.000 slw
n 1125 3870 m
 2430 3870 l gs col0 s gr 
% Polyline
7.500 slw
gs  clippath
1262 2580 m 1110 2580 l 1110 2640 l 1262 2640 l 1262 2640 l 1142 2610 l 1262 2580 l cp
eoclip
n 1530 2610 m
 1125 2610 l gs col0 s gr gr

% arrowhead
n 1262 2580 m 1142 2610 l 1262 2640 l  col0 s
% Polyline
gs  clippath
2293 2640 m 2445 2640 l 2445 2580 l 2293 2580 l 2293 2580 l 2413 2610 l 2293 2640 l cp
eoclip
n 1980 2610 m
 2430 2610 l gs col0 s gr gr

% arrowhead
n 2293 2640 m 2413 2610 l 2293 2580 l  col0 s
% Polyline
gs  clippath
975 2882 m 975 2730 l 915 2730 l 915 2882 l 915 2882 l 945 2762 l 975 2882 l cp
eoclip
n 945 3735 m
 945 2745 l gs col0 s gr gr

% arrowhead
n 975 2882 m 945 2762 l 915 2882 l  col0 s
% Polyline
gs  clippath
915 4858 m 915 5010 l 975 5010 l 975 4858 l 975 4858 l 945 4978 l 915 4858 l cp
eoclip
n 945 4095 m
 945 4995 l gs col0 s gr gr

% arrowhead
n 915 4858 m 945 4978 l 975 4858 l  col0 s
/Times-Roman ff 174.63 scf sf
5805 3600 m
gs 1 -1 sc (T) col0 sh gr
/Times-Roman ff 222.25 scf sf
3960 2655 m
gs 1 -1 sc (d) col0 sh gr
/Times-Roman ff 190.50 scf sf
810 5355 m
gs 1 -1 sc (A. Elementos de la B.D.) col0 sh gr
/Times-Roman ff 190.50 scf sf
3330 4410 m
gs 1 -1 sc (B. Consultas) col0 sh gr
/Times-Roman ff 190.50 scf sf
5355 4410 m
gs 1 -1 sc (C. Matriz de distancias entre A y B) col0 sh gr
/Times-Roman ff 174.63 scf sf
6210 3285 m
gs 1 -1 sc (T) col0 sh gr
/Times-Roman ff 222.25 scf sf
1710 2655 m
gs 1 -1 sc (d) col0 sh gr
/Times-Roman ff 222.25 scf sf
900 3960 m
gs 1 -1 sc (n) col0 sh gr
/Times-Roman ff 222.25 scf sf
2880 3375 m
gs 1 -1 sc (m) col0 sh gr
/Times-Roman ff 222.25 scf sf
6480 2655 m
gs 1 -1 sc (n) col0 sh gr
/Times-Roman ff 222.25 scf sf
5130 3330 m
gs 1 -1 sc (m) col0 sh gr
% here ends figure;
pagefooter
showpage
%%Trailer
%EOF
