%!PS-Adobe-2.0 EPSF-2.0
%%Title: gpu.fig
%%Creator: fig2dev Version 3.2 Patchlevel 5
%%CreationDate: Wed Aug  4 04:44:25 2010
%%For: root@hanamichi (root)
%%BoundingBox: 0 0 535 492
%Magnification: 1.0000
%%EndComments
%%BeginProlog
/$F2psDict 200 dict def
$F2psDict begin
$F2psDict /mtrx matrix put
/col-1 {0 setgray} bind def
/col0 {0.000 0.000 0.000 srgb} bind def
/col1 {0.000 0.000 1.000 srgb} bind def
/col2 {0.000 1.000 0.000 srgb} bind def
/col3 {0.000 1.000 1.000 srgb} bind def
/col4 {1.000 0.000 0.000 srgb} bind def
/col5 {1.000 0.000 1.000 srgb} bind def
/col6 {1.000 1.000 0.000 srgb} bind def
/col7 {1.000 1.000 1.000 srgb} bind def
/col8 {0.000 0.000 0.560 srgb} bind def
/col9 {0.000 0.000 0.690 srgb} bind def
/col10 {0.000 0.000 0.820 srgb} bind def
/col11 {0.530 0.810 1.000 srgb} bind def
/col12 {0.000 0.560 0.000 srgb} bind def
/col13 {0.000 0.690 0.000 srgb} bind def
/col14 {0.000 0.820 0.000 srgb} bind def
/col15 {0.000 0.560 0.560 srgb} bind def
/col16 {0.000 0.690 0.690 srgb} bind def
/col17 {0.000 0.820 0.820 srgb} bind def
/col18 {0.560 0.000 0.000 srgb} bind def
/col19 {0.690 0.000 0.000 srgb} bind def
/col20 {0.820 0.000 0.000 srgb} bind def
/col21 {0.560 0.000 0.560 srgb} bind def
/col22 {0.690 0.000 0.690 srgb} bind def
/col23 {0.820 0.000 0.820 srgb} bind def
/col24 {0.500 0.190 0.000 srgb} bind def
/col25 {0.630 0.250 0.000 srgb} bind def
/col26 {0.750 0.380 0.000 srgb} bind def
/col27 {1.000 0.500 0.500 srgb} bind def
/col28 {1.000 0.630 0.630 srgb} bind def
/col29 {1.000 0.750 0.750 srgb} bind def
/col30 {1.000 0.880 0.880 srgb} bind def
/col31 {1.000 0.840 0.000 srgb} bind def

end

/cp {closepath} bind def
/ef {eofill} bind def
/gr {grestore} bind def
/gs {gsave} bind def
/sa {save} bind def
/rs {restore} bind def
/l {lineto} bind def
/m {moveto} bind def
/rm {rmoveto} bind def
/n {newpath} bind def
/s {stroke} bind def
/sh {show} bind def
/slc {setlinecap} bind def
/slj {setlinejoin} bind def
/slw {setlinewidth} bind def
/srgb {setrgbcolor} bind def
/rot {rotate} bind def
/sc {scale} bind def
/sd {setdash} bind def
/ff {findfont} bind def
/sf {setfont} bind def
/scf {scalefont} bind def
/sw {stringwidth} bind def
/tr {translate} bind def
/tnt {dup dup currentrgbcolor
  4 -2 roll dup 1 exch sub 3 -1 roll mul add
  4 -2 roll dup 1 exch sub 3 -1 roll mul add
  4 -2 roll dup 1 exch sub 3 -1 roll mul add srgb}
  bind def
/shd {dup dup currentrgbcolor 4 -2 roll mul 4 -2 roll mul
  4 -2 roll mul srgb} bind def
 /DrawEllipse {
	/endangle exch def
	/startangle exch def
	/yrad exch def
	/xrad exch def
	/y exch def
	/x exch def
	/savematrix mtrx currentmatrix def
	x y tr xrad yrad sc 0 0 1 startangle endangle arc
	closepath
	savematrix setmatrix
	} def

/$F2psBegin {$F2psDict begin /$F2psEnteredState save def} def
/$F2psEnd {$F2psEnteredState restore end} def

/pageheader {
save
newpath 0 492 moveto 0 0 lineto 535 0 lineto 535 492 lineto closepath clip newpath
-41.8 553.5 translate
1 -1 scale
$F2psBegin
10 setmiterlimit
0 slj 0 slc
 0.06299 0.06299 sc
} bind def
/pagefooter {
$F2psEnd
restore
} bind def
%%EndProlog
pageheader
%
% Fig objects follow
%
% 
% here starts figure with depth 50
% Ellipse
7.500 slw
n 4455 4365 45 45 0 360 DrawEllipse gs 0.00 setgray ef gr gs col0 s gr

% Ellipse
n 4635 4365 45 45 0 360 DrawEllipse gs 0.00 setgray ef gr gs col0 s gr

% Ellipse
n 4815 4365 45 45 0 360 DrawEllipse gs 0.00 setgray ef gr gs col0 s gr

% Polyline
0 slj
0 slc
n 1035 4050 m 1890 4050 l 1890 3735 l 1035 3735 l
 cp gs col0 s gr 
% Polyline
n 2790 4050 m 3645 4050 l 3645 3735 l 2790 3735 l
 cp gs col0 s gr 
% Polyline
n 5130 4050 m 5985 4050 l 5985 3735 l 5130 3735 l
 cp gs col0 s gr 
% Polyline
n 960 7470 m 855 7470 855 8670 105 arcto 4 {pop} repeat
  855 8775 7590 8775 105 arcto 4 {pop} repeat
  7695 8775 7695 7575 105 arcto 4 {pop} repeat
  7695 7470 960 7470 105 arcto 4 {pop} repeat
 cp gs col0 s gr 
% Ellipse
n 1935 1710 45 45 0 360 DrawEllipse gs 0.00 setgray ef gr gs col0 s gr

% Ellipse
n 2025 1575 45 45 0 360 DrawEllipse gs 0.00 setgray ef gr gs col0 s gr

% Ellipse
n 2115 1440 45 45 0 360 DrawEllipse gs 0.00 setgray ef gr gs col0 s gr

% Polyline
n 2340 4275 m
 2790 4275 l gs col0 s gr 
% Polyline
n 2790 4455 m
 2340 4455 l gs col0 s gr 
% Polyline
n 4095 4275 m
 5130 4275 l gs col0 s gr 
% Polyline
n 5130 4455 m
 4095 4455 l gs col0 s gr 
% Polyline
n 6435 4275 m
 6840 4275 l gs col0 s gr 
% Polyline
n 6435 4455 m
 6840 4455 l gs col0 s gr 
% Polyline
n 6840 3510 m 7785 3510 l 7785 4635 l 6840 4635 l
 cp gs col0 s gr 
% Polyline
n 1005 6165 m 900 6165 900 6600 105 arcto 4 {pop} repeat
  900 6705 7320 6705 105 arcto 4 {pop} repeat
  7425 6705 7425 6270 105 arcto 4 {pop} repeat
  7425 6165 1005 6165 105 arcto 4 {pop} repeat
 cp gs col0 s gr 
% Polyline
n 1035 4050 m 2340 4050 l 2340 4635 l 1035 4635 l
 cp gs col0 s gr 
% Polyline
gs  clippath
2100 3511 m 2100 3360 l 2040 3360 l 2040 3511 l 2040 3511 l 2070 3391 l 2100 3511 l cp
2040 3914 m 2040 4065 l 2100 4065 l 2100 3914 l 2100 3914 l 2070 4034 l 2040 3914 l cp
eoclip
n 2070 4050 m
 2070 3375 l gs col0 s gr gr

% arrowhead
n 2040 3914 m 2070 4034 l 2100 3914 l 2040 3914 l  cp gs 0.00 setgray ef gr  col0 s
% arrowhead
n 2100 3511 m 2070 3391 l 2040 3511 l 2100 3511 l  cp gs 0.00 setgray ef gr  col0 s
% Polyline
n 2790 4050 m 4095 4050 l 4095 4635 l 2790 4635 l
 cp gs col0 s gr 
% Polyline
gs  clippath
3855 3511 m 3855 3360 l 3795 3360 l 3795 3511 l 3795 3511 l 3825 3391 l 3855 3511 l cp
3795 3914 m 3795 4065 l 3855 4065 l 3855 3914 l 3855 3914 l 3825 4034 l 3795 3914 l cp
eoclip
n 3825 4050 m
 3825 3375 l gs col0 s gr gr

% arrowhead
n 3795 3914 m 3825 4034 l 3855 3914 l 3795 3914 l  cp gs 0.00 setgray ef gr  col0 s
% arrowhead
n 3855 3511 m 3825 3391 l 3795 3511 l 3855 3511 l  cp gs 0.00 setgray ef gr  col0 s
% Polyline
n 5130 4050 m 6435 4050 l 6435 4635 l 5130 4635 l
 cp gs col0 s gr 
% Polyline
gs  clippath
6195 3511 m 6195 3360 l 6135 3360 l 6135 3511 l 6135 3511 l 6165 3391 l 6195 3511 l cp
6135 3914 m 6135 4065 l 6195 4065 l 6195 3914 l 6195 3914 l 6165 4034 l 6135 3914 l cp
eoclip
n 6165 4050 m
 6165 3375 l gs col0 s gr gr

% arrowhead
n 6135 3914 m 6165 4034 l 6195 3914 l 6135 3914 l  cp gs 0.00 setgray ef gr  col0 s
% arrowhead
n 6195 3511 m 6165 3391 l 6135 3511 l 6195 3511 l  cp gs 0.00 setgray ef gr  col0 s
% Polyline
gs  clippath
1425 4771 m 1425 4620 l 1365 4620 l 1365 4771 l 1365 4771 l 1395 4651 l 1425 4771 l cp
eoclip
n 1395 6165 m
 1395 4635 l gs col0 s gr gr

% arrowhead
n 1425 4771 m 1395 4651 l 1365 4771 l 1425 4771 l  cp gs 0.00 setgray ef gr  col0 s
% Polyline
gs  clippath
1650 4771 m 1650 4620 l 1590 4620 l 1590 4771 l 1590 4771 l 1620 4651 l 1650 4771 l cp
eoclip
n 1620 5310 m
 1620 4635 l gs col0 s gr gr

% arrowhead
n 1650 4771 m 1620 4651 l 1590 4771 l 1650 4771 l  cp gs 0.00 setgray ef gr  col0 s
% Polyline
gs  clippath
3225 4771 m 3225 4620 l 3165 4620 l 3165 4771 l 3165 4771 l 3195 4651 l 3225 4771 l cp
eoclip
n 3195 6165 m
 3195 4635 l gs col0 s gr gr

% arrowhead
n 3225 4771 m 3195 4651 l 3165 4771 l 3225 4771 l  cp gs 0.00 setgray ef gr  col0 s
% Polyline
gs  clippath
3495 4771 m 3495 4620 l 3435 4620 l 3435 4771 l 3435 4771 l 3465 4651 l 3495 4771 l cp
eoclip
n 3465 5310 m
 3465 4635 l gs col0 s gr gr

% arrowhead
n 3495 4771 m 3465 4651 l 3435 4771 l 3495 4771 l  cp gs 0.00 setgray ef gr  col0 s
% Polyline
gs  clippath
5520 4771 m 5520 4620 l 5460 4620 l 5460 4771 l 5460 4771 l 5490 4651 l 5520 4771 l cp
eoclip
n 5490 6165 m
 5490 4635 l gs col0 s gr gr

% arrowhead
n 5520 4771 m 5490 4651 l 5460 4771 l 5520 4771 l  cp gs 0.00 setgray ef gr  col0 s
% Polyline
gs  clippath
5745 4771 m 5745 4620 l 5685 4620 l 5685 4771 l 5685 4771 l 5715 4651 l 5745 4771 l cp
eoclip
n 5715 5310 m
 5715 4635 l gs col0 s gr gr

% arrowhead
n 5745 4771 m 5715 4651 l 5685 4771 l 5745 4771 l  cp gs 0.00 setgray ef gr  col0 s
% Polyline
n 1005 5310 m 900 5310 900 5745 105 arcto 4 {pop} repeat
  900 5850 7320 5850 105 arcto 4 {pop} repeat
  7425 5850 7425 5415 105 arcto 4 {pop} repeat
  7425 5310 1005 5310 105 arcto 4 {pop} repeat
 cp gs col0 s gr 
% Polyline
gs  clippath
2895 7312 m 2895 7463 l 2955 7463 l 2955 7312 l 2955 7312 l 2925 7432 l 2895 7312 l cp
2955 4771 m 2955 4620 l 2895 4620 l 2895 4771 l 2895 4771 l 2925 4651 l 2955 4771 l cp
eoclip
n 2925 4635 m
 2925 7448 l gs col0 s gr gr

% arrowhead
n 2955 4771 m 2925 4651 l 2895 4771 l 2955 4771 l  cp gs 0.00 setgray ef gr  col0 s
% arrowhead
n 2895 7312 m 2925 7432 l 2955 7312 l 2895 7312 l  cp gs 0.00 setgray ef gr  col0 s
% Polyline
gs  clippath
5235 7312 m 5235 7463 l 5295 7463 l 5295 7312 l 5295 7312 l 5265 7432 l 5235 7312 l cp
5295 4771 m 5295 4620 l 5235 4620 l 5235 4771 l 5235 4771 l 5265 4651 l 5295 4771 l cp
eoclip
n 5265 4635 m
 5265 7448 l gs col0 s gr gr

% arrowhead
n 5295 4771 m 5265 4651 l 5235 4771 l 5295 4771 l  cp gs 0.00 setgray ef gr  col0 s
% arrowhead
n 5235 7312 m 5265 7432 l 5295 7312 l 5235 7312 l  cp gs 0.00 setgray ef gr  col0 s
% Polyline
n 1905 2835 m 1800 2835 1800 3270 105 arcto 4 {pop} repeat
  1800 3375 6240 3375 105 arcto 4 {pop} repeat
  6345 3375 6345 2940 105 arcto 4 {pop} repeat
  6345 2835 1905 2835 105 arcto 4 {pop} repeat
 cp gs col0 s gr 
% Polyline
gs  clippath
1200 4771 m 1200 4620 l 1140 4620 l 1140 4771 l 1140 4771 l 1170 4651 l 1200 4771 l cp
1140 7312 m 1140 7463 l 1200 7463 l 1200 7312 l 1200 7312 l 1170 7432 l 1140 7312 l cp
eoclip
n 1170 7448 m
 1170 4635 l gs col0 s gr gr

% arrowhead
n 1140 7312 m 1170 7432 l 1200 7312 l 1140 7312 l  cp gs 0.00 setgray ef gr  col0 s
% arrowhead
n 1200 4771 m 1170 4651 l 1140 4771 l 1200 4771 l  cp gs 0.00 setgray ef gr  col0 s
% Polyline
n 1710 1800 m 1710 990 l 9135 990 l 9135 5265 l
 8415 5265 l gs col0 s gr 
% Polyline
n 1125 2205 m 1125 1800 l 8415 1800 l 8415 6435 l
 7920 6435 l gs col0 s gr 
% Polyline
n 675 2205 m 7920 2205 l 7920 6930 l 675 6930 l
 cp gs col0 s gr 
% Polyline
gs  clippath
6105 5986 m 6105 5835 l 6045 5835 l 6045 5986 l 6045 5986 l 6075 5866 l 6105 5986 l cp
eoclip
n 6075 7470 m
 6075 5850 l gs col0 s gr gr

% arrowhead
n 6105 5986 m 6075 5866 l 6045 5986 l 6105 5986 l  cp gs 0.00 setgray ef gr  col0 s
% Polyline
gs  clippath
6465 6841 m 6465 6690 l 6405 6690 l 6405 6841 l 6405 6841 l 6435 6721 l 6465 6841 l cp
eoclip
n 6435 7470 m
 6435 6705 l gs col0 s gr gr

% arrowhead
n 6465 6841 m 6435 6721 l 6405 6841 l 6465 6841 l  cp gs 0.00 setgray ef gr  col0 s
/Times-Bold ff 174.63 scf sf
1080 3960 m
gs 1 -1 sc (Registers) col0 sh gr
/Times-Bold ff 174.63 scf sf
2835 3960 m
gs 1 -1 sc (Registers) col0 sh gr
/Times-Bold ff 174.63 scf sf
5175 3960 m
gs 1 -1 sc (Registers) col0 sh gr
/Times-Bold ff 222.25 scf sf
6255 8055 m
gs 1 -1 sc (Memory) col0 sh gr
/Times-Bold ff 222.25 scf sf
6300 7785 m
gs 1 -1 sc (Device) col0 sh gr
/Times-Bold ff 190.50 scf sf
6975 4380 m
gs 1 -1 sc (    Unit) col0 sh gr
/Times-Bold ff 190.50 scf sf
6885 4095 m
gs 1 -1 sc (Instruction) col0 sh gr
/Times-Bold ff 190.50 scf sf
1170 4410 m
gs 1 -1 sc (Processor 1) col0 sh gr
/Times-Bold ff 190.50 scf sf
5265 4410 m
gs 1 -1 sc (Processor M) col0 sh gr
/Times-Bold ff 190.50 scf sf
2925 4410 m
gs 1 -1 sc (Processor 2) col0 sh gr
/Times-Bold ff 222.25 scf sf
6210 5535 m
gs 1 -1 sc (Constant) col0 sh gr
/Times-Bold ff 222.25 scf sf
6345 5805 m
gs 1 -1 sc (Cache) col0 sh gr
/Times-Bold ff 222.25 scf sf
6255 6390 m
gs 1 -1 sc (Texture) col0 sh gr
/Times-Bold ff 222.25 scf sf
6345 6660 m
gs 1 -1 sc (Cache) col0 sh gr
/Times-Bold ff 222.25 scf sf
945 2520 m
gs 1 -1 sc (Multiprocessor 1) col0 sh gr
/Times-Bold ff 222.25 scf sf
1305 2070 m
gs 1 -1 sc (Multiprocessor 2) col0 sh gr
/Times-Bold ff 222.25 scf sf
1800 1260 m
gs 1 -1 sc (Multiprocessor N) col0 sh gr
/Times-Bold ff 222.25 scf sf
3195 3195 m
gs 1 -1 sc (Shared Memory) col0 sh gr
% here ends figure;
pagefooter
showpage
%%Trailer
%EOF
