%!PS-Adobe-2.0 EPSF-2.0
%%Title: ej_lc.fig
%%Creator: fig2dev Version 3.2 Patchlevel 5c
%%CreationDate: Sun May 29 14:57:56 2011
%%BoundingBox: 0 0 180 198
%Magnification: 1.0000
%%EndComments
%%BeginProlog
/$F2psDict 200 dict def
$F2psDict begin
$F2psDict /mtrx matrix put
/col-1 {0 setgray} bind def
/col0 {0.000 0.000 0.000 srgb} bind def
/col1 {0.000 0.000 1.000 srgb} bind def
/col2 {0.000 1.000 0.000 srgb} bind def
/col3 {0.000 1.000 1.000 srgb} bind def
/col4 {1.000 0.000 0.000 srgb} bind def
/col5 {1.000 0.000 1.000 srgb} bind def
/col6 {1.000 1.000 0.000 srgb} bind def
/col7 {1.000 1.000 1.000 srgb} bind def
/col8 {0.000 0.000 0.560 srgb} bind def
/col9 {0.000 0.000 0.690 srgb} bind def
/col10 {0.000 0.000 0.820 srgb} bind def
/col11 {0.530 0.810 1.000 srgb} bind def
/col12 {0.000 0.560 0.000 srgb} bind def
/col13 {0.000 0.690 0.000 srgb} bind def
/col14 {0.000 0.820 0.000 srgb} bind def
/col15 {0.000 0.560 0.560 srgb} bind def
/col16 {0.000 0.690 0.690 srgb} bind def
/col17 {0.000 0.820 0.820 srgb} bind def
/col18 {0.560 0.000 0.000 srgb} bind def
/col19 {0.690 0.000 0.000 srgb} bind def
/col20 {0.820 0.000 0.000 srgb} bind def
/col21 {0.560 0.000 0.560 srgb} bind def
/col22 {0.690 0.000 0.690 srgb} bind def
/col23 {0.820 0.000 0.820 srgb} bind def
/col24 {0.500 0.190 0.000 srgb} bind def
/col25 {0.630 0.250 0.000 srgb} bind def
/col26 {0.750 0.380 0.000 srgb} bind def
/col27 {1.000 0.500 0.500 srgb} bind def
/col28 {1.000 0.630 0.630 srgb} bind def
/col29 {1.000 0.750 0.750 srgb} bind def
/col30 {1.000 0.880 0.880 srgb} bind def
/col31 {1.000 0.840 0.000 srgb} bind def
/col32 {0.000 0.000 0.208 srgb} bind def

end

/cp {closepath} bind def
/ef {eofill} bind def
/gr {grestore} bind def
/gs {gsave} bind def
/sa {save} bind def
/rs {restore} bind def
/l {lineto} bind def
/m {moveto} bind def
/rm {rmoveto} bind def
/n {newpath} bind def
/s {stroke} bind def
/sh {show} bind def
/slc {setlinecap} bind def
/slj {setlinejoin} bind def
/slw {setlinewidth} bind def
/srgb {setrgbcolor} bind def
/rot {rotate} bind def
/sc {scale} bind def
/sd {setdash} bind def
/ff {findfont} bind def
/sf {setfont} bind def
/scf {scalefont} bind def
/sw {stringwidth} bind def
/tr {translate} bind def
/tnt {dup dup currentrgbcolor
  4 -2 roll dup 1 exch sub 3 -1 roll mul add
  4 -2 roll dup 1 exch sub 3 -1 roll mul add
  4 -2 roll dup 1 exch sub 3 -1 roll mul add srgb}
  bind def
/shd {dup dup currentrgbcolor 4 -2 roll mul 4 -2 roll mul
  4 -2 roll mul srgb} bind def
 /DrawEllipse {
	/endangle exch def
	/startangle exch def
	/yrad exch def
	/xrad exch def
	/y exch def
	/x exch def
	/savematrix mtrx currentmatrix def
	x y tr xrad yrad sc 0 0 1 startangle endangle arc
	closepath
	savematrix setmatrix
	} def

/$F2psBegin {$F2psDict begin /$F2psEnteredState save def} def
/$F2psEnd {$F2psEnteredState restore end} def

/pageheader {
save
newpath 0 198 moveto 0 0 lineto 180 0 lineto 180 198 lineto closepath clip newpath
-141.2 310.7 translate
1 -1 scale
$F2psBegin
10 setmiterlimit
0 slj 0 slc
 0.06299 0.06299 sc
} bind def
/pagefooter {
$F2psEnd
restore
} bind def
%%EndProlog
pageheader
%
% Fig objects follow
%
% 
% here starts figure with depth 50
% Ellipse
7.500 slw
 [60] 0 sd
n 3285 2790 45 45 0 360 DrawEllipse gs 0.00 setgray ef gr gs col0 s gr
 [] 0 sd
% Ellipse
n 4095 3960 966 966 0 360 DrawEllipse gs col7 1.00 shd ef gr gs col0 s gr

% Ellipse
n 2970 3330 45 45 0 360 DrawEllipse gs 0.00 setgray ef gr gs col0 s gr

% Ellipse
n 4050 3915 45 45 0 360 DrawEllipse gs 0.00 setgray ef gr gs col0 s gr

% Ellipse
n 2925 3330 45 45 0 360 DrawEllipse gs 0.00 setgray ef gr gs col0 s gr

% Ellipse
n 3420 2430 45 45 0 360 DrawEllipse gs 0.00 setgray ef gr gs col0 s gr

% Ellipse
 [60] 0 sd
n 2925 3330 45 45 0 360 DrawEllipse gs 0.00 setgray ef gr gs col0 s gr
 [] 0 sd
% Ellipse
n 2925 3330 675 675 0 360 DrawEllipse gs col7 1.00 shd ef gr gs col0 s gr

% Ellipse
n 3375 2433 627 627 0 360 DrawEllipse gs col7 1.00 shd ef gr gs col0 s gr

% Ellipse
 [60] 0 sd
n 2925 3330 45 45 0 360 DrawEllipse gs 0.00 setgray ef gr gs col0 s gr
 [] 0 sd
% Ellipse
 [60] 0 sd
n 3375 2430 45 45 0 360 DrawEllipse gs 0.00 setgray ef gr gs col0 s gr
 [] 0 sd
% Ellipse
 [60] 0 sd
n 3330 2925 45 45 0 360 DrawEllipse gs 0.00 setgray ef gr gs col0 s gr
 [] 0 sd
% Polyline
0 slj
0 slc
 [60] 0 sd
n 4050 3915 m
 5085 3915 l gs 0.00 setgray ef gr gs col0 s gr  [] 0 sd
% Polyline
 [60] 0 sd
n 2925 3330 m
 3645 3330 l gs 0.00 setgray ef gr gs col0 s gr  [] 0 sd
% Polyline
 [60] 0 sd
n 3465 2430 m
 4050 2430 l gs 0.00 setgray ef gr gs col0 s gr  [] 0 sd
/Times-Roman ff 190.50 scf sf
3780 3825 m
gs 1 -1 sc (C) col0 sh gr
/Times-Roman ff 158.75 scf sf
3915 3870 m
gs 1 -1 sc (3) col0 sh gr
/Times-Roman ff 190.50 scf sf
2745 3240 m
gs 1 -1 sc (C) col0 sh gr
/Times-Roman ff 158.75 scf sf
2880 3285 m
gs 1 -1 sc (2) col0 sh gr
/Times-Roman ff 190.50 scf sf
3195 3195 m
gs 1 -1 sc (r) col0 sh gr
/Times-Roman ff 158.75 scf sf
3285 3285 m
gs 1 -1 sc (2) col0 sh gr
/Times-Roman ff 190.50 scf sf
4500 3825 m
gs 1 -1 sc (r) col0 sh gr
/Times-Roman ff 158.75 scf sf
4590 3915 m
gs 1 -1 sc (3) col0 sh gr
/Times-Roman ff 190.50 scf sf
3240 2310 m
gs 1 -1 sc (C) col0 sh gr
/Times-Roman ff 158.75 scf sf
3375 2355 m
gs 1 -1 sc (1) col0 sh gr
/Times-Roman ff 190.50 scf sf
3645 2385 m
gs 1 -1 sc (r) col0 sh gr
/Times-Roman ff 158.75 scf sf
3735 2430 m
gs 1 -1 sc (1) col0 sh gr
/Times-Roman ff 174.63 scf sf
3105 2925 m
gs 1 -1 sc (u) col0 sh gr
% here ends figure;
pagefooter
showpage
%%Trailer
%EOF
