#FIG 3.2  Produced by xfig version 3.2.5b
Landscape
Center
Metric
A4      
100.00
Single
-2
1200 2
0 32 #000035
6 2295 4050 2520 4275
4 0 0 50 -1 0 12 0.0000 4 150 105 2295 4185 q\001
4 0 0 50 -1 0 10 0.0000 4 105 75 2430 4275 1\001
-6
1 3 0 1 0 0 50 -1 20 4.000 1 0.0000 3375 4905 45 45 3375 4905 3420 4905
1 3 0 1 0 0 50 -1 -1 0.000 1 0.0000 2481 4058 405 405 2481 4058 2886 4058
1 3 0 1 0 0 50 -1 20 4.000 1 0.0000 2475 4050 45 45 2475 4050 2520 4050
1 3 0 1 0 0 50 -1 -1 4.000 1 0.0000 3420 4905 1028 1028 3420 4905 4365 4500
4 0 0 50 -1 0 12 0.0000 4 105 105 3420 5085 c\001
