#FIG 3.2  Produced by xfig version 3.2.5b
Landscape
Center
Metric
A4      
100.00
Single
-2
1200 2
0 32 #000035
6 2655 4050 3510 4860
6 2925 4485 3135 4680
4 0 0 50 -1 0 12 0.0000 4 150 105 2925 4590 q\001
4 0 0 50 -1 0 10 0.0000 4 105 75 3060 4680 2\001
-6
1 3 0 1 0 0 50 -1 -1 0.000 1 0.0000 3105 4455 405 405 3105 4455 3510 4455
1 3 0 1 0 0 50 -1 20 4.000 1 0.0000 3094 4456 45 45 3094 4456 3139 4456
-6
1 3 0 1 0 0 50 -1 20 4.000 1 0.0000 3375 4905 45 45 3375 4905 3420 4905
1 3 0 1 0 0 50 -1 -1 4.000 1 0.0000 3420 4905 1028 1028 3420 4905 4365 4500
2 1 1 1 0 0 50 -1 20 4.000 0 0 -1 0 0 2
	 3060 4455 3510 4455
4 0 0 50 -1 0 12 0.0000 4 105 105 3420 5085 c\001
