%!PS-Adobe-2.0 EPSF-2.0
%%Title: rango2.fig
%%Creator: fig2dev Version 3.2 Patchlevel 5
%%CreationDate: Tue Sep  1 18:22:42 2009
%%For: root@hanamichi (root)
%%BoundingBox: 0 0 274 300
%Magnification: 1.0000
%%EndComments
%%BeginProlog
/$F2psDict 200 dict def
$F2psDict begin
$F2psDict /mtrx matrix put
/col-1 {0 setgray} bind def
/col0 {0.000 0.000 0.000 srgb} bind def
/col1 {0.000 0.000 1.000 srgb} bind def
/col2 {0.000 1.000 0.000 srgb} bind def
/col3 {0.000 1.000 1.000 srgb} bind def
/col4 {1.000 0.000 0.000 srgb} bind def
/col5 {1.000 0.000 1.000 srgb} bind def
/col6 {1.000 1.000 0.000 srgb} bind def
/col7 {1.000 1.000 1.000 srgb} bind def
/col8 {0.000 0.000 0.560 srgb} bind def
/col9 {0.000 0.000 0.690 srgb} bind def
/col10 {0.000 0.000 0.820 srgb} bind def
/col11 {0.530 0.810 1.000 srgb} bind def
/col12 {0.000 0.560 0.000 srgb} bind def
/col13 {0.000 0.690 0.000 srgb} bind def
/col14 {0.000 0.820 0.000 srgb} bind def
/col15 {0.000 0.560 0.560 srgb} bind def
/col16 {0.000 0.690 0.690 srgb} bind def
/col17 {0.000 0.820 0.820 srgb} bind def
/col18 {0.560 0.000 0.000 srgb} bind def
/col19 {0.690 0.000 0.000 srgb} bind def
/col20 {0.820 0.000 0.000 srgb} bind def
/col21 {0.560 0.000 0.560 srgb} bind def
/col22 {0.690 0.000 0.690 srgb} bind def
/col23 {0.820 0.000 0.820 srgb} bind def
/col24 {0.500 0.190 0.000 srgb} bind def
/col25 {0.630 0.250 0.000 srgb} bind def
/col26 {0.750 0.380 0.000 srgb} bind def
/col27 {1.000 0.500 0.500 srgb} bind def
/col28 {1.000 0.630 0.630 srgb} bind def
/col29 {1.000 0.750 0.750 srgb} bind def
/col30 {1.000 0.880 0.880 srgb} bind def
/col31 {1.000 0.840 0.000 srgb} bind def

end

/cp {closepath} bind def
/ef {eofill} bind def
/gr {grestore} bind def
/gs {gsave} bind def
/sa {save} bind def
/rs {restore} bind def
/l {lineto} bind def
/m {moveto} bind def
/rm {rmoveto} bind def
/n {newpath} bind def
/s {stroke} bind def
/sh {show} bind def
/slc {setlinecap} bind def
/slj {setlinejoin} bind def
/slw {setlinewidth} bind def
/srgb {setrgbcolor} bind def
/rot {rotate} bind def
/sc {scale} bind def
/sd {setdash} bind def
/ff {findfont} bind def
/sf {setfont} bind def
/scf {scalefont} bind def
/sw {stringwidth} bind def
/tr {translate} bind def
/tnt {dup dup currentrgbcolor
  4 -2 roll dup 1 exch sub 3 -1 roll mul add
  4 -2 roll dup 1 exch sub 3 -1 roll mul add
  4 -2 roll dup 1 exch sub 3 -1 roll mul add srgb}
  bind def
/shd {dup dup currentrgbcolor 4 -2 roll mul 4 -2 roll mul
  4 -2 roll mul srgb} bind def
 /DrawEllipse {
	/endangle exch def
	/startangle exch def
	/yrad exch def
	/xrad exch def
	/y exch def
	/x exch def
	/savematrix mtrx currentmatrix def
	x y tr xrad yrad sc 0 0 1 startangle endangle arc
	closepath
	savematrix setmatrix
	} def

/$F2psBegin {$F2psDict begin /$F2psEnteredState save def} def
/$F2psEnd {$F2psEnteredState restore end} def

/pageheader {
save
newpath 0 300 moveto 0 0 lineto 274 0 lineto 274 300 lineto closepath clip newpath
-172.0 377.5 translate
1 -1 scale
$F2psBegin
10 setmiterlimit
0 slj 0 slc
 0.06299 0.06299 sc
} bind def
/pagefooter {
$F2psEnd
restore
} bind def
%%EndProlog
pageheader
%
% Fig objects follow
%
% 
% here starts figure with depth 50
% Ellipse
7.500 slw
n 6930 5850 135 135 0 360 DrawEllipse gs col0 s gr

% Ellipse
n 3915 3465 135 135 0 360 DrawEllipse gs col0 s gr

% Ellipse
n 4230 2655 135 135 0 360 DrawEllipse gs col0 s gr

% Ellipse
n 4230 4590 135 135 0 360 DrawEllipse gs col0 s gr

% Ellipse
n 4545 5130 135 135 0 360 DrawEllipse gs col0 s gr

% Ellipse
n 5445 5445 135 135 0 360 DrawEllipse gs col0 s gr

% Ellipse
n 6570 3780 135 135 0 360 DrawEllipse gs col0 s gr

% Ellipse
n 6345 2295 135 135 0 360 DrawEllipse gs col0 s gr

% Ellipse
n 5265 1665 135 135 0 360 DrawEllipse gs col0 s gr

% Ellipse
n 2970 1575 135 135 0 360 DrawEllipse gs col0 s gr

% Ellipse
n 2970 3645 135 135 0 360 DrawEllipse gs col0 s gr

% Ellipse
n 2880 5490 135 135 0 360 DrawEllipse gs col0 s gr

% Ellipse
30.000 slw
n 4860 4050 135 135 0 360 DrawEllipse gs col0 s gr

% Ellipse
n 5580 3015 135 135 0 360 DrawEllipse gs col0 s gr

% Ellipse
n 4905 3420 135 135 0 360 DrawEllipse gs col0 s gr

% Ellipse
15.000 slw
 [60] 0 sd
n 5384 3531 936 936 0 360 DrawEllipse gs col0 s gr
 [] 0 sd
% Polyline
0 slj
0 slc
7.500 slw
n 5490 3645 m
 5985 4230 l gs col0 s gr 
% Polyline
30.000 slw
n 5310 3465 m 5490 3465 l 5490 3645 l 5310 3645 l
 cp gs col0 s gr 
/Times-Roman ff 190.50 scf sf
6795 5670 m
gs 1 -1 sc (u8) col0 sh gr
/Times-Roman ff 190.50 scf sf
3780 3285 m
gs 1 -1 sc (u11) col0 sh gr
/Times-Roman ff 190.50 scf sf
4095 2475 m
gs 1 -1 sc (u4) col0 sh gr
/Times-Roman ff 190.50 scf sf
4095 4410 m
gs 1 -1 sc (u15) col0 sh gr
/Times-Roman ff 190.50 scf sf
4410 4950 m
gs 1 -1 sc (u1) col0 sh gr
/Times-Roman ff 190.50 scf sf
5310 5265 m
gs 1 -1 sc (u13) col0 sh gr
/Times-Roman ff 190.50 scf sf
6435 3600 m
gs 1 -1 sc (u9) col0 sh gr
/Times-Roman ff 190.50 scf sf
6210 2115 m
gs 1 -1 sc (u2) col0 sh gr
/Times-Roman ff 190.50 scf sf
5130 1485 m
gs 1 -1 sc (u12) col0 sh gr
/Times-Roman ff 190.50 scf sf
2835 1395 m
gs 1 -1 sc (u3) col0 sh gr
/Times-Roman ff 190.50 scf sf
2835 3465 m
gs 1 -1 sc (u7) col0 sh gr
/Times-Roman ff 190.50 scf sf
2745 5310 m
gs 1 -1 sc (u5) col0 sh gr
/Times-Bold ff 190.50 scf sf
4725 3870 m
gs 1 -1 sc (u14) col0 sh gr
/Times-Bold ff 190.50 scf sf
5445 2835 m
gs 1 -1 sc (u10) col0 sh gr
/Times-Bold ff 190.50 scf sf
4770 3240 m
gs 1 -1 sc (u6) col0 sh gr
/Times-Bold ff 190.50 scf sf
5490 3375 m
gs 1 -1 sc (q) col0 sh gr
/Times-Bold ff 190.50 scf sf
5625 4005 m
gs 1 -1 sc (r) col0 sh gr
% here ends figure;
pagefooter
showpage
%%Trailer
%EOF
